!PADS-POWERPCB-V3.0-MILS!

*PART*
F1	unknown
U100	DIP14
U300	DIP14
U200	DIP14

*NET*
*SIGNAL* UNNAMED_NET1
 U300.2
*SIGNAL* NETATTRIB
 U200.2 U100.5
*SIGNAL* GND
 U300.7 U200.7 U100.7
*SIGNAL* VCC
 U300.14 U200.14 U100.14
*SIGNAL* ONE
 F1.1 U300.1 U200.1 U100.3

*END*
