v 20031231 1
P 0 800 300 800 1 0 0
{
T 100 900 5 10 1 1 0 0 1
pinnumber=1
T 100 900 5 10 0 0 0 0 1
pinseq=1
T 0 800 5 10 0 1 0 0 1
pinlabel=anode
}
P 0 100 300 100 1 0 0
{
T 100 200 5 10 1 1 0 0 1
pinnumber=2
T 100 200 5 10 0 0 0 0 1
pinseq=2
T 0 100 5 10 0 1 0 0 1
pinlabel=cathode
}
P 1000 800 1300 800 1 0 1
{
T 1100 900 5 10 1 1 0 0 1
pinnumber=6
T 1100 900 5 10 0 0 0 0 1
pinseq=6
T 1000 800 5 10 0 1 0 0 1
pinlabel=base
}
P 1000 500 1300 500 1 0 1
{
T 1100 600 5 10 1 1 0 0 1
pinnumber=5
T 1100 600 5 10 0 0 0 0 1
pinseq=5
T 1000 500 5 10 0 1 0 0 1
pinlabel=collector
}
P 1000 200 1300 200 1 0 1
{
T 1100 300 5 10 1 1 0 0 1
pinnumber=4
T 1100 300 5 10 0 0 0 0 1
pinseq=4
T 1000 200 5 10 0 1 0 0 1
pinlabel=emitter
}
B 300 0 700 1000 3 0 0 0 -1 -1 0 0 -1 -1 -1 -1
L 700 400 900 600 3 0 0 0 -1 -1
L 700 400 900 200 3 0 0 0 -1 -1
L 700 600 700 200 3 0 0 0 -1 -1
L 900 300 900 200 3 0 0 0 -1 -1
L 900 200 800 200 3 0 0 0 -1 -1
L 900 200 1000 200 3 0 0 0 -1 -1
L 900 300 800 200 3 0 0 0 -1 -1
L 900 600 900 500 3 0 0 0 -1 -1
L 900 500 1000 500 3 0 0 0 -1 -1
L 1000 800 600 800 3 0 0 0 -1 -1
L 600 800 600 400 3 0 0 0 -1 -1
L 600 400 700 400 3 0 0 0 -1 -1
L 400 300 600 300 3 0 0 0 -1 -1
L 500 200 600 300 3 0 0 0 -1 -1
L 500 200 400 300 3 0 0 0 -1 -1
L 400 200 600 200 3 0 0 0 -1 -1
L 300 800 500 800 3 0 0 0 -1 -1
L 500 800 500 300 3 0 0 0 -1 -1
L 400 100 500 100 3 0 0 0 -1 -1
L 500 200 500 100 3 0 0 0 -1 -1
L 400 100 300 100 3 0 0 0 -1 -1
T 300 1100 9 10 1 1 0 0 1
810
T 800 1100 8 10 1 1 0 0 1
refdes=U?
T 900 1700 8 10 0 0 0 0 1
author=Terry J Porter techmanATd2.net.au
T 900 1900 8 10 0 0 0 0 1
footprint=DIP6
T 900 2100 8 10 0 0 0 0 1
device=810
