v 20030901
T 700 650 8 10 1 1 0 0
refdes=V?
T 700 850 5 10 0 0 0 0
spicetype=V
T 700 1450 5 10 0 0 0 0
description=piece-wise linear signal source
P 300 1200 300 900 1 0 0
{
T 350 1000 5 8 0 1 0 0
pinnumber=1
T 350 1000 5 8 0 1 0 2
pinseq=1
T 300 850 9 8 0 1 0 5
pinlabel=n+
T 300 700 5 8 0 1 0 5
pintype=pas
}
P 300 0 300 300 1 0 0
{
T 350 100 5 8 0 1 0 0
pinnumber=2
T 350 100 5 8 0 1 0 2
pinseq=2
T 300 350 9 8 0 1 0 3
pinlabel=n-
T 300 500 5 8 0 1 0 3
pintype=pas
}
V 300 600 300 3 0 0 0 -1 -1 0 -1 -1 -1 -1 -1
T 700 450 5 10 1 1 0 0
voltage=pwl 100n 0 200n 1
T 700 250 5 10 0 1 0 0
comment=syntax: pwl t1 v1 t2 v2 ...
L 120 500 200 720 3 0 0 0 -1 -1
L 200 720 200 620 3 0 0 0 -1 -1
L 200 620 360 640 3 0 0 0 -1 -1
L 360 640 380 560 3 0 0 0 -1 -1
L 380 560 460 500 3 0 0 0 -1 -1
T 300 900 9 10 1 0 0 5
+
T 300 300 9 10 1 0 0 3
-
