PINLIST,2
(DRAWING,GEDA.PIN,1-1
(SYM,1
DATA,2,F1
DATA,3,FUSE
DATA,4,unknown
PIN,,THREE,1-1,5,23,2
PIN,,TWO,1-1,5,23,1
)
(SYM,2
DATA,2,R2
DATA,3,220
DATA,4,unknown
PIN,,TEN,1-1,5,23,1
PIN,,ELEVEN,1-1,5,23,2
)
(SYM,3
DATA,2,CONN1
DATA,3,MAINS_CONNECTOR
DATA,4,unknown
PIN,,GND,1-1,5,23,3
PIN,,FIVE,1-1,5,23,2
PIN,,ONE,1-1,5,23,1
)
(SYM,4
DATA,2,C4
DATA,3,1uf
DATA,4,unknown
PIN,,NINE,1-1,5,23,2
PIN,,ELEVEN,1-1,5,23,1
)
(SYM,5
DATA,2,R1
DATA,3,5k
DATA,4,unknown
PIN,,NINE,1-1,5,23,1
PIN,,TEN,1-1,5,23,2
PIN,,NINE,1-1,5,23,3
)
(SYM,6
DATA,2,C3
DATA,3,22uF
DATA,4,unknown
PIN,,NINE,1-1,5,23,2
PIN,,TEN,1-1,5,23,1
)
(SYM,7
DATA,2,C2
DATA,3,0.1uF
DATA,4,unknown
PIN,,NINE,1-1,5,23,2
PIN,,EIGHT,1-1,5,23,1
)
(SYM,8
DATA,2,S1
DATA,3,SPST
DATA,4,unknown
PIN,,ONE,1-1,5,23,1
PIN,,TWO,1-1,5,23,2
)
(SYM,9
DATA,2,C1
DATA,3,2200uF
DATA,4,unknown
PIN,,NINE,1-1,5,23,2
PIN,,EIGHT,1-1,5,23,1
)
(SYM,10
DATA,2,T1
DATA,3,transformer
DATA,4,unknown
PIN,,SIX,1-1,5,23,3
PIN,,SEVEN,1-1,5,23,4
PIN,,THREE,1-1,5,23,1
PIN,,FIVE,1-1,5,23,2
)
(SYM,11
DATA,2,U2
DATA,3,LM317
DATA,4,unknown
PIN,,TEN,1-1,5,23,1
PIN,,EIGHT,1-1,5,23,3
PIN,,ELEVEN,1-1,5,23,2
)
(SYM,12
DATA,2,U1
DATA,3,DIODE-BRIDGE
DATA,4,unknown
PIN,,SIX,1-1,5,23,4
PIN,,SEVEN,1-1,5,23,3
PIN,,NINE,1-1,5,23,2
PIN,,EIGHT,1-1,5,23,1
)
)
SIG,TEN,1-1,5,TEN
SIG,ELEVEN,1-1,5,ELEVEN
SIG,GND,1-1,5,GND
SIG,ONE,1-1,5,ONE
SIG,FIVE,1-1,5,FIVE
SIG,THREE,1-1,5,THREE
SIG,TWO,1-1,5,TWO
SIG,SIX,1-1,5,SIX
SIG,SEVEN,1-1,5,SEVEN
SIG,NINE,1-1,5,NINE
SIG,EIGHT,1-1,5,EIGHT
)
