v 20040111 1
P 500 1900 500 2200 1 0 1
{
T 400 1750 9 8 1 1 0 0 1
pinlabel=VLC
T 525 1950 5 8 1 1 0 0 1
pinnumber=5
T 525 1950 5 8 0 0 0 0 1
pinseq=5
}
P 1100 1900 1100 2200 1 0 1
{
T 1050 1950 5 8 1 1 90 0 1
pinnumber=16
T 1050 1950 5 8 0 0 90 0 1
pinseq=16
T 1050 1750 9 10 1 1 0 0 1
pinlabel=0
}
T 700 2125 5 6 1 1 0 0 1
LSB
T 1275 1575 9 8 1 1 0 0 1
DATA BITS
P 1300 1900 1300 2200 1 0 1
{
T 1275 1750 9 10 1 1 0 0 1
pinlabel=1
T 1275 1950 5 8 1 1 90 0 1
pinnumber=15
T 1275 1950 5 8 0 0 90 0 1
pinseq=15
}
P 1500 1900 1500 2200 1 0 1
{
T 1450 1750 9 10 1 1 0 0 1
pinlabel=2
T 1475 1950 5 8 1 1 90 0 1
pinnumber=14
T 1475 1950 5 8 0 0 90 0 1
pinseq=14
}
P 1700 1900 1700 2200 1 0 1
{
T 1650 1750 9 10 1 1 0 0 1
pinlabel=3
T 1650 1950 5 8 1 1 90 0 1
pinnumber=13
T 1650 1950 5 8 0 0 90 0 1
pinseq=13
}
P 1900 1900 1900 2200 1 0 1
{
T 1850 1750 9 10 1 1 0 0 1
pinlabel=4
T 1850 1950 5 8 1 1 90 0 1
pinnumber=12
T 1850 1950 5 8 0 0 90 0 1
pinseq=12
}
P 2100 1900 2100 2200 1 0 1
{
T 2075 1750 9 10 1 1 0 0 1
pinlabel=5
T 2075 1975 5 8 1 1 90 0 1
pinnumber=11
T 2075 1975 5 8 0 0 90 0 1
pinseq=11
}
P 2300 1900 2300 2200 1 0 1
{
T 2250 1750 9 10 1 1 0 0 1
pinlabel=6
T 2275 1950 5 8 1 1 90 0 1
pinnumber=10
T 2275 1950 5 8 0 0 90 0 1
pinseq=10
}
P 2500 1900 2500 2200 1 0 1
{
T 2450 1750 9 10 1 1 0 0 1
pinlabel=7
T 2475 1975 5 8 1 1 90 0 1
pinnumber=9
T 2475 1975 5 8 0 0 90 0 1
pinseq=9
}
T 2575 2125 5 6 1 1 0 0 1
MSB
P 0 1500 300 1500 1 0 0
{
T 350 1475 9 8 1 1 0 0 1
pinlabel=VREF+
T 100 1550 5 8 1 1 0 0 1
pinnumber=2
T 100 1550 5 8 0 0 0 0 1
pinseq=2
}
P 0 700 300 700 1 0 0
{
T 350 650 9 8 1 1 0 0 1
pinlabel=VREF-
T 100 750 5 8 1 1 0 0 1
pinnumber=3
T 100 750 5 8 0 0 0 0 1
pinseq=3
}
L 300 1900 2700 1900 3 0 0 0 -1 -1
L 300 300 2700 300 3 0 0 0 -1 -1
T 2800 2200 5 10 0 0 0 0 1
device=DAC08
L 300 1900 300 300 3 0 0 0 -1 -1
P 500 300 500 0 1 0 1
{
T 450 325 9 8 1 1 0 0 1
pinlabel=V-
T 550 75 5 8 1 1 0 0 1
pinnumber=7
T 550 75 5 8 0 0 0 0 1
pinseq=7
}
P 1100 300 1100 0 1 0 1
{
T 975 500 9 8 1 1 0 0 1
pinlabel=EXT
T 900 350 9 8 1 1 0 0 1
pinlabel=COMP
T 1150 75 5 8 1 1 0 0 1
pinnumber=4
T 1150 75 5 8 0 0 0 0 1
pinseq=4
}
P 2100 300 2100 0 1 0 1
{
T 2050 325 9 8 1 1 0 0 1
pinlabel=V+
T 2175 75 5 8 1 1 0 0 1
pinnumber=1
T 2175 75 5 8 0 0 0 0 1
pinseq=1
}
P 2850 1600 3200 1600 1 0 1
{
T 2450 1500 9 8 1 1 0 0 1
pinlabel=IOUT
T 3000 1650 5 8 1 1 0 0 1
pinnumber=8
T 3000 1650 5 8 0 0 0 0 1
pinseq=8
}
P 2850 600 3200 600 1 0 1
{
T 2400 600 9 8 1 1 0 0 1
pinlabel=/IOUT
T 3000 425 5 8 1 1 0 0 1
pinnumber=6
T 3000 425 5 8 0 0 0 0 1
pinseq=6
}
L 3100 1100 2700 1900 3 0 0 0 -1 -1
L 2700 300 3100 1100 3 0 0 0 -1 -1
T 1300 1100 9 10 1 0 0 0 1
DAC08
T 2900 2000 8 10 1 1 0 0 1
refdes=U?
