v 20041228 1
P 0 900 300 900 1 0 0
{
T 200 950 5 8 1 1 0 6 1
pinnumber=1
T 200 850 5 8 0 1 0 8 1
pinseq=1
T 350 900 9 8 1 1 0 0 1
pinlabel=A15
T 350 900 5 8 0 1 0 2 1
pintype=in
}
P 0 1800 300 1800 1 0 0
{
T 200 1850 5 8 1 1 0 6 1
pinnumber=2
T 200 1750 5 8 0 1 0 8 1
pinseq=2
T 350 1800 9 8 1 1 0 0 1
pinlabel=A12
T 350 1800 5 8 0 1 0 2 1
pintype=in
}
P 0 3300 300 3300 1 0 0
{
T 200 3350 5 8 1 1 0 6 1
pinnumber=3
T 200 3250 5 8 0 1 0 8 1
pinseq=3
T 350 3300 9 8 1 1 0 0 1
pinlabel=A7
T 350 3300 5 8 0 1 0 2 1
pintype=in
}
P 0 3600 300 3600 1 0 0
{
T 200 3650 5 8 1 1 0 6 1
pinnumber=4
T 200 3550 5 8 0 1 0 8 1
pinseq=4
T 350 3600 9 8 1 1 0 0 1
pinlabel=A6
T 350 3600 5 8 0 1 0 2 1
pintype=in
}
P 0 3900 300 3900 1 0 0
{
T 200 3950 5 8 1 1 0 6 1
pinnumber=5
T 200 3850 5 8 0 1 0 8 1
pinseq=5
T 350 3900 9 8 1 1 0 0 1
pinlabel=A5
T 350 3900 5 8 0 1 0 2 1
pintype=in
}
P 0 4200 300 4200 1 0 0
{
T 200 4250 5 8 1 1 0 6 1
pinnumber=6
T 200 4150 5 8 0 1 0 8 1
pinseq=6
T 350 4200 9 8 1 1 0 0 1
pinlabel=A4
T 350 4200 5 8 0 1 0 2 1
pintype=in
}
P 0 4500 300 4500 1 0 0
{
T 200 4550 5 8 1 1 0 6 1
pinnumber=7
T 200 4450 5 8 0 1 0 8 1
pinseq=7
T 350 4500 9 8 1 1 0 0 1
pinlabel=A3
T 350 4500 5 8 0 1 0 2 1
pintype=in
}
P 0 4800 300 4800 1 0 0
{
T 200 4850 5 8 1 1 0 6 1
pinnumber=8
T 200 4750 5 8 0 1 0 8 1
pinseq=8
T 350 4800 9 8 1 1 0 0 1
pinlabel=A2
T 350 4800 5 8 0 1 0 2 1
pintype=in
}
P 0 5100 300 5100 1 0 0
{
T 200 5150 5 8 1 1 0 6 1
pinnumber=9
T 200 5050 5 8 0 1 0 8 1
pinseq=9
T 350 5100 9 8 1 1 0 0 1
pinlabel=A1
T 350 5100 5 8 0 1 0 2 1
pintype=in
}
P 0 5400 300 5400 1 0 0
{
T 200 5450 5 8 1 1 0 6 1
pinnumber=10
T 200 5350 5 8 0 1 0 8 1
pinseq=10
T 350 5400 9 8 1 1 0 0 1
pinlabel=A0
T 350 5400 5 8 0 1 0 2 1
pintype=in
}
P 2300 5400 2600 5400 1 0 1
{
T 2400 5450 5 8 1 1 0 0 1
pinnumber=11
T 2400 5350 5 8 0 1 0 2 1
pinseq=11
T 2250 5400 9 8 1 1 0 6 1
pinlabel=D0
T 2250 5400 5 8 0 1 0 8 1
pintype=tri
}
P 2300 5100 2600 5100 1 0 1
{
T 2400 5150 5 8 1 1 0 0 1
pinnumber=12
T 2400 5050 5 8 0 1 0 2 1
pinseq=12
T 2250 5100 9 8 1 1 0 6 1
pinlabel=D1
T 2250 5100 5 8 0 1 0 8 1
pintype=tri
}
P 2300 4800 2600 4800 1 0 1
{
T 2400 4850 5 8 1 1 0 0 1
pinnumber=13
T 2400 4750 5 8 0 1 0 2 1
pinseq=13
T 2250 4800 9 8 1 1 0 6 1
pinlabel=D2
T 2250 4800 5 8 0 1 0 8 1
pintype=tri
}
P 0 1200 300 1200 1 0 0
{
T 200 1250 5 8 1 1 0 6 1
pinnumber=27
T 200 1150 5 8 0 1 0 8 1
pinseq=27
T 350 1200 9 8 1 1 0 0 1
pinlabel=A14
T 350 1200 5 8 0 1 0 2 1
pintype=in
}
P 0 1500 300 1500 1 0 0
{
T 200 1550 5 8 1 1 0 6 1
pinnumber=26
T 200 1450 5 8 0 1 0 8 1
pinseq=26
T 350 1500 9 8 1 1 0 0 1
pinlabel=A13
T 350 1500 5 8 0 1 0 2 1
pintype=in
}
P 0 3000 300 3000 1 0 0
{
T 200 3050 5 8 1 1 0 6 1
pinnumber=25
T 200 2950 5 8 0 1 0 8 1
pinseq=25
T 350 3000 9 8 1 1 0 0 1
pinlabel=A8
T 350 3000 5 8 0 1 0 2 1
pintype=in
}
P 0 2700 300 2700 1 0 0
{
T 200 2750 5 8 1 1 0 6 1
pinnumber=24
T 200 2650 5 8 0 1 0 8 1
pinseq=24
T 350 2700 9 8 1 1 0 0 1
pinlabel=A9
T 350 2700 5 8 0 1 0 2 1
pintype=in
}
P 0 2100 300 2100 1 0 0
{
T 200 2150 5 8 1 1 0 6 1
pinnumber=23
T 200 2050 5 8 0 1 0 8 1
pinseq=23
T 350 2100 9 8 1 1 0 0 1
pinlabel=A11
T 350 2100 5 8 0 1 0 2 1
pintype=in
}
V 250 500 50 6 0 0 0 -1 -1 0 -1 -1 -1 -1 -1
P 0 500 200 500 1 0 0
{
T 200 550 5 8 1 1 0 6 1
pinnumber=22
T 200 450 5 8 0 1 0 8 1
pinseq=22
T 350 500 9 8 1 1 0 0 1
pinlabel=OE/VPP
T 350 500 5 8 0 1 0 2 1
pintype=in
}
L 360 634 560 634 3 0 0 0 -1 -1
P 0 2400 300 2400 1 0 0
{
T 200 2450 5 8 1 1 0 6 1
pinnumber=21
T 200 2350 5 8 0 1 0 8 1
pinseq=21
T 350 2400 9 8 1 1 0 0 1
pinlabel=A10
T 350 2400 5 8 0 1 0 2 1
pintype=in
}
V 250 200 50 6 0 0 0 -1 -1 0 -1 -1 -1 -1 -1
P 0 200 200 200 1 0 0
{
T 200 250 5 8 1 1 0 6 1
pinnumber=20
T 200 150 5 8 0 1 0 8 1
pinseq=20
T 350 200 9 8 1 1 0 0 1
pinlabel=CE
T 350 200 5 8 0 1 0 2 1
pintype=in
}
L 360 334 560 334 3 0 0 0 -1 -1
P 2300 3300 2600 3300 1 0 1
{
T 2400 3350 5 8 1 1 0 0 1
pinnumber=19
T 2400 3250 5 8 0 1 0 2 1
pinseq=19
T 2250 3300 9 8 1 1 0 6 1
pinlabel=D7
T 2250 3300 5 8 0 1 0 8 1
pintype=tri
}
P 2300 3600 2600 3600 1 0 1
{
T 2400 3650 5 8 1 1 0 0 1
pinnumber=18
T 2400 3550 5 8 0 1 0 2 1
pinseq=18
T 2250 3600 9 8 1 1 0 6 1
pinlabel=D6
T 2250 3600 5 8 0 1 0 8 1
pintype=tri
}
P 2300 3900 2600 3900 1 0 1
{
T 2400 3950 5 8 1 1 0 0 1
pinnumber=17
T 2400 3850 5 8 0 1 0 2 1
pinseq=17
T 2250 3900 9 8 1 1 0 6 1
pinlabel=D5
T 2250 3900 5 8 0 1 0 8 1
pintype=tri
}
P 2300 4200 2600 4200 1 0 1
{
T 2400 4250 5 8 1 1 0 0 1
pinnumber=16
T 2400 4150 5 8 0 1 0 2 1
pinseq=16
T 2250 4200 9 8 1 1 0 6 1
pinlabel=D4
T 2250 4200 5 8 0 1 0 8 1
pintype=tri
}
P 2300 4500 2600 4500 1 0 1
{
T 2400 4550 5 8 1 1 0 0 1
pinnumber=15
T 2400 4450 5 8 0 1 0 2 1
pinseq=15
T 2250 4500 9 8 1 1 0 6 1
pinlabel=D3
T 2250 4500 5 8 0 1 0 8 1
pintype=tri
}
B 300 0 2000 5700 3 0 0 0 -1 -1 0 -1 -1 -1 -1 -1
T 300 5950 5 10 0 0 0 0 1
device=27512
T 2300 5800 8 10 1 1 0 6 1
refdes=U?
T 300 6150 5 10 0 0 0 0 1
footprint=DIP28
T 300 6950 5 10 0 0 0 0 1
description=512K (64K*8) cmos eprom
T 300 6750 5 10 0 0 0 0 1
numslots=0
T 300 7150 5 10 0 0 0 0 1
author=Werner Hoch <werner.hoATgmx.de>
T 300 7350 5 10 0 0 0 0 1
documentation=http://www.microchip.com/download/lit/pline/memory/arc/11173f.pdf
T 300 6350 5 10 0 0 0 0 1
net=Vcc:28
T 300 6550 5 10 0 0 0 0 1
net=GND:14
T 300 5750 9 10 1 0 0 0 1
27512
T 300 7550 5 10 0 0 0 0 1
symversion=0.1
