v 20041228 1
P 1700 5800 1700 6100 1 0 1
{
T 1750 5900 5 8 1 1 0 0 1
pinnumber=1
T 1750 5900 5 8 0 1 0 2 1
pinseq=1
T 1700 5750 9 8 1 1 0 5 1
pinlabel=VPP
T 1700 5650 5 8 0 1 0 5 1
pintype=pwr
}
P 0 1900 300 1900 1 0 0
{
T 200 1950 5 8 1 1 0 6 1
pinnumber=2
T 200 1850 5 8 0 1 0 8 1
pinseq=2
T 350 1900 9 8 1 1 0 0 1
pinlabel=A12
T 350 1900 5 8 0 1 0 2 1
pintype=in
}
P 0 3400 300 3400 1 0 0
{
T 200 3450 5 8 1 1 0 6 1
pinnumber=3
T 200 3350 5 8 0 1 0 8 1
pinseq=3
T 350 3400 9 8 1 1 0 0 1
pinlabel=A7
T 350 3400 5 8 0 1 0 2 1
pintype=in
}
P 0 3700 300 3700 1 0 0
{
T 200 3750 5 8 1 1 0 6 1
pinnumber=4
T 200 3650 5 8 0 1 0 8 1
pinseq=4
T 350 3700 9 8 1 1 0 0 1
pinlabel=A6
T 350 3700 5 8 0 1 0 2 1
pintype=in
}
P 0 4000 300 4000 1 0 0
{
T 200 4050 5 8 1 1 0 6 1
pinnumber=5
T 200 3950 5 8 0 1 0 8 1
pinseq=5
T 350 4000 9 8 1 1 0 0 1
pinlabel=A5
T 350 4000 5 8 0 1 0 2 1
pintype=in
}
P 0 4300 300 4300 1 0 0
{
T 200 4350 5 8 1 1 0 6 1
pinnumber=6
T 200 4250 5 8 0 1 0 8 1
pinseq=6
T 350 4300 9 8 1 1 0 0 1
pinlabel=A4
T 350 4300 5 8 0 1 0 2 1
pintype=in
}
P 0 4600 300 4600 1 0 0
{
T 200 4650 5 8 1 1 0 6 1
pinnumber=7
T 200 4550 5 8 0 1 0 8 1
pinseq=7
T 350 4600 9 8 1 1 0 0 1
pinlabel=A3
T 350 4600 5 8 0 1 0 2 1
pintype=in
}
P 0 4900 300 4900 1 0 0
{
T 200 4950 5 8 1 1 0 6 1
pinnumber=8
T 200 4850 5 8 0 1 0 8 1
pinseq=8
T 350 4900 9 8 1 1 0 0 1
pinlabel=A2
T 350 4900 5 8 0 1 0 2 1
pintype=in
}
P 0 5200 300 5200 1 0 0
{
T 200 5250 5 8 1 1 0 6 1
pinnumber=9
T 200 5150 5 8 0 1 0 8 1
pinseq=9
T 350 5200 9 8 1 1 0 0 1
pinlabel=A1
T 350 5200 5 8 0 1 0 2 1
pintype=in
}
P 0 5500 300 5500 1 0 0
{
T 200 5550 5 8 1 1 0 6 1
pinnumber=10
T 200 5450 5 8 0 1 0 8 1
pinseq=10
T 350 5500 9 8 1 1 0 0 1
pinlabel=A0
T 350 5500 5 8 0 1 0 2 1
pintype=in
}
P 2300 5500 2600 5500 1 0 1
{
T 2400 5550 5 8 1 1 0 0 1
pinnumber=11
T 2400 5450 5 8 0 1 0 2 1
pinseq=11
T 2250 5500 9 8 1 1 0 6 1
pinlabel=D0
T 2250 5500 5 8 0 1 0 8 1
pintype=tri
}
P 2300 5200 2600 5200 1 0 1
{
T 2400 5250 5 8 1 1 0 0 1
pinnumber=12
T 2400 5150 5 8 0 1 0 2 1
pinseq=12
T 2250 5200 9 8 1 1 0 6 1
pinlabel=D1
T 2250 5200 5 8 0 1 0 8 1
pintype=tri
}
P 2300 4900 2600 4900 1 0 1
{
T 2400 4950 5 8 1 1 0 0 1
pinnumber=13
T 2400 4850 5 8 0 1 0 2 1
pinseq=13
T 2250 4900 9 8 1 1 0 6 1
pinlabel=D2
T 2250 4900 5 8 0 1 0 8 1
pintype=tri
}
P 0 1300 300 1300 1 0 0
{
T 200 1350 5 8 1 1 0 6 1
pinnumber=27
T 200 1250 5 8 0 1 0 8 1
pinseq=27
T 350 1300 9 8 1 1 0 0 1
pinlabel=A14
T 350 1300 5 8 0 1 0 2 1
pintype=in
}
P 0 1600 300 1600 1 0 0
{
T 200 1650 5 8 1 1 0 6 1
pinnumber=26
T 200 1550 5 8 0 1 0 8 1
pinseq=26
T 350 1600 9 8 1 1 0 0 1
pinlabel=A13
T 350 1600 5 8 0 1 0 2 1
pintype=in
}
P 0 3100 300 3100 1 0 0
{
T 200 3150 5 8 1 1 0 6 1
pinnumber=25
T 200 3050 5 8 0 1 0 8 1
pinseq=25
T 350 3100 9 8 1 1 0 0 1
pinlabel=A8
T 350 3100 5 8 0 1 0 2 1
pintype=in
}
P 0 2800 300 2800 1 0 0
{
T 200 2850 5 8 1 1 0 6 1
pinnumber=24
T 200 2750 5 8 0 1 0 8 1
pinseq=24
T 350 2800 9 8 1 1 0 0 1
pinlabel=A9
T 350 2800 5 8 0 1 0 2 1
pintype=in
}
P 0 2200 300 2200 1 0 0
{
T 200 2250 5 8 1 1 0 6 1
pinnumber=23
T 200 2150 5 8 0 1 0 8 1
pinseq=23
T 350 2200 9 8 1 1 0 0 1
pinlabel=A11
T 350 2200 5 8 0 1 0 2 1
pintype=in
}
V 800 350 50 6 0 0 0 -1 -1 0 -1 -1 -1 -1 -1
P 800 100 800 300 1 0 0
{
T 850 200 5 8 1 1 0 0 1
pinnumber=22
T 850 200 5 8 0 1 0 2 1
pinseq=22
T 800 450 9 8 1 1 0 3 1
pinlabel=OE
T 800 550 5 8 0 1 0 3 1
pintype=in
}
L 700 584 910 584 3 0 0 0 -1 -1
P 0 2500 300 2500 1 0 0
{
T 200 2550 5 8 1 1 0 6 1
pinnumber=21
T 200 2450 5 8 0 1 0 8 1
pinseq=21
T 350 2500 9 8 1 1 0 0 1
pinlabel=A10
T 350 2500 5 8 0 1 0 2 1
pintype=in
}
V 1800 350 50 6 0 0 0 -1 -1 0 -1 -1 -1 -1 -1
P 1800 100 1800 300 1 0 0
{
T 1850 200 5 8 1 1 0 0 1
pinnumber=20
T 1850 200 5 8 0 1 0 2 1
pinseq=20
T 1800 450 9 8 1 1 0 3 1
pinlabel=CS
T 1800 550 5 8 0 1 0 3 1
pintype=in
}
L 1700 584 1910 584 3 0 0 0 -1 -1
P 2300 3400 2600 3400 1 0 1
{
T 2400 3450 5 8 1 1 0 0 1
pinnumber=19
T 2400 3350 5 8 0 1 0 2 1
pinseq=19
T 2250 3400 9 8 1 1 0 6 1
pinlabel=D7
T 2250 3400 5 8 0 1 0 8 1
pintype=tri
}
P 2300 3700 2600 3700 1 0 1
{
T 2400 3750 5 8 1 1 0 0 1
pinnumber=18
T 2400 3650 5 8 0 1 0 2 1
pinseq=18
T 2250 3700 9 8 1 1 0 6 1
pinlabel=D6
T 2250 3700 5 8 0 1 0 8 1
pintype=tri
}
P 2300 4000 2600 4000 1 0 1
{
T 2400 4050 5 8 1 1 0 0 1
pinnumber=17
T 2400 3950 5 8 0 1 0 2 1
pinseq=17
T 2250 4000 9 8 1 1 0 6 1
pinlabel=D5
T 2250 4000 5 8 0 1 0 8 1
pintype=tri
}
P 2300 4300 2600 4300 1 0 1
{
T 2400 4350 5 8 1 1 0 0 1
pinnumber=16
T 2400 4250 5 8 0 1 0 2 1
pinseq=16
T 2250 4300 9 8 1 1 0 6 1
pinlabel=D4
T 2250 4300 5 8 0 1 0 8 1
pintype=tri
}
P 2300 4600 2600 4600 1 0 1
{
T 2400 4650 5 8 1 1 0 0 1
pinnumber=15
T 2400 4550 5 8 0 1 0 2 1
pinseq=15
T 2250 4600 9 8 1 1 0 6 1
pinlabel=D3
T 2250 4600 5 8 0 1 0 8 1
pintype=tri
}
B 300 400 2000 5400 3 0 0 0 -1 -1 0 -1 -1 -1 -1 -1
T 300 6050 5 10 0 0 0 0 1
device=27256
T 2300 5900 8 10 1 1 0 6 1
refdes=U?
P 1300 5800 1300 6100 1 0 1
{
T 1350 5900 5 8 1 1 0 0 1
pinnumber=28
T 1350 5900 5 8 0 1 0 2 1
pinseq=28
T 1300 5750 9 8 1 1 0 5 1
pinlabel=Vcc
T 1300 5650 5 8 0 1 0 5 1
pintype=pwr
}
P 1300 100 1300 400 1 0 0
{
T 1350 200 5 8 1 1 0 0 1
pinnumber=14
T 1350 200 5 8 0 1 0 2 1
pinseq=14
T 1300 450 9 8 1 1 0 3 1
pinlabel=GND
T 1300 550 5 8 0 1 0 3 1
pintype=pwr
}
T 300 6250 5 10 0 0 0 0 1
footprint=DIP28
T 300 6650 5 10 0 0 0 0 1
description=256K (32K*8) cmos eprom
T 300 6450 5 10 0 0 0 0 1
numslots=0
T 300 6850 5 10 0 0 0 0 1
documentation=http://www.microchip.com/download/lit/pline/memory/arc/11001m.pdf
T 300 7050 5 10 0 0 0 0 1
author=Werner Hoch <werner.hoATgmx.de>
T 300 5850 9 10 1 0 0 0 1
27C256
T 300 7250 5 10 0 0 0 0 1
symversion=0.1
