v 20040710 1
P 300 100 0 100 1 0 1
{
T 200 150 5 8 1 1 0 6 1
pinnumber=14
T 200 50 5 8 0 1 0 8 1
pinseq=14
T 350 100 9 8 1 1 0 0 1
pinlabel=GND
T 350 100 5 8 0 1 0 2 1
pintype=pwr
}
P 300 500 0 500 1 0 1
{
T 200 550 5 8 1 1 0 6 1
pinnumber=13
T 200 450 5 8 0 1 0 8 1
pinseq=13
T 350 500 9 8 1 1 0 0 1
pinlabel=I/O3
T 350 500 5 8 0 1 0 2 1
pintype=io
}
P 300 900 0 900 1 0 1
{
T 200 950 5 8 1 1 0 6 1
pinnumber=12
T 200 850 5 8 0 1 0 8 1
pinseq=12
T 350 900 9 8 1 1 0 0 1
pinlabel=I/O2
T 350 900 5 8 0 1 0 2 1
pintype=io
}
P 300 1300 0 1300 1 0 1
{
T 200 1350 5 8 1 1 0 6 1
pinnumber=11
T 200 1250 5 8 0 1 0 8 1
pinseq=11
T 350 1300 9 8 1 1 0 0 1
pinlabel=I/O1
T 350 1300 5 8 0 1 0 2 1
pintype=io
}
P 300 1700 0 1700 1 0 1
{
T 200 1750 5 8 1 1 0 6 1
pinnumber=10
T 200 1650 5 8 0 1 0 8 1
pinseq=10
T 350 1700 9 8 1 1 0 0 1
pinlabel=A0
T 350 1700 5 8 0 1 0 2 1
pintype=in
}
P 300 2100 0 2100 1 0 1
{
T 200 2150 5 8 1 1 0 6 1
pinnumber=9
T 200 2050 5 8 0 1 0 8 1
pinseq=9
T 350 2100 9 8 1 1 0 0 1
pinlabel=A1
T 350 2100 5 8 0 1 0 2 1
pintype=in
}
P 300 2500 0 2500 1 0 1
{
T 200 2550 5 8 1 1 0 6 1
pinnumber=8
T 200 2450 5 8 0 1 0 8 1
pinseq=8
T 350 2500 9 8 1 1 0 0 1
pinlabel=A2
T 350 2500 5 8 0 1 0 2 1
pintype=in
}
P 300 2900 0 2900 1 0 1
{
T 200 2950 5 8 1 1 0 6 1
pinnumber=7
T 200 2850 5 8 0 1 0 8 1
pinseq=7
T 350 2900 9 8 1 1 0 0 1
pinlabel=A3
T 350 2900 5 8 0 1 0 2 1
pintype=in
}
P 300 3300 0 3300 1 0 1
{
T 200 3350 5 8 1 1 0 6 1
pinnumber=6
T 200 3250 5 8 0 1 0 8 1
pinseq=6
T 350 3300 9 8 1 1 0 0 1
pinlabel=A4
T 350 3300 5 8 0 1 0 2 1
pintype=in
}
P 300 3700 0 3700 1 0 1
{
T 200 3750 5 8 1 1 0 6 1
pinnumber=5
T 200 3650 5 8 0 1 0 8 1
pinseq=5
T 350 3700 9 8 1 1 0 0 1
pinlabel=A5
T 350 3700 5 8 0 1 0 2 1
pintype=in
}
P 300 4100 0 4100 1 0 1
{
T 200 4150 5 8 1 1 0 6 1
pinnumber=4
T 200 4050 5 8 0 1 0 8 1
pinseq=4
T 350 4100 9 8 1 1 0 0 1
pinlabel=A6
T 350 4100 5 8 0 1 0 2 1
pintype=in
}
P 300 4500 0 4500 1 0 1
{
T 200 4550 5 8 1 1 0 6 1
pinnumber=3
T 200 4450 5 8 0 1 0 8 1
pinseq=3
T 350 4500 9 8 1 1 0 0 1
pinlabel=A7
T 350 4500 5 8 0 1 0 2 1
pintype=in
}
P 300 4900 0 4900 1 0 1
{
T 200 4950 5 8 1 1 0 6 1
pinnumber=2
T 200 4850 5 8 0 1 0 8 1
pinseq=2
T 350 4900 9 8 1 1 0 0 1
pinlabel=A12
T 350 4900 5 8 0 1 0 2 1
pintype=in
}
P 300 5300 0 5300 1 0 1
{
T 200 5350 5 8 1 1 0 6 1
pinnumber=1
T 200 5250 5 8 0 1 0 8 1
pinseq=1
T 350 5300 9 8 1 1 0 0 1
pinlabel=NC
T 350 5300 5 8 0 1 0 2 1
pintype=pas
}
B 300 0 2000 5600 3 0 0 0 -1 -1 0 -1 -1 -1 -1 -1
P 2600 100 2300 100 1 0 0
{
T 2400 150 5 8 1 1 0 0 1
pinnumber=15
T 2400 50 5 8 0 1 0 2 1
pinseq=15
T 2250 100 9 8 1 1 0 6 1
pinlabel=I/O4
T 2250 100 5 8 0 1 0 8 1
pintype=io
}
P 2600 500 2300 500 1 0 0
{
T 2400 550 5 8 1 1 0 0 1
pinnumber=16
T 2400 450 5 8 0 1 0 2 1
pinseq=16
T 2250 500 9 8 1 1 0 6 1
pinlabel=I/O5
T 2250 500 5 8 0 1 0 8 1
pintype=io
}
P 2600 900 2300 900 1 0 0
{
T 2400 950 5 8 1 1 0 0 1
pinnumber=17
T 2400 850 5 8 0 1 0 2 1
pinseq=17
T 2250 900 9 8 1 1 0 6 1
pinlabel=I/O6
T 2250 900 5 8 0 1 0 8 1
pintype=io
}
P 2600 1300 2300 1300 1 0 0
{
T 2400 1350 5 8 1 1 0 0 1
pinnumber=18
T 2400 1250 5 8 0 1 0 2 1
pinseq=18
T 2250 1300 9 8 1 1 0 6 1
pinlabel=I/O7
T 2250 1300 5 8 0 1 0 8 1
pintype=io
}
P 2600 1700 2300 1700 1 0 0
{
T 2400 1750 5 8 1 1 0 0 1
pinnumber=19
T 2400 1650 5 8 0 1 0 2 1
pinseq=19
T 2250 1700 9 8 1 1 0 6 1
pinlabel=I/O8
T 2250 1700 5 8 0 1 0 8 1
pintype=io
}
P 2600 2100 2400 2100 1 0 0
{
T 2400 2150 5 8 1 1 0 0 1
pinnumber=20
T 2400 2050 5 8 0 1 0 2 1
pinseq=20
T 2250 2100 9 8 1 1 0 6 1
pinlabel=CE1
T 2250 2100 5 8 0 1 0 8 1
pintype=in
}
P 2600 2500 2300 2500 1 0 0
{
T 2400 2550 5 8 1 1 0 0 1
pinnumber=21
T 2400 2450 5 8 0 1 0 2 1
pinseq=21
T 2250 2500 9 8 1 1 0 6 1
pinlabel=A10
T 2250 2500 5 8 0 1 0 8 1
pintype=in
}
P 2600 2900 2400 2900 1 0 0
{
T 2400 2950 5 8 1 1 0 0 1
pinnumber=22
T 2400 2850 5 8 0 1 0 2 1
pinseq=22
T 2250 2900 9 8 1 1 0 6 1
pinlabel=OE
T 2250 2900 5 8 0 1 0 8 1
pintype=in
}
P 2600 3300 2300 3300 1 0 0
{
T 2400 3350 5 8 1 1 0 0 1
pinnumber=23
T 2400 3250 5 8 0 1 0 2 1
pinseq=23
T 2250 3300 9 8 1 1 0 6 1
pinlabel=A11
T 2250 3300 5 8 0 1 0 8 1
pintype=in
}
P 2600 3700 2300 3700 1 0 0
{
T 2400 3750 5 8 1 1 0 0 1
pinnumber=24
T 2400 3650 5 8 0 1 0 2 1
pinseq=24
T 2250 3700 9 8 1 1 0 6 1
pinlabel=A9
T 2250 3700 5 8 0 1 0 8 1
pintype=in
}
P 2600 4100 2300 4100 1 0 0
{
T 2400 4150 5 8 1 1 0 0 1
pinnumber=25
T 2400 4050 5 8 0 1 0 2 1
pinseq=25
T 2250 4100 9 8 1 1 0 6 1
pinlabel=A8
T 2250 4100 5 8 0 1 0 8 1
pintype=in
}
P 2600 4500 2300 4500 1 0 0
{
T 2400 4550 5 8 1 1 0 0 1
pinnumber=26
T 2400 4450 5 8 0 1 0 2 1
pinseq=26
T 2250 4500 9 8 1 1 0 6 1
pinlabel=CE2
T 2250 4500 5 8 0 1 0 8 1
pintype=in
}
P 2600 4900 2400 4900 1 0 0
{
T 2400 4950 5 8 1 1 0 0 1
pinnumber=27
T 2400 4850 5 8 0 1 0 2 1
pinseq=27
T 2250 4900 9 8 1 1 0 6 1
pinlabel=WE
T 2250 4900 5 8 0 1 0 8 1
pintype=in
}
P 2600 5300 2300 5300 1 0 0
{
T 2400 5350 5 8 1 1 0 0 1
pinnumber=28
T 2400 5250 5 8 0 1 0 2 1
pinseq=28
T 2250 5300 9 8 1 1 0 6 1
pinlabel=Vcc
T 2250 5300 5 8 0 1 0 8 1
pintype=pwr
}
T 300 5850 5 10 0 0 0 0 1
device=HM6264P15
T 2300 5700 8 10 1 1 0 6 1
refdes=U?
T 300 6250 5 10 0 0 0 0 1
footprint=DIP28
T 300 6450 5 10 0 0 0 0 1
description=8192word x 8-bit high speed cmos static ram
T 300 6050 5 10 0 0 0 0 1
numslots=0
T 300 6650 5 10 0 0 0 0 1
author=Werner Hoch <werner.hoATgmx.de>
T 300 5650 9 10 1 0 0 0 1
HM6264P15
V 2350 2100 50 6 0 0 0 -1 -1 0 -1 -1 -1 -1 -1
V 2350 2900 50 6 0 0 0 -1 -1 0 -1 -1 -1 -1 -1
V 2350 4900 51 6 0 0 0 -1 -1 0 -1 -1 -1 -1 -1
L 2250 5025 2025 5025 3 0 0 0 -1 -1
L 2250 3025 2050 3025 3 0 0 0 -1 -1
L 2250 2225 2000 2225 3 0 0 0 -1 -1
