v 20031231 1
T 3000 8900 8 10 1 1 0 6 1
refdes=U?
T 400 9050 5 10 0 0 0 0 1
device=AT90S8515_DIP
T 400 9250 5 10 0 0 0 0 1
footprint=DIP40
T 400 9450 5 10 0 0 0 0 1
net=GND:20
T 400 9650 5 10 0 0 0 0 1
net=Vcc:40
P 2300 100 2300 300 1 0 0
{
T 2350 200 5 8 1 1 0 0 1
pinnumber=9
T 2350 200 5 8 0 1 0 2 1
pinseq=1
T 2300 450 9 8 1 1 0 3 1
pinlabel=Reset
T 2300 600 5 8 0 1 0 3 1
pintype=in
}
L 2108 574 2492 574 3 0 0 0 -1 -1
V 2300 350 50 6 0 0 0 -1 -1 0 -1 -1 -1 -1 -1
P 1700 100 1700 400 1 0 0
{
T 1750 200 5 8 1 1 0 0 1
pinnumber=18
T 1750 200 5 8 0 1 0 2 1
pinseq=2
T 1700 450 9 8 1 1 0 3 1
pinlabel=XTAL2
T 1700 600 5 8 0 1 0 3 1
pintype=out
}
P 1100 100 1100 400 1 0 0
{
T 1150 200 5 8 1 1 0 0 1
pinnumber=19
T 1150 200 5 8 0 1 0 2 1
pinseq=3
T 1100 450 9 8 1 1 0 3 1
pinlabel=XTAL1
T 1100 600 5 8 0 1 0 3 1
pintype=in
}
P 100 2200 400 2200 1 0 0
{
T 300 2250 5 8 1 1 0 6 1
pinnumber=17
T 300 2150 5 8 0 1 0 8 1
pinseq=4
T 450 2200 9 8 1 1 0 0 1
pinlabel=PD7 (RD)
T 450 2200 5 8 0 1 0 2 1
pintype=io
}
L 826 2324 1034 2324 3 0 0 0 -1 -1
P 100 2600 400 2600 1 0 0
{
T 300 2650 5 8 1 1 0 6 1
pinnumber=16
T 300 2550 5 8 0 1 0 8 1
pinseq=5
T 450 2600 9 8 1 1 0 0 1
pinlabel=PD6 (WR)
T 450 2600 5 8 0 1 0 2 1
pintype=io
}
L 842 2724 1094 2724 3 0 0 0 -1 -1
P 100 3000 400 3000 1 0 0
{
T 300 3050 5 8 1 1 0 6 1
pinnumber=15
T 300 2950 5 8 0 1 0 8 1
pinseq=6
T 450 3000 9 8 1 1 0 0 1
pinlabel=PD5 (OC1A)
T 450 3000 5 8 0 1 0 2 1
pintype=io
}
P 100 3400 400 3400 1 0 0
{
T 300 3450 5 8 1 1 0 6 1
pinnumber=14
T 300 3350 5 8 0 1 0 8 1
pinseq=7
T 450 3400 9 8 1 1 0 0 1
pinlabel=PD4
T 450 3400 5 8 0 1 0 2 1
pintype=io
}
P 100 3800 400 3800 1 0 0
{
T 300 3850 5 8 1 1 0 6 1
pinnumber=13
T 300 3750 5 8 0 1 0 8 1
pinseq=8
T 450 3800 9 8 1 1 0 0 1
pinlabel=PD3 (INT1)
T 450 3800 5 8 0 1 0 2 1
pintype=io
}
P 100 4200 400 4200 1 0 0
{
T 300 4250 5 8 1 1 0 6 1
pinnumber=12
T 300 4150 5 8 0 1 0 8 1
pinseq=9
T 450 4200 9 8 1 1 0 0 1
pinlabel=PD2 (INT0)
T 450 4200 5 8 0 1 0 2 1
pintype=io
}
P 100 4600 400 4600 1 0 0
{
T 300 4650 5 8 1 1 0 6 1
pinnumber=11
T 300 4550 5 8 0 1 0 8 1
pinseq=10
T 450 4600 9 8 1 1 0 0 1
pinlabel=PD1 (TXD)
T 450 4600 5 8 0 1 0 2 1
pintype=io
}
P 100 5000 400 5000 1 0 0
{
T 300 5050 5 8 1 1 0 6 1
pinnumber=10
T 300 4950 5 8 0 1 0 8 1
pinseq=11
T 450 5000 9 8 1 1 0 0 1
pinlabel=PD0 (RXD)
T 450 5000 5 8 0 1 0 2 1
pintype=io
}
P 100 5600 400 5600 1 0 0
{
T 300 5650 5 8 1 1 0 6 1
pinnumber=8
T 300 5550 5 8 0 1 0 8 1
pinseq=12
T 450 5600 9 8 1 1 0 0 1
pinlabel=PB7 (SCK)
T 450 5600 5 8 0 1 0 2 1
pintype=io
}
P 100 6000 400 6000 1 0 0
{
T 300 6050 5 8 1 1 0 6 1
pinnumber=7
T 300 5950 5 8 0 1 0 8 1
pinseq=13
T 450 6000 9 8 1 1 0 0 1
pinlabel=PB6 (MISO)
T 450 6000 5 8 0 1 0 2 1
pintype=io
}
P 100 6400 400 6400 1 0 0
{
T 300 6450 5 8 1 1 0 6 1
pinnumber=6
T 300 6350 5 8 0 1 0 8 1
pinseq=14
T 450 6400 9 8 1 1 0 0 1
pinlabel=PB5 (MOSI)
T 450 6400 5 8 0 1 0 2 1
pintype=io
}
P 100 6800 400 6800 1 0 0
{
T 300 6850 5 8 1 1 0 6 1
pinnumber=5
T 300 6750 5 8 0 1 0 8 1
pinseq=15
T 450 6800 9 8 1 1 0 0 1
pinlabel=PB4 (SS)
T 450 6800 5 8 0 1 0 2 1
pintype=io
}
L 862 6924 1062 6924 3 0 0 0 -1 -1
P 100 7200 400 7200 1 0 0
{
T 300 7250 5 8 1 1 0 6 1
pinnumber=4
T 300 7150 5 8 0 1 0 8 1
pinseq=16
T 450 7200 9 8 1 1 0 0 1
pinlabel=PB3 (AIN1)
T 450 7200 5 8 0 1 0 2 1
pintype=io
}
P 100 7600 400 7600 1 0 0
{
T 300 7650 5 8 1 1 0 6 1
pinnumber=3
T 300 7550 5 8 0 1 0 8 1
pinseq=17
T 450 7600 9 8 1 1 0 0 1
pinlabel=PB2 (AIN0)
T 450 7600 5 8 0 1 0 2 1
pintype=io
}
P 100 8000 400 8000 1 0 0
{
T 300 8050 5 8 1 1 0 6 1
pinnumber=2
T 300 7950 5 8 0 1 0 8 1
pinseq=18
T 450 8000 9 8 1 1 0 0 1
pinlabel=PB1 (T1)
T 450 8000 5 8 0 1 0 2 1
pintype=io
}
P 100 8400 400 8400 1 0 0
{
T 300 8450 5 8 1 1 0 6 1
pinnumber=1
T 300 8350 5 8 0 1 0 8 1
pinseq=19
T 450 8400 9 8 1 1 0 0 1
pinlabel=PB0 (T0)
T 450 8400 5 8 0 1 0 2 1
pintype=io
}
P 3300 2200 3000 2200 1 0 0
{
T 3100 2250 5 8 1 1 0 0 1
pinnumber=28
T 3100 2150 5 8 0 1 0 2 1
pinseq=20
T 2950 2200 9 8 1 1 0 6 1
pinlabel=(A15) PC7
T 2950 2200 5 8 0 1 0 8 1
pintype=io
}
P 3300 2600 3000 2600 1 0 0
{
T 3100 2650 5 8 1 1 0 0 1
pinnumber=27
T 3100 2550 5 8 0 1 0 2 1
pinseq=21
T 2950 2600 9 8 1 1 0 6 1
pinlabel=(A14) PC6
T 2950 2600 5 8 0 1 0 8 1
pintype=io
}
P 3300 3000 3000 3000 1 0 0
{
T 3100 3050 5 8 1 1 0 0 1
pinnumber=26
T 3100 2950 5 8 0 1 0 2 1
pinseq=22
T 2950 3000 9 8 1 1 0 6 1
pinlabel=(A13) PC5
T 2950 3000 5 8 0 1 0 8 1
pintype=io
}
P 3300 3400 3000 3400 1 0 0
{
T 3100 3450 5 8 1 1 0 0 1
pinnumber=25
T 3100 3350 5 8 0 1 0 2 1
pinseq=23
T 2950 3400 9 8 1 1 0 6 1
pinlabel=(A12) PC4
T 2950 3400 5 8 0 1 0 8 1
pintype=io
}
P 3300 3800 3000 3800 1 0 0
{
T 3100 3850 5 8 1 1 0 0 1
pinnumber=24
T 3100 3750 5 8 0 1 0 2 1
pinseq=24
T 2950 3800 9 8 1 1 0 6 1
pinlabel=(A11) PC3
T 2950 3800 5 8 0 1 0 8 1
pintype=io
}
P 3300 4200 3000 4200 1 0 0
{
T 3100 4250 5 8 1 1 0 0 1
pinnumber=23
T 3100 4150 5 8 0 1 0 2 1
pinseq=25
T 2950 4200 9 8 1 1 0 6 1
pinlabel=(A10) PC2
T 2950 4200 5 8 0 1 0 8 1
pintype=io
}
P 3300 4600 3000 4600 1 0 0
{
T 3100 4650 5 8 1 1 0 0 1
pinnumber=22
T 3100 4550 5 8 0 1 0 2 1
pinseq=26
T 2950 4600 9 8 1 1 0 6 1
pinlabel=(A9) PC1
T 2950 4600 5 8 0 1 0 8 1
pintype=io
}
P 3300 5000 3000 5000 1 0 0
{
T 3100 5050 5 8 1 1 0 0 1
pinnumber=21
T 3100 4950 5 8 0 1 0 2 1
pinseq=27
T 2950 5000 9 8 1 1 0 6 1
pinlabel=(A8) PC0
T 2950 5000 5 8 0 1 0 8 1
pintype=io
}
P 3300 5600 3000 5600 1 0 0
{
T 3100 5650 5 8 1 1 0 0 1
pinnumber=32
T 3100 5550 5 8 0 1 0 2 1
pinseq=28
T 2950 5600 9 8 1 1 0 6 1
pinlabel=(AD7) PA7
T 2950 5600 5 8 0 1 0 8 1
pintype=io
}
P 3300 6000 3000 6000 1 0 0
{
T 3100 6050 5 8 1 1 0 0 1
pinnumber=33
T 3100 5950 5 8 0 1 0 2 1
pinseq=29
T 2950 6000 9 8 1 1 0 6 1
pinlabel=(AD6) PA6
T 2950 6000 5 8 0 1 0 8 1
pintype=io
}
P 3300 6400 3000 6400 1 0 0
{
T 3100 6450 5 8 1 1 0 0 1
pinnumber=34
T 3100 6350 5 8 0 1 0 2 1
pinseq=30
T 2950 6400 9 8 1 1 0 6 1
pinlabel=(AD5) PA5
T 2950 6400 5 8 0 1 0 8 1
pintype=io
}
P 3300 6800 3000 6800 1 0 0
{
T 3100 6850 5 8 1 1 0 0 1
pinnumber=35
T 3100 6750 5 8 0 1 0 2 1
pinseq=31
T 2950 6800 9 8 1 1 0 6 1
pinlabel=(AD4) PA4
T 2950 6800 5 8 0 1 0 8 1
pintype=io
}
P 3300 7200 3000 7200 1 0 0
{
T 3100 7250 5 8 1 1 0 0 1
pinnumber=36
T 3100 7150 5 8 0 1 0 2 1
pinseq=32
T 2950 7200 9 8 1 1 0 6 1
pinlabel=(AD3) PA3
T 2950 7200 5 8 0 1 0 8 1
pintype=io
}
P 3300 7600 3000 7600 1 0 0
{
T 3100 7650 5 8 1 1 0 0 1
pinnumber=37
T 3100 7550 5 8 0 1 0 2 1
pinseq=33
T 2950 7600 9 8 1 1 0 6 1
pinlabel=(AD2) PA2
T 2950 7600 5 8 0 1 0 8 1
pintype=io
}
P 3300 8000 3000 8000 1 0 0
{
T 3100 8050 5 8 1 1 0 0 1
pinnumber=38
T 3100 7950 5 8 0 1 0 2 1
pinseq=34
T 2950 8000 9 8 1 1 0 6 1
pinlabel=(AD1) PA1
T 2950 8000 5 8 0 1 0 8 1
pintype=io
}
P 3300 8400 3000 8400 1 0 0
{
T 3100 8450 5 8 1 1 0 0 1
pinnumber=39
T 3100 8350 5 8 0 1 0 2 1
pinseq=35
T 2950 8400 9 8 1 1 0 6 1
pinlabel=(AD0) PA0
T 2950 8400 5 8 0 1 0 8 1
pintype=io
}
P 3300 800 3000 800 1 0 0
{
T 3100 850 5 8 1 1 0 0 1
pinnumber=29
T 3100 750 5 8 0 1 0 2 1
pinseq=36
T 2950 800 9 8 1 1 0 6 1
pinlabel=OC1B
T 2950 800 5 8 0 1 0 8 1
pintype=out
}
P 3300 1200 3000 1200 1 0 0
{
T 3100 1250 5 8 1 1 0 0 1
pinnumber=31
T 3100 1150 5 8 0 1 0 2 1
pinseq=37
T 2950 1200 9 8 1 1 0 6 1
pinlabel=ICP
T 2950 1200 5 8 0 1 0 8 1
pintype=in
}
P 3300 1600 3000 1600 1 0 0
{
T 3100 1650 5 8 1 1 0 0 1
pinnumber=30
T 3100 1550 5 8 0 1 0 2 1
pinseq=38
T 2950 1600 9 8 1 1 0 6 1
pinlabel=ALE
T 2950 1600 5 8 0 1 0 8 1
pintype=out
}
B 400 400 2600 8400 3 0 0 0 -1 -1 0 -1 -1 -1 -1 -1
T 400 9850 5 10 0 0 0 0 1
description=8-bit RISC micro controller (Atmel)
T 400 10050 5 10 0 0 0 0 1
numslots=0
T 400 10250 5 10 0 0 0 0 1
author=Werner Hoch <werner.hoATgmx.de>
T 400 8850 9 10 1 0 0 0 1
AT90S8515
