v 20031231 1
T 2400 8500 8 10 1 1 0 6 1
refdes=U?
T 400 8650 5 10 0 0 0 0 1
device=DS80C310_DIP
T 400 8850 5 10 0 0 0 0 1
footprint=DIP40
T 400 9050 5 10 0 0 0 0 1
description=80C32 compatible micro controller
T 400 9250 5 10 0 0 0 0 1
net=GND:20
T 400 9450 5 10 0 0 0 0 1
net=Vcc:40
P 2700 4800 2400 4800 1 0 0
{
T 2500 4850 5 8 1 1 0 0 1
pinnumber=21
T 2500 4750 5 8 0 1 0 2 1
pinseq=1
T 2350 4800 9 8 1 1 0 6 1
pinlabel=(P2.0) A8
T 2350 4800 5 8 0 1 0 8 1
pintype=out
}
P 2700 4400 2400 4400 1 0 0
{
T 2500 4450 5 8 1 1 0 0 1
pinnumber=22
T 2500 4350 5 8 0 1 0 2 1
pinseq=2
T 2350 4400 9 8 1 1 0 6 1
pinlabel=(P2.1) A9
T 2350 4400 5 8 0 1 0 8 1
pintype=out
}
P 2700 4000 2400 4000 1 0 0
{
T 2500 4050 5 8 1 1 0 0 1
pinnumber=23
T 2500 3950 5 8 0 1 0 2 1
pinseq=3
T 2350 4000 9 8 1 1 0 6 1
pinlabel=(P2.2) A10
T 2350 4000 5 8 0 1 0 8 1
pintype=out
}
P 2700 3600 2400 3600 1 0 0
{
T 2500 3650 5 8 1 1 0 0 1
pinnumber=24
T 2500 3550 5 8 0 1 0 2 1
pinseq=4
T 2350 3600 9 8 1 1 0 6 1
pinlabel=(P2.3) A11
T 2350 3600 5 8 0 1 0 8 1
pintype=out
}
P 2700 3200 2400 3200 1 0 0
{
T 2500 3250 5 8 1 1 0 0 1
pinnumber=25
T 2500 3150 5 8 0 1 0 2 1
pinseq=5
T 2350 3200 9 8 1 1 0 6 1
pinlabel=(P2.4) A12
T 2350 3200 5 8 0 1 0 8 1
pintype=out
}
P 2700 2800 2400 2800 1 0 0
{
T 2500 2850 5 8 1 1 0 0 1
pinnumber=26
T 2500 2750 5 8 0 1 0 2 1
pinseq=6
T 2350 2800 9 8 1 1 0 6 1
pinlabel=(P2.5) A13
T 2350 2800 5 8 0 1 0 8 1
pintype=out
}
P 2700 2400 2400 2400 1 0 0
{
T 2500 2450 5 8 1 1 0 0 1
pinnumber=27
T 2500 2350 5 8 0 1 0 2 1
pinseq=7
T 2350 2400 9 8 1 1 0 6 1
pinlabel=(P2.6) A14
T 2350 2400 5 8 0 1 0 8 1
pintype=out
}
P 2700 2000 2400 2000 1 0 0
{
T 2500 2050 5 8 1 1 0 0 1
pinnumber=28
T 2500 1950 5 8 0 1 0 2 1
pinseq=8
T 2350 2000 9 8 1 1 0 6 1
pinlabel=(P2.7) A15
T 2350 2000 5 8 0 1 0 8 1
pintype=out
}
P 2700 8000 2400 8000 1 0 0
{
T 2500 8050 5 8 1 1 0 0 1
pinnumber=39
T 2500 7950 5 8 0 1 0 2 1
pinseq=9
T 2350 8000 9 8 1 1 0 6 1
pinlabel=(P0.0) AD0
T 2350 8000 5 8 0 1 0 8 1
pintype=io
}
P 2700 7600 2400 7600 1 0 0
{
T 2500 7650 5 8 1 1 0 0 1
pinnumber=38
T 2500 7550 5 8 0 1 0 2 1
pinseq=10
T 2350 7600 9 8 1 1 0 6 1
pinlabel=(P0.1) AD1
T 2350 7600 5 8 0 1 0 8 1
pintype=io
}
P 2700 7200 2400 7200 1 0 0
{
T 2500 7250 5 8 1 1 0 0 1
pinnumber=37
T 2500 7150 5 8 0 1 0 2 1
pinseq=11
T 2350 7200 9 8 1 1 0 6 1
pinlabel=(P0.2) AD2
T 2350 7200 5 8 0 1 0 8 1
pintype=io
}
P 2700 6800 2400 6800 1 0 0
{
T 2500 6850 5 8 1 1 0 0 1
pinnumber=36
T 2500 6750 5 8 0 1 0 2 1
pinseq=12
T 2350 6800 9 8 1 1 0 6 1
pinlabel=(P0.3) AD3
T 2350 6800 5 8 0 1 0 8 1
pintype=io
}
P 2700 6400 2400 6400 1 0 0
{
T 2500 6450 5 8 1 1 0 0 1
pinnumber=35
T 2500 6350 5 8 0 1 0 2 1
pinseq=13
T 2350 6400 9 8 1 1 0 6 1
pinlabel=(P0.4) AD4
T 2350 6400 5 8 0 1 0 8 1
pintype=io
}
P 2700 6000 2400 6000 1 0 0
{
T 2500 6050 5 8 1 1 0 0 1
pinnumber=34
T 2500 5950 5 8 0 1 0 2 1
pinseq=14
T 2350 6000 9 8 1 1 0 6 1
pinlabel=(P0.5) AD5
T 2350 6000 5 8 0 1 0 8 1
pintype=io
}
P 2700 5600 2400 5600 1 0 0
{
T 2500 5650 5 8 1 1 0 0 1
pinnumber=33
T 2500 5550 5 8 0 1 0 2 1
pinseq=15
T 2350 5600 9 8 1 1 0 6 1
pinlabel=(P0.6) AD6
T 2350 5600 5 8 0 1 0 8 1
pintype=io
}
P 2700 5200 2400 5200 1 0 0
{
T 2500 5250 5 8 1 1 0 0 1
pinnumber=32
T 2500 5150 5 8 0 1 0 2 1
pinseq=16
T 2350 5200 9 8 1 1 0 6 1
pinlabel=(P0.7) AD7
T 2350 5200 5 8 0 1 0 8 1
pintype=io
}
P 2700 1600 2400 1600 1 0 0
{
T 2500 1650 5 8 1 1 0 0 1
pinnumber=30
T 2500 1550 5 8 0 1 0 2 1
pinseq=17
T 2350 1600 9 8 1 1 0 6 1
pinlabel=ALE
T 2350 1600 5 8 0 1 0 8 1
pintype=out
}
P 2700 1200 2500 1200 1 0 0
{
T 2500 1250 5 8 1 1 0 0 1
pinnumber=31
T 2500 1150 5 8 0 1 0 2 1
pinseq=18
T 2350 1200 9 8 1 1 0 6 1
pinlabel=EA
T 2350 1200 5 8 0 1 0 8 1
pintype=in
}
L 2118 1324 2350 1324 3 0 0 0 -1 -1
V 2450 1200 50 6 0 0 0 -1 -1 0 -1 -1 -1 -1 -1
P 2700 800 2500 800 1 0 0
{
T 2500 850 5 8 1 1 0 0 1
pinnumber=29
T 2500 750 5 8 0 1 0 2 1
pinseq=19
T 2350 800 9 8 1 1 0 6 1
pinlabel=PSEN
T 2350 800 5 8 0 1 0 8 1
pintype=out
}
L 1922 924 2350 924 3 0 0 0 -1 -1
V 2450 800 50 6 0 0 0 -1 -1 0 -1 -1 -1 -1 -1
P 100 8000 400 8000 1 0 0
{
T 300 8050 5 8 1 1 0 6 1
pinnumber=1
T 300 7950 5 8 0 1 0 8 1
pinseq=20
T 450 8000 9 8 1 1 0 0 1
pinlabel=P1.0 (T2)
T 450 8000 5 8 0 1 0 2 1
pintype=io
}
P 100 7600 400 7600 1 0 0
{
T 300 7650 5 8 1 1 0 6 1
pinnumber=2
T 300 7550 5 8 0 1 0 8 1
pinseq=21
T 450 7600 9 8 1 1 0 0 1
pinlabel=P1.1 (T2EX)
T 450 7600 5 8 0 1 0 2 1
pintype=io
}
P 100 7200 400 7200 1 0 0
{
T 300 7250 5 8 1 1 0 6 1
pinnumber=3
T 300 7150 5 8 0 1 0 8 1
pinseq=22
T 450 7200 9 8 1 1 0 0 1
pinlabel=P1.2
T 450 7200 5 8 0 1 0 2 1
pintype=io
}
P 100 6800 400 6800 1 0 0
{
T 300 6850 5 8 1 1 0 6 1
pinnumber=4
T 300 6750 5 8 0 1 0 8 1
pinseq=23
T 450 6800 9 8 1 1 0 0 1
pinlabel=P1.3
T 450 6800 5 8 0 1 0 2 1
pintype=io
}
P 100 6400 400 6400 1 0 0
{
T 300 6450 5 8 1 1 0 6 1
pinnumber=5
T 300 6350 5 8 0 1 0 8 1
pinseq=24
T 450 6400 9 8 1 1 0 0 1
pinlabel=P1.4 (INT2)
T 450 6400 5 8 0 1 0 2 1
pintype=io
}
P 100 6000 400 6000 1 0 0
{
T 300 6050 5 8 1 1 0 6 1
pinnumber=6
T 300 5950 5 8 0 1 0 8 1
pinseq=25
T 450 6000 9 8 1 1 0 0 1
pinlabel=P1.5 (INT3)
T 450 6000 5 8 0 1 0 2 1
pintype=io
}
L 834 6124 1162 6124 3 0 0 0 -1 -1
P 100 5600 400 5600 1 0 0
{
T 300 5650 5 8 1 1 0 6 1
pinnumber=7
T 300 5550 5 8 0 1 0 8 1
pinseq=26
T 450 5600 9 8 1 1 0 0 1
pinlabel=P1.6 (INT4)
T 450 5600 5 8 0 1 0 2 1
pintype=io
}
P 100 5200 400 5200 1 0 0
{
T 300 5250 5 8 1 1 0 6 1
pinnumber=8
T 300 5150 5 8 0 1 0 8 1
pinseq=27
T 450 5200 9 8 1 1 0 0 1
pinlabel=P1.7 (INT5)
T 450 5200 5 8 0 1 0 2 1
pintype=io
}
L 834 5324 1154 5324 3 0 0 0 -1 -1
P 100 4800 400 4800 1 0 0
{
T 300 4850 5 8 1 1 0 6 1
pinnumber=10
T 300 4750 5 8 0 1 0 8 1
pinseq=28
T 450 4800 9 8 1 1 0 0 1
pinlabel=P3.0 (RXD0)
T 450 4800 5 8 0 1 0 2 1
pintype=io
}
P 100 4400 400 4400 1 0 0
{
T 300 4450 5 8 1 1 0 6 1
pinnumber=11
T 300 4350 5 8 0 1 0 8 1
pinseq=29
T 450 4400 9 8 1 1 0 0 1
pinlabel=P3.1 (TXD0)
T 450 4400 5 8 0 1 0 2 1
pintype=io
}
P 100 4000 400 4000 1 0 0
{
T 300 4050 5 8 1 1 0 6 1
pinnumber=12
T 300 3950 5 8 0 1 0 8 1
pinseq=30
T 450 4000 9 8 1 1 0 0 1
pinlabel=P3.2 (INT0)
T 450 4000 5 8 0 1 0 2 1
pintype=io
}
L 882 4124 1226 4124 3 0 0 0 -1 -1
P 100 3600 400 3600 1 0 0
{
T 300 3650 5 8 1 1 0 6 1
pinnumber=13
T 300 3550 5 8 0 1 0 8 1
pinseq=31
T 450 3600 9 8 1 1 0 0 1
pinlabel=P3.3 (INT1)
T 450 3600 5 8 0 1 0 2 1
pintype=io
}
L 866 3724 1170 3724 3 0 0 0 -1 -1
P 100 3200 400 3200 1 0 0
{
T 300 3250 5 8 1 1 0 6 1
pinnumber=14
T 300 3150 5 8 0 1 0 8 1
pinseq=32
T 450 3200 9 8 1 1 0 0 1
pinlabel=P3.4 (T0)
T 450 3200 5 8 0 1 0 2 1
pintype=io
}
P 100 2800 400 2800 1 0 0
{
T 300 2850 5 8 1 1 0 6 1
pinnumber=15
T 300 2750 5 8 0 1 0 8 1
pinseq=33
T 450 2800 9 8 1 1 0 0 1
pinlabel=P3.5 (T1)
T 450 2800 5 8 0 1 0 2 1
pintype=io
}
P 100 2400 400 2400 1 0 0
{
T 300 2450 5 8 1 1 0 6 1
pinnumber=16
T 300 2350 5 8 0 1 0 8 1
pinseq=34
T 450 2400 9 8 1 1 0 0 1
pinlabel=P3.6 (WR)
T 450 2400 5 8 0 1 0 2 1
pintype=io
}
L 874 2524 1126 2524 3 0 0 0 -1 -1
P 100 2000 400 2000 1 0 0
{
T 300 2050 5 8 1 1 0 6 1
pinnumber=17
T 300 1950 5 8 0 1 0 8 1
pinseq=35
T 450 2000 9 8 1 1 0 0 1
pinlabel=P3.7 (RD)
T 450 2000 5 8 0 1 0 2 1
pintype=io
}
L 858 2124 1066 2124 3 0 0 0 -1 -1
P 800 100 800 400 1 0 0
{
T 850 200 5 8 1 1 0 0 1
pinnumber=9
T 850 200 5 8 0 1 0 2 1
pinseq=36
T 800 450 9 8 1 1 0 3 1
pinlabel=RST
T 800 600 5 8 0 1 0 3 1
pintype=in
}
P 1400 100 1400 400 1 0 0
{
T 1450 200 5 8 1 1 0 0 1
pinnumber=19
T 1450 200 5 8 0 1 0 2 1
pinseq=37
T 1400 450 9 8 1 1 0 3 1
pinlabel=XTAL1
T 1400 600 5 8 0 1 0 3 1
pintype=in
}
P 2000 100 2000 400 1 0 0
{
T 2050 200 5 8 1 1 0 0 1
pinnumber=18
T 2050 200 5 8 0 1 0 2 1
pinseq=38
T 2000 450 9 8 1 1 0 3 1
pinlabel=XTAL2
T 2000 600 5 8 0 1 0 3 1
pintype=out
}
B 400 400 2000 8000 3 0 0 0 -1 -1 0 -1 -1 -1 -1 -1
T 400 9650 5 10 0 0 0 0 1
numslots=0
T 400 9850 5 10 0 0 0 0 1
author=Werner Hoch <werner.hoATgmx.de>
T 400 8450 9 10 1 0 0 0 1
DS80C310
