v 20031231 1
B 300 300 9300 6400 3 0 0 0 -1 -1 0 -1 -1 -1 -1 -1
T 2600 3975 5 10 0 0 0 0 1
device=MSP430x15/6x
T 9550 6750 8 10 1 1 0 6 1
refdes=U?
P 300 6500 0 6500 1 0 1
{
T 200 6550 5 8 1 1 0 6 1
pinnumber=1
T 350 6500 9 8 1 1 0 0 1
pinlabel=DVcc
T 200 6450 5 8 0 1 0 8 1
pinseq=1
T 350 6500 5 8 0 1 0 2 1
pintype=pwr
}
P 300 6100 0 6100 1 0 1
{
T 200 6150 5 8 1 1 0 6 1
pinnumber=2
T 350 6100 9 8 1 1 0 0 1
pinlabel=P6.3/A3
T 200 6050 5 8 0 1 0 8 1
pinseq=2
T 350 6100 5 8 0 1 0 2 1
pintype=io
}
P 300 5700 0 5700 1 0 1
{
T 200 5750 5 8 1 1 0 6 1
pinnumber=3
T 350 5700 9 8 1 1 0 0 1
pinlabel=P6.4/A4
T 200 5650 5 8 0 1 0 8 1
pinseq=3
T 350 5700 5 8 0 1 0 2 1
pintype=io
}
P 300 5300 0 5300 1 0 1
{
T 200 5350 5 8 1 1 0 6 1
pinnumber=4
T 350 5300 9 8 1 1 0 0 1
pinlabel=P6.5/A5
T 200 5250 5 8 0 1 0 8 1
pinseq=4
T 350 5300 5 8 0 1 0 2 1
pintype=io
}
P 300 4900 0 4900 1 0 1
{
T 200 4950 5 8 1 1 0 6 1
pinnumber=5
T 350 4900 9 8 1 1 0 0 1
pinlabel=P6.6/A6/DAC0
T 200 4850 5 8 0 1 0 8 1
pinseq=5
T 350 4900 5 8 0 1 0 2 1
pintype=io
}
P 300 4500 0 4500 1 0 1
{
T 200 4550 5 8 1 1 0 6 1
pinnumber=6
T 350 4500 9 8 1 1 0 0 1
pinlabel=P6.7/A7/DAC1/SVSIN
T 200 4450 5 8 0 1 0 8 1
pinseq=6
T 350 4500 5 8 0 1 0 2 1
pintype=io
}
P 300 4100 0 4100 1 0 1
{
T 200 4150 5 8 1 1 0 6 1
pinnumber=7
T 350 4100 9 8 1 1 0 0 1
pinlabel=Vref+
T 200 4050 5 8 0 1 0 8 1
pinseq=7
T 350 4100 5 8 0 1 0 2 1
pintype=out
}
P 300 3700 0 3700 1 0 1
{
T 200 3750 5 8 1 1 0 6 1
pinnumber=8
T 350 3700 9 8 1 1 0 0 1
pinlabel=XIN
T 200 3650 5 8 0 1 0 8 1
pinseq=8
T 350 3700 5 8 0 1 0 2 1
pintype=in
}
P 300 3300 0 3300 1 0 1
{
T 200 3350 5 8 1 1 0 6 1
pinnumber=9
T 350 3300 9 8 1 1 0 0 1
pinlabel=XOUT/TCLK
T 200 3250 5 8 0 1 0 8 1
pinseq=9
T 350 3300 5 8 0 1 0 2 1
pintype=io
}
P 300 2900 0 2900 1 0 1
{
T 200 2950 5 8 1 1 0 6 1
pinnumber=10
T 350 2900 9 8 1 1 0 0 1
pinlabel=VeREF+
T 200 2850 5 8 0 1 0 8 1
pinseq=10
T 350 2900 5 8 0 1 0 2 1
pintype=in
}
P 300 2500 0 2500 1 0 1
{
T 200 2550 5 8 1 1 0 6 1
pinnumber=11
T 350 2500 9 8 1 1 0 0 1
pinlabel=Vref-/VeREF-
T 200 2450 5 8 0 1 0 8 1
pinseq=11
T 350 2500 5 8 0 1 0 2 1
pintype=out
}
P 300 2100 0 2100 1 0 1
{
T 200 2150 5 8 1 1 0 6 1
pinnumber=12
T 350 2100 9 8 1 1 0 0 1
pinlabel=P1.0/TACLK
T 200 2050 5 8 0 1 0 8 1
pinseq=12
T 350 2100 5 8 0 1 0 2 1
pintype=io
}
P 300 1700 0 1700 1 0 1
{
T 200 1750 5 8 1 1 0 6 1
pinnumber=13
T 350 1700 9 8 1 1 0 0 1
pinlabel=P1.1/TA0
T 200 1650 5 8 0 1 0 8 1
pinseq=13
T 350 1700 5 8 0 1 0 2 1
pintype=io
}
P 300 1300 0 1300 1 0 1
{
T 200 1350 5 8 1 1 0 6 1
pinnumber=14
T 350 1300 9 8 1 1 0 0 1
pinlabel=P1.2/TA1
T 200 1250 5 8 0 1 0 8 1
pinseq=14
T 350 1300 5 8 0 1 0 2 1
pintype=io
}
P 300 900 0 900 1 0 1
{
T 200 950 5 8 1 1 0 6 1
pinnumber=15
T 350 900 9 8 1 1 0 0 1
pinlabel=P1.3/TA2
T 200 850 5 8 0 1 0 8 1
pinseq=15
T 350 900 5 8 0 1 0 2 1
pintype=io
}
P 300 500 0 500 1 0 1
{
T 200 550 5 8 1 1 0 6 1
pinnumber=16
T 350 500 9 8 1 1 0 0 1
pinlabel=P1.4/SMCLK
T 200 450 5 8 0 1 0 8 1
pinseq=16
T 350 500 5 8 0 1 0 2 1
pintype=io
}
P 1900 0 1900 300 1 0 0
{
T 1850 200 5 8 1 1 90 6 1
pinnumber=17
T 1900 350 9 8 1 1 90 0 1
pinlabel=P1.5/TA0
T 1950 200 5 8 0 1 90 8 1
pinseq=17
T 1900 350 5 8 0 1 90 2 1
pintype=io
}
P 2300 0 2300 300 1 0 0
{
T 2250 200 5 8 1 1 90 6 1
pinnumber=18
T 2300 350 9 8 1 1 90 0 1
pinlabel=P1.6/TA1
T 2350 200 5 8 0 1 90 8 1
pinseq=18
T 2300 350 5 8 0 1 90 2 1
pintype=io
}
P 2700 0 2700 300 1 0 0
{
T 2650 200 5 8 1 1 90 6 1
pinnumber=19
T 2700 350 9 8 1 1 90 0 1
pinlabel=P1.7/TA2
T 2750 200 5 8 0 1 90 8 1
pinseq=19
T 2700 350 5 8 0 1 90 2 1
pintype=io
}
P 3100 0 3100 300 1 0 0
{
T 3050 200 5 8 1 1 90 6 1
pinnumber=20
T 3100 350 9 8 1 1 90 0 1
pinlabel=P2.0/ACLK
T 3150 200 5 8 0 1 90 8 1
pinseq=20
T 3100 350 5 8 0 1 90 2 1
pintype=io
}
P 3500 0 3500 300 1 0 0
{
T 3450 200 5 8 1 1 90 6 1
pinnumber=21
T 3500 350 9 8 1 1 90 0 1
pinlabel=P2.1/TAINCLK
T 3550 200 5 8 0 1 90 8 1
pinseq=21
T 3500 350 5 8 0 1 90 2 1
pintype=io
}
P 3900 0 3900 300 1 0 0
{
T 3850 200 5 8 1 1 90 6 1
pinnumber=22
T 3900 350 9 8 1 1 90 0 1
pinlabel=P2.2/CAOUT/TA0
T 3950 200 5 8 0 1 90 8 1
pinseq=22
T 3900 350 5 8 0 1 90 2 1
pintype=io
}
P 4300 0 4300 300 1 0 0
{
T 4250 200 5 8 1 1 90 6 1
pinnumber=23
T 4300 350 9 8 1 1 90 0 1
pinlabel=P2.3/CA0/TA1
T 4350 200 5 8 0 1 90 8 1
pinseq=23
T 4300 350 5 8 0 1 90 2 1
pintype=io
}
P 4700 0 4700 300 1 0 0
{
T 4650 200 5 8 1 1 90 6 1
pinnumber=24
T 4700 350 9 8 1 1 90 0 1
pinlabel=P2.4/CA1/TA2
T 4750 200 5 8 0 1 90 8 1
pinseq=24
T 4700 350 5 8 0 1 90 2 1
pintype=io
}
P 5100 0 5100 300 1 0 0
{
T 5050 200 5 8 1 1 90 6 1
pinnumber=25
T 5100 350 9 8 1 1 90 0 1
pinlabel=P2.5/Rosc
T 5150 200 5 8 0 1 90 8 1
pinseq=25
T 5100 350 5 8 0 1 90 2 1
pintype=io
}
P 5500 0 5500 300 1 0 0
{
T 5450 200 5 8 1 1 90 6 1
pinnumber=26
T 5500 350 9 8 1 1 90 0 1
pinlabel=P2.6/ADC12CLK/DMAE0
T 5550 200 5 8 0 1 90 8 1
pinseq=26
T 5500 350 5 8 0 1 90 2 1
pintype=io
}
P 5900 0 5900 300 1 0 0
{
T 5850 200 5 8 1 1 90 6 1
pinnumber=27
T 5900 350 9 8 1 1 90 0 1
pinlabel=P2.7/TA0
T 5950 200 5 8 0 1 90 8 1
pinseq=27
T 5900 350 5 8 0 1 90 2 1
pintype=io
}
P 6300 0 6300 300 1 0 0
{
T 6250 200 5 8 1 1 90 6 1
pinnumber=28
T 6300 350 9 8 1 1 90 0 1
pinlabel=P3.0/STE0
T 6350 200 5 8 0 1 90 8 1
pinseq=28
T 6300 350 5 8 0 1 90 2 1
pintype=io
}
P 6700 0 6700 300 1 0 0
{
T 6650 200 5 8 1 1 90 6 1
pinnumber=29
T 6700 350 9 8 1 1 90 0 1
pinlabel=P3.1/SIMO0/SDA
T 6750 200 5 8 0 1 90 8 1
pinseq=29
T 6700 350 5 8 0 1 90 2 1
pintype=io
}
P 7100 0 7100 300 1 0 0
{
T 7050 200 5 8 1 1 90 6 1
pinnumber=30
T 7100 350 9 8 1 1 90 0 1
pinlabel=P3.2/SOMI0
T 7150 200 5 8 0 1 90 8 1
pinseq=30
T 7100 350 5 8 0 1 90 2 1
pintype=io
}
P 7500 0 7500 300 1 0 0
{
T 7450 200 5 8 1 1 90 6 1
pinnumber=31
T 7500 350 9 8 1 1 90 0 1
pinlabel=P3.3/UCLK0/SCL
T 7550 200 5 8 0 1 90 8 1
pinseq=31
T 7500 350 5 8 0 1 90 2 1
pintype=io
}
P 7900 0 7900 300 1 0 0
{
T 7850 200 5 8 1 1 90 6 1
pinnumber=32
T 7900 350 9 8 1 1 90 0 1
pinlabel=P3.4/UTXD0
T 7950 200 5 8 0 1 90 8 1
pinseq=32
T 7900 350 5 8 0 1 90 2 1
pintype=io
}
P 9600 500 9900 500 1 0 1
{
T 9700 550 5 8 1 1 0 0 1
pinnumber=33
T 9550 500 9 8 1 1 0 6 1
pinlabel=P3.5/URXD0
T 9700 450 5 8 0 1 0 2 1
pinseq=33
T 9550 500 5 8 0 1 0 8 1
pintype=io
}
P 9600 900 9900 900 1 0 1
{
T 9700 950 5 8 1 1 0 0 1
pinnumber=34
T 9550 900 9 8 1 1 0 6 1
pinlabel=P3.6
T 9700 850 5 8 0 1 0 2 1
pinseq=34
T 9550 900 5 8 0 1 0 8 1
pintype=io
}
P 9600 1300 9900 1300 1 0 1
{
T 9700 1350 5 8 1 1 0 0 1
pinnumber=35
T 9550 1300 9 8 1 1 0 6 1
pinlabel=P3.7
T 9700 1250 5 8 0 1 0 2 1
pinseq=35
T 9550 1300 5 8 0 1 0 8 1
pintype=io
}
P 9600 1700 9900 1700 1 0 1
{
T 9700 1750 5 8 1 1 0 0 1
pinnumber=36
T 9550 1700 9 8 1 1 0 6 1
pinlabel=P4.0/TB0
T 9700 1650 5 8 0 1 0 2 1
pinseq=36
T 9550 1700 5 8 0 1 0 8 1
pintype=io
}
P 9600 2100 9900 2100 1 0 1
{
T 9700 2150 5 8 1 1 0 0 1
pinnumber=37
T 9550 2100 9 8 1 1 0 6 1
pinlabel=P4.1/TB1
T 9700 2050 5 8 0 1 0 2 1
pinseq=37
T 9550 2100 5 8 0 1 0 8 1
pintype=io
}
P 9600 2500 9900 2500 1 0 1
{
T 9700 2550 5 8 1 1 0 0 1
pinnumber=38
T 9550 2500 9 8 1 1 0 6 1
pinlabel=P4.2/TB2
T 9700 2450 5 8 0 1 0 2 1
pinseq=38
T 9550 2500 5 8 0 1 0 8 1
pintype=io
}
P 9600 2900 9900 2900 1 0 1
{
T 9700 2950 5 8 1 1 0 0 1
pinnumber=39
T 9550 2900 9 8 1 1 0 6 1
pinlabel=P4.3
T 9700 2850 5 8 0 1 0 2 1
pinseq=39
T 9550 2900 5 8 0 1 0 8 1
pintype=io
}
P 9600 3300 9900 3300 1 0 1
{
T 9700 3350 5 8 1 1 0 0 1
pinnumber=40
T 9550 3300 9 8 1 1 0 6 1
pinlabel=P4.4
T 9700 3250 5 8 0 1 0 2 1
pinseq=40
T 9550 3300 5 8 0 1 0 8 1
pintype=io
}
P 9600 3700 9900 3700 1 0 1
{
T 9700 3750 5 8 1 1 0 0 1
pinnumber=41
T 9550 3700 9 8 1 1 0 6 1
pinlabel=P4.5
T 9700 3650 5 8 0 1 0 2 1
pinseq=41
T 9550 3700 5 8 0 1 0 8 1
pintype=io
}
P 9600 4100 9900 4100 1 0 1
{
T 9700 4150 5 8 1 1 0 0 1
pinnumber=42
T 9550 4100 9 8 1 1 0 6 1
pinlabel=P4.6
T 9700 4050 5 8 0 1 0 2 1
pinseq=42
T 9550 4100 5 8 0 1 0 8 1
pintype=io
}
P 9600 4500 9900 4500 1 0 1
{
T 9700 4550 5 8 1 1 0 0 1
pinnumber=43
T 9550 4500 9 8 1 1 0 6 1
pinlabel=P4.7/TBCLK
T 9700 4450 5 8 0 1 0 2 1
pinseq=43
T 9550 4500 5 8 0 1 0 8 1
pintype=io
}
P 9600 4900 9900 4900 1 0 1
{
T 9700 4950 5 8 1 1 0 0 1
pinnumber=44
T 9550 4900 9 8 1 1 0 6 1
pinlabel=P5.0
T 9700 4850 5 8 0 1 0 2 1
pinseq=44
T 9550 4900 5 8 0 1 0 8 1
pintype=io
}
P 9600 5300 9900 5300 1 0 1
{
T 9700 5350 5 8 1 1 0 0 1
pinnumber=45
T 9550 5300 9 8 1 1 0 6 1
pinlabel=P5.1
T 9700 5250 5 8 0 1 0 2 1
pinseq=45
T 9550 5300 5 8 0 1 0 8 1
pintype=io
}
P 9600 5700 9900 5700 1 0 1
{
T 9700 5750 5 8 1 1 0 0 1
pinnumber=46
T 9550 5700 9 8 1 1 0 6 1
pinlabel=P5.2
T 9700 5650 5 8 0 1 0 2 1
pinseq=46
T 9550 5700 5 8 0 1 0 8 1
pintype=io
}
P 9600 6100 9900 6100 1 0 1
{
T 9700 6150 5 8 1 1 0 0 1
pinnumber=47
T 9550 6100 9 8 1 1 0 6 1
pinlabel=P5.3
T 9700 6050 5 8 0 1 0 2 1
pinseq=47
T 9550 6100 5 8 0 1 0 8 1
pintype=io
}
P 9600 6500 9900 6500 1 0 1
{
T 9700 6550 5 8 1 1 0 0 1
pinnumber=48
T 9550 6500 9 8 1 1 0 6 1
pinlabel=P5.4/MCLK
T 9700 6450 5 8 0 1 0 2 1
pinseq=48
T 9550 6500 5 8 0 1 0 8 1
pintype=io
}
P 7900 6700 7900 7000 1 0 1
{
T 7850 6800 5 8 1 1 90 0 1
pinnumber=49
T 7900 6650 9 8 1 1 90 6 1
pinlabel=P5.5/SMCLK
T 7950 6800 5 8 0 1 90 2 1
pinseq=49
T 7900 6650 5 8 0 1 90 8 1
pintype=io
}
P 7500 6700 7500 7000 1 0 1
{
T 7450 6800 5 8 1 1 90 0 1
pinnumber=50
T 7500 6650 9 8 1 1 90 6 1
pinlabel=P5.6/ACLK
T 7550 6800 5 8 0 1 90 2 1
pinseq=50
T 7500 6650 5 8 0 1 90 8 1
pintype=io
}
P 7100 6700 7100 7000 1 0 1
{
T 7050 6800 5 8 1 1 90 0 1
pinnumber=51
T 7100 6650 9 8 1 1 90 6 1
pinlabel=P5.7/TBoutH/SVSOUT
T 7150 6800 5 8 0 1 90 2 1
pinseq=51
T 7100 6650 5 8 0 1 90 8 1
pintype=io
}
P 6700 6700 6700 7000 1 0 1
{
T 6650 6800 5 8 1 1 90 0 1
pinnumber=52
T 6700 6650 9 8 1 1 90 6 1
pinlabel=XT2OUT
T 6750 6800 5 8 0 1 90 2 1
pinseq=52
T 6700 6650 5 8 0 1 90 8 1
pintype=out
}
P 6300 6700 6300 7000 1 0 1
{
T 6250 6800 5 8 1 1 90 0 1
pinnumber=53
T 6300 6650 9 8 1 1 90 6 1
pinlabel=XT2IN
T 6350 6800 5 8 0 1 90 2 1
pinseq=53
T 6300 6650 5 8 0 1 90 8 1
pintype=in
}
P 5900 6700 5900 7000 1 0 1
{
T 5850 6800 5 8 1 1 90 0 1
pinnumber=54
T 5900 6650 9 8 1 1 90 6 1
pinlabel=TDO/TDI
T 5950 6800 5 8 0 1 90 2 1
pinseq=54
T 5900 6650 5 8 0 1 90 8 1
pintype=io
}
P 5500 6700 5500 7000 1 0 1
{
T 5450 6800 5 8 1 1 90 0 1
pinnumber=55
T 5500 6650 9 8 1 1 90 6 1
pinlabel=TDI
T 5550 6800 5 8 0 1 90 2 1
pinseq=55
T 5500 6650 5 8 0 1 90 8 1
pintype=in
}
P 5100 6700 5100 7000 1 0 1
{
T 5050 6800 5 8 1 1 90 0 1
pinnumber=56
T 5100 6650 9 8 1 1 90 6 1
pinlabel=TMS
T 5150 6800 5 8 0 1 90 2 1
pinseq=56
T 5100 6650 5 8 0 1 90 8 1
pintype=in
}
P 4700 6700 4700 7000 1 0 1
{
T 4650 6800 5 8 1 1 90 0 1
pinnumber=57
T 4700 6650 9 8 1 1 90 6 1
pinlabel=TCK
T 4750 6800 5 8 0 1 90 2 1
pinseq=57
T 4700 6650 5 8 0 1 90 8 1
pintype=in
}
P 4300 6800 4300 7000 1 0 1
{
T 4250 6800 5 8 1 1 90 0 1
pinnumber=58
T 4300 6650 9 8 1 1 90 6 1
pinlabel=RST/NMI
T 4350 6800 5 8 0 1 90 2 1
pinseq=58
T 4300 6650 5 8 0 1 90 8 1
pintype=in
}
P 3900 6700 3900 7000 1 0 1
{
T 3850 6800 5 8 1 1 90 0 1
pinnumber=59
T 3900 6650 9 8 1 1 90 6 1
pinlabel=P6.0/A0
T 3950 6800 5 8 0 1 90 2 1
pinseq=59
T 3900 6650 5 8 0 1 90 8 1
pintype=io
}
P 3500 6700 3500 7000 1 0 1
{
T 3450 6800 5 8 1 1 90 0 1
pinnumber=60
T 3500 6650 9 8 1 1 90 6 1
pinlabel=P6.1/A1
T 3550 6800 5 8 0 1 90 2 1
pinseq=60
T 3500 6650 5 8 0 1 90 8 1
pintype=io
}
P 3100 6700 3100 7000 1 0 1
{
T 3050 6800 5 8 1 1 90 0 1
pinnumber=61
T 3100 6650 9 8 1 1 90 6 1
pinlabel=P6.2/A2
T 3150 6800 5 8 0 1 90 2 1
pinseq=61
T 3100 6650 5 8 0 1 90 8 1
pintype=io
}
P 2700 6700 2700 7000 1 0 1
{
T 2650 6800 5 8 1 1 90 0 1
pinnumber=62
T 2700 6650 9 8 1 1 90 6 1
pinlabel=AVss
T 2750 6800 5 8 0 1 90 2 1
pinseq=62
T 2700 6650 5 8 0 1 90 8 1
pintype=pwr
}
P 2300 6700 2300 7000 1 0 1
{
T 2250 6800 5 8 1 1 90 0 1
pinnumber=63
T 2300 6650 9 8 1 1 90 6 1
pinlabel=DVss
T 2350 6800 5 8 0 1 90 2 1
pinseq=63
T 2300 6650 5 8 0 1 90 8 1
pintype=pwr
}
P 1900 6700 1900 7000 1 0 1
{
T 1850 6800 5 8 1 1 90 0 1
pinnumber=64
T 1900 6650 9 8 1 1 90 6 1
pinlabel=AVcc
T 1950 6800 5 8 0 1 90 2 1
pinseq=64
T 1900 6650 5 8 0 1 90 8 1
pintype=pwr
}
T 2600 3550 5 10 0 0 0 0 1
footprint=none
T 2600 3750 5 10 0 0 0 0 1
description=16-bit mixed signal microcontroller
T 2600 3350 5 10 0 0 0 0 1
numslots=0
T 300 6750 3 10 1 0 0 0 1
MSP430x15/6x
V 4300 6750 50 6 0 0 0 -1 -1 0 -1 -1 -1 -1 -1
L 4175 6025 4175 6325 3 0 0 0 -1 -1
T 2600 3150 5 10 0 0 0 0 1
documentation=http://www-s.ti.com/sc/ds/msp430f155.pdf
