refdes	refdes	value	device	
Cout	Cout	2.2uF	CAPACITOR	
R5	R5	10	RESISTOR	
R4	R4	2.8K	RESISTOR	
RE2	RE2	100	RESISTOR	
Q2	Q2	unknown	NPN_TRANSISTOR	
A3	A3	.options TEMP=25	directive	
R3	R3	28K	RESISTOR	
A2	A2	unknown	include	
RE1	RE1	100	RESISTOR	
Q1	Q1	unknown	NPN_TRANSISTOR	
A1	A1	unknown	model	
R2	R2	2K	RESISTOR	
Vinput	Vinput	DC 1.6V AC 10MV SIN(0 1MV 1KHZ)	vsin	
R1	R1	28K	RESISTOR	
C2	C2	2.2uF	CAPACITOR	
CE2	CE2	1pF	CAPACITOR	
C1	C1	2.2uF	CAPACITOR	
CE1	CE1	1pF	CAPACITOR	
R8	R8	1	RESISTOR	
VCC	VCC	DC 15V	VOLTAGE_SOURCE	
RC2	RC2	1K	RESISTOR	
RC1	RC1	3.3K	RESISTOR	
RL	RL	100K	RESISTOR	
