v 20031231 1
A 300 2000 200 270 180 3 0 0 0 -1 -1
A 300 1600 200 270 180 3 0 0 0 -1 -1
A 300 1200 200 270 180 3 0 0 0 -1 -1
A 300 800 200 270 180 3 0 0 0 -1 -1
P 300 600 300 0 1 0 1
T 600 300 9 10 1 1 0 0 1
RELAY
P 300 2800 300 2200 1 0 0
P 1500 2800 1500 2200 1 0 0
P 1500 600 1500 0 1 0 1
B 0 500 1800 1800 3 0 0 0 -1 -1 0 -1 -1 -1 -1 -1
T 700 2350 5 10 0 1 0 0 1
device=RELAY
L 900 2100 900 700 3 0 0 0 -1 -1
L 900 1400 1550 2250 3 0 0 0 -1 -1
T 1800 2350 8 10 1 1 0 0 1
refdes=U?
