-- Structural VAMS generated by gnetlist
-- Secondary unit

ARCHITECTURE default_architecture OF default_entity IS
	unknown unnamed_net1 	:  unknown;
	unknown netattrib 	:  unknown;
	unknown GND 	:  unknown;
	unknown Vcc 	:  unknown;
	unknown one 	:  unknown;
BEGIN
-- Architecture statement part
 
  F1 : ENTITY FUSE
	PORT MAP (	1 => one,
			2 => OPEN);
 
  U100 : ENTITY 7400
	GENERIC MAP (
			net => netattrib:5)
	PORT MAP (	3 => one,
			2 => OPEN,
			1 => OPEN,
			14 => Vcc,
			7 => GND,
			5 => netattrib);
 
  U300 : ENTITY 7404
	PORT MAP (	1 => one,
			2 => unnamed_net1,
			7 => GND,
			14 => Vcc);
 
  U200 : ENTITY 7404
	PORT MAP (	1 => one,
			2 => netattrib,
			7 => GND,
			14 => Vcc);
END ARCHITECTURE default_architecture;
