v 20060906 1
T 300 7450 5 10 0 0 0 0 1
device=N82S100N
T 300 7050 5 10 0 0 0 0 1
numslots=0
T 300 7250 5 10 0 0 0 0 1
footprint=DIP28
B 300 0 1400 6800 3 0 0 0 -1 -1 0 -1 -1 -1 -1 -1
P 300 6500 0 6500 1 0 1
{
T 400 6500 3 10 1 1 0 0 1
pinlabel=I0
T 150 6550 5 8 1 1 0 0 1
pinnumber=9
T 150 6550 5 8 0 0 0 0 1
pinseq=1
}
P 300 6100 0 6100 1 0 1
{
T 400 6100 3 10 1 1 0 0 1
pinlabel=I1
T 150 6150 5 8 1 1 0 0 1
pinnumber=8
T 150 6150 5 8 0 0 0 0 1
pinseq=2
}
P 300 5700 0 5700 1 0 1
{
T 400 5700 3 10 1 1 0 0 1
pinlabel=I2
T 150 5750 5 8 1 1 0 0 1
pinnumber=7
T 150 5750 5 8 0 0 0 0 1
pinseq=3
}
P 300 5300 0 5300 1 0 1
{
T 400 5300 3 10 1 1 0 0 1
pinlabel=I3
T 150 5350 5 8 1 1 0 0 1
pinnumber=6
T 150 5350 5 8 0 0 0 0 1
pinseq=4
}
P 300 4900 0 4900 1 0 1
{
T 400 4900 3 10 1 1 0 0 1
pinlabel=I4
T 150 4950 5 8 1 1 0 0 1
pinnumber=5
T 150 4950 5 8 0 0 0 0 1
pinseq=5
}
P 300 4500 0 4500 1 0 1
{
T 400 4500 3 10 1 1 0 0 1
pinlabel=I5
T 150 4550 5 8 1 1 0 0 1
pinnumber=4
T 150 4550 5 8 0 0 0 0 1
pinseq=6
}
P 300 4100 0 4100 1 0 1
{
T 400 4100 3 10 1 1 0 0 1
pinlabel=I6
T 150 4150 5 8 1 1 0 0 1
pinnumber=3
T 150 4150 5 8 0 0 0 0 1
pinseq=7
}
P 300 3700 0 3700 1 0 1
{
T 400 3700 3 10 1 1 0 0 1
pinlabel=I7
T 150 3750 5 8 1 1 0 0 1
pinnumber=2
T 150 3750 5 8 0 0 0 0 1
pinseq=8
}
P 300 3300 0 3300 1 0 1
{
T 400 3300 3 10 1 1 0 0 1
pinlabel=I8
T 50 3350 5 8 1 1 0 0 1
pinnumber=27
T 50 3350 5 8 0 0 0 0 1
pinseq=9
}
P 300 2900 0 2900 1 0 1
{
T 400 2900 3 10 1 1 0 0 1
pinlabel=I9
T 50 2950 5 8 1 1 0 0 1
pinnumber=26
T 50 2950 5 8 0 0 0 0 1
pinseq=10
}
P 300 2500 0 2500 1 0 1
{
T 400 2500 3 10 1 1 0 0 1
pinlabel=I10
T 50 2550 5 8 1 1 0 0 1
pinnumber=25
T 50 2550 5 8 0 0 0 0 1
pinseq=11
}
P 300 2100 0 2100 1 0 1
{
T 400 2100 3 10 1 1 0 0 1
pinlabel=I11
T 50 2150 5 8 1 1 0 0 1
pinnumber=24
T 50 2150 5 8 0 0 0 0 1
pinseq=12
}
P 300 1700 0 1700 1 0 1
{
T 400 1700 3 10 1 1 0 0 1
pinlabel=I12
T 50 1750 5 8 1 1 0 0 1
pinnumber=23
T 50 1750 5 8 0 0 0 0 1
pinseq=13
}
P 300 1300 0 1300 1 0 1
{
T 400 1300 3 10 1 1 0 0 1
pinlabel=I13
T 50 1350 5 8 1 1 0 0 1
pinnumber=22
T 50 1350 5 8 0 0 0 0 1
pinseq=14
}
P 300 900 0 900 1 0 1
{
T 400 900 3 10 1 1 0 0 1
pinlabel=I14
T 50 950 5 8 1 1 0 0 1
pinnumber=21
T 50 950 5 8 0 0 0 0 1
pinseq=15
}
P 300 500 0 500 1 0 1
{
T 400 500 3 10 1 1 0 0 1
pinlabel=I15
T 50 550 5 8 1 1 0 0 1
pinnumber=20
T 50 550 5 8 0 0 0 0 1
pinseq=16
}
P 200 100 0 100 1 0 1
{
T 400 100 3 10 1 1 0 0 1
pinlabel=CE
T 50 150 5 8 1 1 0 0 1
pinnumber=19
T 50 150 5 8 0 0 0 0 1
pinseq=17
}
V 250 100 50 6 0 0 0 -1 -1 0 -1 -1 -1 -1 -1
P 2000 4900 1700 4900 1 0 0
{
T 1400 4900 3 10 1 1 0 0 1
pinlabel=F7
T 1800 4950 5 8 1 1 0 0 1
pinnumber=10
T 1800 4950 5 8 0 0 0 0 1
pinseq=25
}
P 2000 4500 1700 4500 1 0 0
{
T 1400 4500 3 10 1 1 0 0 1
pinlabel=F6
T 1800 4550 5 8 1 1 0 0 1
pinnumber=11
T 1800 4550 5 8 0 0 0 0 1
pinseq=24
}
P 2000 4100 1700 4100 1 0 0
{
T 1400 4100 3 10 1 1 0 0 1
pinlabel=F5
T 1800 4150 5 8 1 1 0 0 1
pinnumber=12
T 1800 4150 5 8 0 0 0 0 1
pinseq=23
}
P 2000 3700 1700 3700 1 0 0
{
T 1400 3700 3 10 1 1 0 0 1
pinlabel=F4
T 1800 3750 5 8 1 1 0 0 1
pinnumber=13
T 1800 3750 5 8 0 0 0 0 1
pinseq=22
}
P 2000 3300 1700 3300 1 0 0
{
T 1400 3300 3 10 1 1 0 0 1
pinlabel=F3
T 1800 3350 5 8 1 1 0 0 1
pinnumber=15
T 1800 3350 5 8 0 0 0 0 1
pinseq=21
}
P 2000 2900 1700 2900 1 0 0
{
T 1400 2900 3 10 1 1 0 0 1
pinlabel=F2
T 1800 2950 5 8 1 1 0 0 1
pinnumber=16
T 1800 2950 5 8 0 0 0 0 1
pinseq=20
}
P 2000 2500 1700 2500 1 0 0
{
T 1400 2500 3 10 1 1 0 0 1
pinlabel=F1
T 1800 2550 5 8 1 1 0 0 1
pinnumber=17
T 1800 2550 5 8 0 0 0 0 1
pinseq=19
}
P 2000 2100 1700 2100 1 0 0
{
T 1400 2100 3 10 1 1 0 0 1
pinlabel=F0
T 1800 2150 5 8 1 1 0 0 1
pinnumber=18
T 1800 2150 5 8 0 0 0 0 1
pinseq=18
}
T 300 6850 9 10 1 1 0 0 1
N82S100N
T 1700 6900 8 10 1 1 0 0 1
refdes=U?
T 300 7650 5 10 0 0 0 0 1
symversion=1.0
