[
Cout
PATTERN
CAPACITOR
2.2uF

]
[
R5
PATTERN
RESISTOR
10

]
[
R4
PATTERN
RESISTOR
2.8K

]
[
RE2
PATTERN
RESISTOR
100

]
[
Q2
PATTERN
NPN_TRANSISTOR


]
[
A3
PATTERN
directive
.options TEMP=25

]
[
R3
PATTERN
RESISTOR
28K

]
[
A2
PATTERN
include


]
[
RE1
PATTERN
RESISTOR
100

]
[
Q1
PATTERN
NPN_TRANSISTOR


]
[
A1
PATTERN
model


]
[
R2
PATTERN
RESISTOR
2K

]
[
Vinput
none
vsin
DC 1.6V AC 10MV SIN(0 1MV 1KHZ)

]
[
R1
PATTERN
RESISTOR
28K

]
[
C2
PATTERN
CAPACITOR
2.2uF

]
[
CE2
PATTERN
CAPACITOR
1pF

]
[
C1
PATTERN
CAPACITOR
2.2uF

]
[
CE1
PATTERN
CAPACITOR
1pF

]
[
R8
PATTERN
RESISTOR
1

]
[
VCC
none
VOLTAGE_SOURCE
DC 15V

]
[
RC2
PATTERN
RESISTOR
1K

]
[
RC1
PATTERN
RESISTOR
3.3K

]
[
RL
PATTERN
RESISTOR
100K

]
(
unnamed_net2
C2-1
R8-2
)
(
Vbase2
R3-1
C2-2
R4-2
Q2-2
)
(
Vem2
CE2-2
RE2-2
Q2-1
)
(
Vout
Cout-2
RL-2
)
(
VColl2
Q2-3
Cout-1
RC2-1
)
(
GND
R4-1
CE2-1
RE2-1
VCC-2
Vinput-2
CE1-1
RL-1
RE1-1
R2-1
)
(
Vcc
R3-2
RC1-2
VCC-1
RC2-2
R1-2
)
(
Vin
Vinput-1
R5-1
)
(
unnamed_net1
C1-1
R5-2
)
(
Vbase1
C1-2
R2-2
R1-1
Q1-2
)
(
Vem1
CE1-2
RE1-2
Q1-1
)
(
Vcoll1
R8-1
RC1-1
Q1-3
)
