v 20031231 1
T 500 4400 8 10 1 1 0 6 1
refdes=U?
T 2000 950 5 10 0 0 0 0 1
device=40163
T 2000 1150 5 10 0 0 0 0 1
footprint=DIP16
T 2000 1350 5 10 0 0 0 0 1
net=VSS:8
T 2000 1550 5 10 0 0 0 0 1
net=VDD:16
P 0 3100 200 3100 1 0 0
{
T 200 3150 5 8 1 1 0 6 1
pinnumber=9
T 200 3050 5 8 0 1 0 8 1
pinseq=1
T 350 3100 9 8 1 1 0 0 1
pinlabel=LOAD
T 350 3100 5 8 0 1 0 2 1
pintype=in
}
L 350 3224 786 3224 3 0 0 0 -1 -1
V 250 3100 50 6 0 0 0 -1 -1 0 -1 -1 -1 -1 -1
P 0 3500 200 3500 1 0 0
{
T 200 3550 5 8 1 1 0 6 1
pinnumber=1
T 200 3450 5 8 0 1 0 8 1
pinseq=2
T 350 3500 9 8 1 1 0 0 1
pinlabel=CLR
T 350 3500 5 8 0 1 0 2 1
pintype=in
}
L 350 3624 654 3624 3 0 0 0 -1 -1
V 250 3500 50 6 0 0 0 -1 -1 0 -1 -1 -1 -1 -1
P 0 1500 300 1500 1 0 0
{
T 200 1550 5 8 1 1 0 6 1
pinnumber=6
T 200 1450 5 8 0 1 0 8 1
pinseq=3
T 350 1500 9 8 1 1 0 0 1
pinlabel=I3
T 350 1500 5 8 0 1 0 2 1
pintype=in
}
P 0 1900 300 1900 1 0 0
{
T 200 1950 5 8 1 1 0 6 1
pinnumber=5
T 200 1850 5 8 0 1 0 8 1
pinseq=4
T 350 1900 9 8 1 1 0 0 1
pinlabel=I2
T 350 1900 5 8 0 1 0 2 1
pintype=in
}
P 0 2300 300 2300 1 0 0
{
T 200 2350 5 8 1 1 0 6 1
pinnumber=4
T 200 2250 5 8 0 1 0 8 1
pinseq=5
T 350 2300 9 8 1 1 0 0 1
pinlabel=I1
T 350 2300 5 8 0 1 0 2 1
pintype=in
}
P 0 2700 300 2700 1 0 0
{
T 200 2750 5 8 1 1 0 6 1
pinnumber=3
T 200 2650 5 8 0 1 0 8 1
pinseq=6
T 350 2700 9 8 1 1 0 0 1
pinlabel=I0
T 350 2700 5 8 0 1 0 2 1
pintype=in
}
P 0 700 300 700 1 0 0
{
T 200 750 5 8 1 1 0 6 1
pinnumber=10
T 200 650 5 8 0 1 0 8 1
pinseq=7
T 350 700 9 8 1 1 0 0 1
pinlabel=ENT
T 350 700 5 8 0 1 0 2 1
pintype=in
}
P 0 1100 300 1100 1 0 0
{
T 200 1150 5 8 1 1 0 6 1
pinnumber=7
T 200 1050 5 8 0 1 0 8 1
pinseq=8
T 350 1100 9 8 1 1 0 0 1
pinlabel=ENP
T 350 1100 5 8 0 1 0 2 1
pintype=in
}
P 0 3900 300 3900 1 0 0
{
T 200 3950 5 8 1 1 0 6 1
pinnumber=2
T 200 3850 5 8 0 1 0 8 1
pinseq=9
T 400 3900 9 8 1 1 0 0 1
pinlabel=CLK
T 400 3900 5 8 0 1 0 2 1
pintype=clk
}
L 400 3900 300 3975 3 0 0 0 -1 -1
L 400 3900 300 3825 3 0 0 0 -1 -1
P 1600 3900 1300 3900 1 0 0
{
T 1400 3950 5 8 1 1 0 0 1
pinnumber=15
T 1400 3850 5 8 0 1 0 2 1
pinseq=10
T 1250 3900 9 8 1 1 0 6 1
pinlabel=RCO
T 1250 3900 5 8 0 1 0 8 1
pintype=out
}
P 1600 1500 1300 1500 1 0 0
{
T 1400 1550 5 8 1 1 0 0 1
pinnumber=11
T 1400 1450 5 8 0 1 0 2 1
pinseq=11
T 1250 1500 9 8 1 1 0 6 1
pinlabel=Q3
T 1250 1500 5 8 0 1 0 8 1
pintype=out
}
P 1600 1900 1300 1900 1 0 0
{
T 1400 1950 5 8 1 1 0 0 1
pinnumber=12
T 1400 1850 5 8 0 1 0 2 1
pinseq=12
T 1250 1900 9 8 1 1 0 6 1
pinlabel=Q2
T 1250 1900 5 8 0 1 0 8 1
pintype=out
}
P 1600 2300 1300 2300 1 0 0
{
T 1400 2350 5 8 1 1 0 0 1
pinnumber=13
T 1400 2250 5 8 0 1 0 2 1
pinseq=13
T 1250 2300 9 8 1 1 0 6 1
pinlabel=Q1
T 1250 2300 5 8 0 1 0 8 1
pintype=out
}
P 1600 2700 1300 2700 1 0 0
{
T 1400 2750 5 8 1 1 0 0 1
pinnumber=14
T 1400 2650 5 8 0 1 0 2 1
pinseq=14
T 1250 2700 9 8 1 1 0 6 1
pinlabel=Q0
T 1250 2700 5 8 0 1 0 8 1
pintype=out
}
B 300 300 1000 4000 3 0 0 0 -1 -1 0 -1 -1 -1 -1 -1
T 2000 750 5 10 0 0 0 0 1
description=4-bit synchronous programmable binary counter
T 2000 1750 5 10 0 0 0 0 1
numslots=0
T 2000 550 5 10 0 0 0 0 1
documentation=http://www.semiconductors.philips.com/acrobat/datasheets/HEF40163B_CNV_3.pdf
T 300 50 9 10 1 0 0 0 1
40163
