v 20031231 1
T 1700 3100 8 10 1 1 0 6 1
refdes=U?
T 300 3250 5 10 0 0 0 0 1
device=4511
T 300 3450 5 10 0 0 0 0 1
footprint=DIP16
T 300 3650 5 10 0 0 0 0 1
net=VSS:8
T 300 3850 5 10 0 0 0 0 1
net=VDD:16
P 0 300 200 300 1 0 0
{
T 200 350 5 8 1 1 0 6 1
pinnumber=3
T 200 250 5 8 0 1 0 8 1
pinseq=1
T 350 300 9 8 1 1 0 0 1
pinlabel=LT
T 350 300 5 8 0 1 0 2 1
pintype=in
}
L 350 424 530 424 3 0 0 0 -1 -1
V 250 300 50 6 0 0 0 -1 -1 0 -1 -1 -1 -1 -1
P 0 700 200 700 1 0 0
{
T 200 750 5 8 1 1 0 6 1
pinnumber=4
T 200 650 5 8 0 1 0 8 1
pinseq=2
T 350 700 9 8 1 1 0 0 1
pinlabel=BL
T 350 700 5 8 0 1 0 2 1
pintype=in
}
L 350 824 554 824 3 0 0 0 -1 -1
V 250 700 50 6 0 0 0 -1 -1 0 -1 -1 -1 -1 -1
P 0 1100 300 1100 1 0 0
{
T 200 1150 5 8 1 1 0 6 1
pinnumber=5
T 200 1050 5 8 0 1 0 8 1
pinseq=3
T 350 1100 9 8 1 1 0 0 1
pinlabel=LE
T 350 1100 5 8 0 1 0 2 1
pintype=in
}
P 0 1500 300 1500 1 0 0
{
T 200 1550 5 8 1 1 0 6 1
pinnumber=6
T 200 1450 5 8 0 1 0 8 1
pinseq=4
T 350 1500 9 8 1 1 0 0 1
pinlabel=A3
T 350 1500 5 8 0 1 0 2 1
pintype=in
}
P 0 1900 300 1900 1 0 0
{
T 200 1950 5 8 1 1 0 6 1
pinnumber=2
T 200 1850 5 8 0 1 0 8 1
pinseq=5
T 350 1900 9 8 1 1 0 0 1
pinlabel=A2
T 350 1900 5 8 0 1 0 2 1
pintype=in
}
P 0 2300 300 2300 1 0 0
{
T 200 2350 5 8 1 1 0 6 1
pinnumber=1
T 200 2250 5 8 0 1 0 8 1
pinseq=6
T 350 2300 9 8 1 1 0 0 1
pinlabel=A1
T 350 2300 5 8 0 1 0 2 1
pintype=in
}
P 0 2700 300 2700 1 0 0
{
T 200 2750 5 8 1 1 0 6 1
pinnumber=7
T 200 2650 5 8 0 1 0 8 1
pinseq=7
T 350 2700 9 8 1 1 0 0 1
pinlabel=A0
T 350 2700 5 8 0 1 0 2 1
pintype=in
}
P 2000 300 1700 300 1 0 0
{
T 1800 350 5 8 1 1 0 0 1
pinnumber=14
T 1800 250 5 8 0 1 0 2 1
pinseq=8
T 1650 300 9 8 1 1 0 6 1
pinlabel=g
T 1650 300 5 8 0 1 0 8 1
pintype=out
}
P 2000 700 1700 700 1 0 0
{
T 1800 750 5 8 1 1 0 0 1
pinnumber=15
T 1800 650 5 8 0 1 0 2 1
pinseq=9
T 1650 700 9 8 1 1 0 6 1
pinlabel=f
T 1650 700 5 8 0 1 0 8 1
pintype=out
}
P 2000 1100 1700 1100 1 0 0
{
T 1800 1150 5 8 1 1 0 0 1
pinnumber=9
T 1800 1050 5 8 0 1 0 2 1
pinseq=10
T 1650 1100 9 8 1 1 0 6 1
pinlabel=e
T 1650 1100 5 8 0 1 0 8 1
pintype=out
}
P 2000 1500 1700 1500 1 0 0
{
T 1800 1550 5 8 1 1 0 0 1
pinnumber=10
T 1800 1450 5 8 0 1 0 2 1
pinseq=11
T 1650 1500 9 8 1 1 0 6 1
pinlabel=d
T 1650 1500 5 8 0 1 0 8 1
pintype=out
}
P 2000 1900 1700 1900 1 0 0
{
T 1800 1950 5 8 1 1 0 0 1
pinnumber=11
T 1800 1850 5 8 0 1 0 2 1
pinseq=12
T 1650 1900 9 8 1 1 0 6 1
pinlabel=c
T 1650 1900 5 8 0 1 0 8 1
pintype=out
}
P 2000 2300 1700 2300 1 0 0
{
T 1800 2350 5 8 1 1 0 0 1
pinnumber=12
T 1800 2250 5 8 0 1 0 2 1
pinseq=13
T 1650 2300 9 8 1 1 0 6 1
pinlabel=b
T 1650 2300 5 8 0 1 0 8 1
pintype=out
}
P 2000 2700 1700 2700 1 0 0
{
T 1800 2750 5 8 1 1 0 0 1
pinnumber=13
T 1800 2650 5 8 0 1 0 2 1
pinseq=14
T 1650 2700 9 8 1 1 0 6 1
pinlabel=a
T 1650 2700 5 8 0 1 0 8 1
pintype=out
}
B 300 0 1400 3000 3 0 0 0 -1 -1 0 -1 -1 -1 -1 -1
T 300 4250 5 10 0 0 0 0 1
description=BCD to 7-segment decoder
T 300 4050 5 10 0 0 0 0 1
numslots=0
T 300 4450 5 10 0 0 0 0 1
documentation=http://www.semiconductors.philips.com/acrobat/datasheets/HEF4511B_CNV_3.pdf
T 300 3050 9 10 1 0 0 0 1
4511
