v 20031231 1
T 1700 4000 8 10 1 1 0 6 1
refdes=U?
T 300 4150 5 10 0 0 0 0 1
device=4582
T 300 4350 5 10 0 0 0 0 1
footprint=DIP16
T 300 4550 5 10 0 0 0 0 1
net=VSS:8
T 300 4750 5 10 0 0 0 0 1
net=VDD:16
P 0 2400 200 2400 1 0 0
{
T 200 2450 5 8 1 1 0 6 1
pinnumber=6
T 200 2350 5 8 0 1 0 8 1
pinseq=1
T 350 2400 9 8 1 1 0 0 1
pinlabel=P3
T 350 2400 5 8 0 1 0 2 1
pintype=in
}
L 350 2524 538 2524 3 0 0 0 -1 -1
V 250 2400 50 6 0 0 0 -1 -1 0 -1 -1 -1 -1 -1
P 0 2800 200 2800 1 0 0
{
T 200 2850 5 8 1 1 0 6 1
pinnumber=15
T 200 2750 5 8 0 1 0 8 1
pinseq=2
T 350 2800 9 8 1 1 0 0 1
pinlabel=P2
T 350 2800 5 8 0 1 0 2 1
pintype=in
}
L 350 2924 554 2924 3 0 0 0 -1 -1
V 250 2800 50 6 0 0 0 -1 -1 0 -1 -1 -1 -1 -1
P 0 3200 200 3200 1 0 0
{
T 200 3250 5 8 1 1 0 6 1
pinnumber=2
T 200 3150 5 8 0 1 0 8 1
pinseq=3
T 350 3200 9 8 1 1 0 0 1
pinlabel=P1
T 350 3200 5 8 0 1 0 2 1
pintype=in
}
L 350 3324 514 3324 3 0 0 0 -1 -1
V 250 3200 50 6 0 0 0 -1 -1 0 -1 -1 -1 -1 -1
P 0 3600 200 3600 1 0 0
{
T 200 3650 5 8 1 1 0 6 1
pinnumber=4
T 200 3550 5 8 0 1 0 8 1
pinseq=4
T 350 3600 9 8 1 1 0 0 1
pinlabel=P0
T 350 3600 5 8 0 1 0 2 1
pintype=in
}
L 350 3724 554 3724 3 0 0 0 -1 -1
V 250 3600 50 6 0 0 0 -1 -1 0 -1 -1 -1 -1 -1
P 0 800 200 800 1 0 0
{
T 200 850 5 8 1 1 0 6 1
pinnumber=5
T 200 750 5 8 0 1 0 8 1
pinseq=5
T 350 800 9 8 1 1 0 0 1
pinlabel=G3
T 350 800 5 8 0 1 0 2 1
pintype=in
}
L 350 924 558 924 3 0 0 0 -1 -1
V 250 800 50 6 0 0 0 -1 -1 0 -1 -1 -1 -1 -1
P 0 1200 200 1200 1 0 0
{
T 200 1250 5 8 1 1 0 6 1
pinnumber=14
T 200 1150 5 8 0 1 0 8 1
pinseq=6
T 350 1200 9 8 1 1 0 0 1
pinlabel=G2
T 350 1200 5 8 0 1 0 2 1
pintype=in
}
L 350 1324 574 1324 3 0 0 0 -1 -1
V 250 1200 50 6 0 0 0 -1 -1 0 -1 -1 -1 -1 -1
P 0 1600 200 1600 1 0 0
{
T 200 1650 5 8 1 1 0 6 1
pinnumber=1
T 200 1550 5 8 0 1 0 8 1
pinseq=7
T 350 1600 9 8 1 1 0 0 1
pinlabel=G1
T 350 1600 5 8 0 1 0 2 1
pintype=in
}
L 350 1724 534 1724 3 0 0 0 -1 -1
V 250 1600 50 6 0 0 0 -1 -1 0 -1 -1 -1 -1 -1
P 0 2000 200 2000 1 0 0
{
T 200 2050 5 8 1 1 0 6 1
pinnumber=3
T 200 1950 5 8 0 1 0 8 1
pinseq=8
T 350 2000 9 8 1 1 0 0 1
pinlabel=G0
T 350 2000 5 8 0 1 0 2 1
pintype=in
}
L 350 2124 574 2124 3 0 0 0 -1 -1
V 250 2000 50 6 0 0 0 -1 -1 0 -1 -1 -1 -1 -1
P 0 400 300 400 1 0 0
{
T 200 450 5 8 1 1 0 6 1
pinnumber=13
T 200 350 5 8 0 1 0 8 1
pinseq=9
T 350 400 9 8 1 1 0 0 1
pinlabel=Cn
T 350 400 5 8 0 1 0 2 1
pintype=in
}
P 2000 2400 1800 2400 1 0 0
{
T 1800 2450 5 8 1 1 0 0 1
pinnumber=7
T 1800 2350 5 8 0 1 0 2 1
pinseq=10
T 1650 2400 9 8 1 1 0 6 1
pinlabel=P
T 1650 2400 5 8 0 1 0 8 1
pintype=out
}
L 1590 2524 1660 2524 3 0 0 0 -1 -1
V 1750 2400 50 6 0 0 0 -1 -1 0 -1 -1 -1 -1 -1
P 2000 2000 1800 2000 1 0 0
{
T 1800 2050 5 8 1 1 0 0 1
pinnumber=10
T 1800 1950 5 8 0 1 0 2 1
pinseq=11
T 1650 2000 9 8 1 1 0 6 1
pinlabel=G
T 1650 2000 5 8 0 1 0 8 1
pintype=out
}
L 1569 2124 1661 2124 3 0 0 0 -1 -1
V 1750 2000 50 6 0 0 0 -1 -1 0 -1 -1 -1 -1 -1
P 2000 1200 1700 1200 1 0 0
{
T 1800 1250 5 8 1 1 0 0 1
pinnumber=9
T 1800 1150 5 8 0 1 0 2 1
pinseq=12
T 1650 1200 9 8 1 1 0 6 1
pinlabel=Cn+Z
T 1650 1200 5 8 0 1 0 8 1
pintype=out
}
P 2000 800 1700 800 1 0 0
{
T 1800 850 5 8 1 1 0 0 1
pinnumber=11
T 1800 750 5 8 0 1 0 2 1
pinseq=13
T 1650 800 9 8 1 1 0 6 1
pinlabel=Cn+Y
T 1650 800 5 8 0 1 0 8 1
pintype=out
}
P 2000 400 1700 400 1 0 0
{
T 1800 450 5 8 1 1 0 0 1
pinnumber=12
T 1800 350 5 8 0 1 0 2 1
pinseq=14
T 1650 400 9 8 1 1 0 6 1
pinlabel=Cn+X
T 1650 400 5 8 0 1 0 8 1
pintype=out
}
B 300 0 1400 3900 3 0 0 0 -1 -1 0 -1 -1 -1 -1 -1
T 300 5150 5 10 0 0 0 0 1
description=look ahead carry generator
T 300 4950 5 10 0 0 0 0 1
numslots=0
T 300 3950 9 10 1 0 0 0 1
4582
