v 20031231 1
L 1800 2500 1800 0 3 0 0 0 -1 -1
A 1000 1600 100 270 180 3 0 0 0 -1 -1
A 1000 1400 100 270 180 3 0 0 0 -1 -1
A 1000 1200 100 270 180 3 0 0 0 -1 -1
A 1000 1000 100 270 180 3 0 0 0 -1 -1
A 1000 1800 100 270 180 3 0 0 0 -1 -1
A 1000 800 100 270 180 3 0 0 0 -1 -1
T 300 400 9 10 1 1 0 0 1
SPEAKER
P 1000 1900 0 1900 1 0 1
{
T 50 1950 5 10 0 1 0 0 1
pinnumber=1
T 50 1950 5 10 0 0 0 0 1
pinseq=1
T 50 1950 5 10 0 1 0 0 1 
pinlabel=1
T 50 1950 5 10 0 1 0 0 1 
pintype=pas
}
P 1000 700 0 700 1 0 1
{
T 0 750 5 10 0 1 0 0 1
pinnumber=2
T 0 750 5 10 0 0 0 0 1
pinseq=2
T 0 750 5 10 0 1 0 0 1 
pinlabel=2
T 0 750 5 10 0 1 0 0 1 
pintype=pas
}
B 1200 700 200 1200 3 0 0 0 -1 -1 0 -1 -1 -1 -1 -1
T 2000 2500 5 10 0 0 0 0 1
device=SPEAKER
L 1400 1900 1800 2500 3 0 0 0 -1 -1
L 1400 700 1800 0 3 0 0 0 -1 -1
T 600 2000 8 10 1 1 0 0 1
refdes=SPK?
