v 20041228 1
T 3000 8900 2 10 1 1 0 6 1
refdes=U?
T 400 8850 9 10 1 1 0 0 1
DS89C450
T 400 9650 8 10 0 0 0 0 1
footprint=PLCC44
T 400 9850 8 10 0 0 0 0 1
net=GND:1,22,23,34
T 400 10050 8 10 0 0 0 0 1
net=Vcc:12,44
P 3300 1600 3000 1600 1 0 0
{
T 3100 1650 5 8 1 1 0 0 1
pinnumber=33
T 3100 1650 5 8 0 0 0 0 1
pinseq=1
T 2950 1600 3 8 1 1 0 6 1
pinlabel=ALE/PROG
T 2950 1600 5 8 0 1 0 8 1
pintype=out
}
L 2498 1724 2950 1724 3 0 0 0 -1 -1
P 3300 1200 3100 1200 1 0 0
{
T 3100 1250 5 8 1 1 0 0 1
pinnumber=35
T 3100 1250 5 8 0 0 0 0 1
pinseq=2
T 2950 1200 3 8 1 1 0 6 1
pinlabel=EA
T 2950 1200 5 8 0 1 0 8 1
pintype=in
}
L 2738 1324 2970 1324 3 0 0 0 -1 -1
V 3050 1200 50 6 0 0 0 -1 -1 0 -1 -1 -1 -1 -1
P 3300 8400 3000 8400 1 0 0
{
T 3100 8450 5 8 1 1 0 0 1
pinnumber=43
T 3100 8450 5 8 0 0 0 0 1
pinseq=3
T 2950 8400 3 8 1 1 0 6 1
pinlabel=(AD0) P0.0
T 2950 8400 5 8 0 1 0 8 1
pintype=io
}
P 3300 8000 3000 8000 1 0 0
{
T 3100 8050 5 8 1 1 0 0 1
pinnumber=42
T 3100 8050 5 8 0 0 0 0 1
pinseq=4
T 2950 8000 3 8 1 1 0 6 1
pinlabel=(AD1) P0.1
T 2950 8000 5 8 0 1 0 8 1
pintype=io
}
P 3300 7600 3000 7600 1 0 0
{
T 3100 7650 5 8 1 1 0 0 1
pinnumber=41
T 3100 7650 5 8 0 0 0 0 1
pinseq=5
T 2950 7600 3 8 1 1 0 6 1
pinlabel=(AD2) P0.2
T 2950 7600 5 8 0 1 0 8 1
pintype=io
}
P 3300 7200 3000 7200 1 0 0
{
T 3100 7250 5 8 1 1 0 0 1
pinnumber=40
T 3100 7250 5 8 0 0 0 0 1
pinseq=6
T 2950 7200 3 8 1 1 0 6 1
pinlabel=(AD3) P0.3
T 2950 7200 5 8 0 1 0 8 1
pintype=io
}
P 3300 6800 3000 6800 1 0 0
{
T 3100 6850 5 8 1 1 0 0 1
pinnumber=39
T 3100 6850 5 8 0 0 0 0 1
pinseq=7
T 2950 6800 3 8 1 1 0 6 1
pinlabel=(AD4) P0.4
T 2950 6800 5 8 0 1 0 8 1
pintype=io
}
P 3300 6400 3000 6400 1 0 0
{
T 3100 6450 5 8 1 1 0 0 1
pinnumber=38
T 3100 6450 5 8 0 0 0 0 1
pinseq=8
T 2950 6400 3 8 1 1 0 6 1
pinlabel=(AD5) P0.5
T 2950 6400 5 8 0 1 0 8 1
pintype=io
}
P 3300 6000 3000 6000 1 0 0
{
T 3100 6050 5 8 1 1 0 0 1
pinnumber=37
T 3100 6050 5 8 0 0 0 0 1
pinseq=9
T 2950 6000 3 8 1 1 0 6 1
pinlabel=(AD6) P0.6
T 2950 6000 5 8 0 1 0 8 1
pintype=io
}
P 3300 5600 3000 5600 1 0 0
{
T 3100 5650 5 8 1 1 0 0 1
pinnumber=36
T 3100 5650 5 8 0 0 0 0 1
pinseq=10
T 2950 5600 3 8 1 1 0 6 1
pinlabel=(AD7) P0.7
T 2950 5600 5 8 0 1 0 8 1
pintype=io
}
P 3300 5000 3000 5000 1 0 0
{
T 3100 5050 5 8 1 1 0 0 1
pinnumber=24
T 3100 5050 5 8 0 0 0 0 1
pinseq=11
T 2950 5000 3 8 1 1 0 6 1
pinlabel=(A8) P2.0
T 2950 5000 5 8 0 1 0 8 1
pintype=io
}
P 3300 4600 3000 4600 1 0 0
{
T 3100 4650 5 8 1 1 0 0 1
pinnumber=25
T 3100 4650 5 8 0 0 0 0 1
pinseq=12
T 2950 4600 3 8 1 1 0 6 1
pinlabel=(A9) P2.1
T 2950 4600 5 8 0 1 0 8 1
pintype=io
}
P 3300 4200 3000 4200 1 0 0
{
T 3100 4250 5 8 1 1 0 0 1
pinnumber=26
T 3100 4250 5 8 0 0 0 0 1
pinseq=13
T 2950 4200 3 8 1 1 0 6 1
pinlabel=(A10) P2.2
T 2950 4200 5 8 0 1 0 8 1
pintype=io
}
P 3300 3800 3000 3800 1 0 0
{
T 3100 3850 5 8 1 1 0 0 1
pinnumber=27
T 3100 3850 5 8 0 0 0 0 1
pinseq=14
T 2950 3800 3 8 1 1 0 6 1
pinlabel=(A11) P2.3
T 2950 3800 5 8 0 1 0 8 1
pintype=io
}
P 3300 3400 3000 3400 1 0 0
{
T 3100 3450 5 8 1 1 0 0 1
pinnumber=28
T 3100 3450 5 8 0 0 0 0 1
pinseq=15
T 2950 3400 3 8 1 1 0 6 1
pinlabel=(A12) P2.4
T 2950 3400 5 8 0 1 0 8 1
pintype=io
}
P 3300 3000 3000 3000 1 0 0
{
T 3100 3050 5 8 1 1 0 0 1
pinnumber=29
T 3100 3050 5 8 0 0 0 0 1
pinseq=16
T 2950 3000 3 8 1 1 0 6 1
pinlabel=(A13) P2.5
T 2950 3000 5 8 0 1 0 8 1
pintype=io
}
P 3300 2600 3000 2600 1 0 0
{
T 3100 2650 5 8 1 1 0 0 1
pinnumber=30
T 3100 2650 5 8 0 0 0 0 1
pinseq=17
T 2950 2600 3 8 1 1 0 6 1
pinlabel=(A14) P2.6
T 2950 2600 5 8 0 1 0 8 1
pintype=io
}
P 3300 2200 3000 2200 1 0 0
{
T 3100 2250 5 8 1 1 0 0 1
pinnumber=31
T 3100 2250 5 8 0 0 0 0 1
pinseq=18
T 2950 2200 3 8 1 1 0 6 1
pinlabel=(A15) P2.7
T 2950 2200 5 8 0 1 0 8 1
pintype=io
}
P 3300 800 3100 800 1 0 0
{
T 3100 850 5 8 1 1 0 0 1
pinnumber=32
T 3100 850 5 8 0 0 0 0 1
pinseq=19
T 2950 800 3 8 1 1 0 6 1
pinlabel=PSEN
T 2950 800 5 8 0 1 0 8 1
pintype=out
}
L 2522 924 2950 924 3 0 0 0 -1 -1
V 3050 800 47 6 0 0 0 -1 -1 0 -1 -1 -1 -1 -1
P 100 8400 400 8400 1 0 0
{
T 300 8450 5 8 1 1 0 6 1
pinnumber=2
T 300 8450 5 8 0 0 0 6 1
pinseq=24
T 450 8400 3 8 1 1 0 0 1
pinlabel=P1.0(T2)
T 450 8400 5 8 0 1 0 2 1
pintype=io
}
P 100 8000 400 8000 1 0 0
{
T 300 8050 5 8 1 1 0 6 1
pinnumber=3
T 300 8050 5 8 0 0 0 6 1
pinseq=25
T 450 8000 3 8 1 1 0 0 1
pinlabel=P1.1(T2EX)
T 450 8000 5 8 0 1 0 2 1
pintype=io
}
P 100 7600 400 7600 1 0 0
{
T 300 7650 5 8 1 1 0 6 1
pinnumber=4
T 300 7650 5 8 0 0 0 6 1
pinseq=26
T 450 7600 3 8 1 1 0 0 1
pinlabel=P1.2(RXD1)
T 450 7600 5 8 0 1 0 2 1
pintype=io
}
P 100 7200 400 7200 1 0 0
{
T 300 7250 5 8 1 1 0 6 1
pinnumber=5
T 300 7250 5 8 0 0 0 6 1
pinseq=27
T 450 7200 3 8 1 1 0 0 1
pinlabel=P1.3(TXD1)
T 450 7200 5 8 0 1 0 2 1
pintype=io
}
P 100 6800 400 6800 1 0 0
{
T 300 6850 5 8 1 1 0 6 1
pinnumber=6
T 300 6850 5 8 0 0 0 6 1
pinseq=28
T 450 6800 3 8 1 1 0 0 1
pinlabel=P1.4(INT2)
T 450 6800 5 8 0 1 0 2 1
pintype=io
}
P 100 6400 400 6400 1 0 0
{
T 300 6450 5 8 1 1 0 6 1
pinnumber=7
T 300 6450 5 8 0 0 0 6 1
pinseq=29
T 450 6400 3 8 1 1 0 0 1
pinlabel=P1.5(INT3)
T 450 6400 5 8 0 1 0 2 1
pintype=io
}
P 100 6000 400 6000 1 0 0
{
T 300 6050 5 8 1 1 0 6 1
pinnumber=8
T 300 6050 5 8 0 0 0 6 1
pinseq=30
T 450 6000 3 8 1 1 0 0 1
pinlabel=P1.6(INT4)
T 450 6000 5 8 0 1 0 2 1
pintype=io
}
P 100 5600 400 5600 1 0 0
{
T 300 5650 5 8 1 1 0 6 1
pinnumber=9
T 300 5650 5 8 0 0 0 6 1
pinseq=31
T 450 5600 3 8 1 1 0 0 1
pinlabel=P1.7(INT5)
T 450 5600 5 8 0 1 0 2 1
pintype=io
}
P 100 5000 400 5000 1 0 0
{
T 300 5050 5 8 1 1 0 6 1
pinnumber=11
T 300 5050 5 8 0 0 0 6 1
pinseq=32
T 450 5000 3 8 1 1 0 0 1
pinlabel=P3.0 (RXD0)
T 450 5000 5 8 0 1 0 2 1
pintype=io
}
P 100 4600 400 4600 1 0 0
{
T 300 4650 5 8 1 1 0 6 1
pinnumber=13
T 300 4650 5 8 0 0 0 6 1
pinseq=33
T 450 4600 3 8 1 1 0 0 1
pinlabel=P3.1 (TXD0)
T 450 4600 5 8 0 1 0 2 1
pintype=io
}
P 100 4200 400 4200 1 0 0
{
T 300 4250 5 8 1 1 0 6 1
pinnumber=14
T 300 4250 5 8 0 0 0 6 1
pinseq=34
T 450 4200 3 8 1 1 0 0 1
pinlabel=P3.2 (INT0)
T 450 4200 5 8 0 1 0 2 1
pintype=io
}
L 882 4324 1226 4324 3 0 0 0 -1 -1
P 100 3800 400 3800 1 0 0
{
T 300 3850 5 8 1 1 0 6 1
pinnumber=15
T 300 3850 5 8 0 0 0 6 1
pinseq=35
T 450 3800 3 8 1 1 0 0 1
pinlabel=P3.3 (INT1)
T 450 3800 5 8 0 1 0 2 1
pintype=io
}
L 866 3924 1170 3924 3 0 0 0 -1 -1
P 100 3400 400 3400 1 0 0
{
T 300 3450 5 8 1 1 0 6 1
pinnumber=16
T 300 3450 5 8 0 0 0 6 1
pinseq=36
T 450 3400 3 8 1 1 0 0 1
pinlabel=P3.4 (T0)
T 450 3400 5 8 0 1 0 2 1
pintype=io
}
P 100 3000 400 3000 1 0 0
{
T 300 3050 5 8 1 1 0 6 1
pinnumber=17
T 300 3050 5 8 0 0 0 6 1
pinseq=37
T 450 3000 3 8 1 1 0 0 1
pinlabel=P3.5 (T1)
T 450 3000 5 8 0 1 0 2 1
pintype=io
}
P 100 2600 400 2600 1 0 0
{
T 300 2650 5 8 1 1 0 6 1
pinnumber=18
T 300 2650 5 8 0 0 0 6 1
pinseq=38
T 450 2600 3 8 1 1 0 0 1
pinlabel=P3.6 (WR)
T 450 2600 5 8 0 1 0 2 1
pintype=io
}
L 874 2724 1126 2724 3 0 0 0 -1 -1
P 100 2200 400 2200 1 0 0
{
T 300 2250 5 8 1 1 0 6 1
pinnumber=19
T 300 2250 5 8 0 0 0 6 1
pinseq=23
T 450 2200 3 8 1 1 0 0 1
pinlabel=P3.7 (RD)
T 450 2200 5 8 0 1 0 2 1
pintype=io
}
L 858 2324 1066 2324 3 0 0 0 -1 -1
P 900 100 900 400 1 0 0
{
T 950 200 5 8 1 1 0 0 1
pinnumber=10
T 950 200 5 8 0 0 0 0 1
pinseq=22
T 900 450 3 8 1 1 0 3 1
pinlabel=RST
T 900 600 5 8 0 1 0 3 1
pintype=in
}
P 1600 100 1600 400 1 0 0
{
T 1650 200 5 8 1 1 0 0 1
pinnumber=21
T 1650 200 5 8 0 0 0 0 1
pinseq=21
T 1600 450 3 8 1 1 0 3 1
pinlabel=XTAL1
T 1600 600 5 8 0 1 0 3 1
pintype=in
}
P 2500 100 2500 400 1 0 0
{
T 2550 200 5 8 1 1 0 0 1
pinnumber=20
T 2550 200 5 8 0 0 0 0 1
pinseq=20
T 2500 450 3 8 1 1 0 3 1
pinlabel=XTAL2
T 2500 600 5 8 0 1 0 3 1
pintype=out
}
B 400 400 2600 8400 3 0 0 0 -1 -1 0 -1 -1 -1 -1 -1
L 782 6524 1126 6524 3 0 0 0 -1 -1
L 782 5724 1126 5724 3 0 0 0 -1 -1
T 400 9450 8 10 0 0 0 0 1
numslots=0
T 400 9250 8 10 0 0 0 0 1
description=Ultra-High-Speed Flash Microcontroller
T 400 10250 8 10 0 0 0 0 1
device=DS89C450
