v 20040111 1
P 300 1400 0 1400 1 0 1
{
T 200 1450 5 8 1 1 0 6 1
pinnumber=4
T 200 1350 5 8 0 1 0 8 1
pinseq=4
T 350 1400 9 8 1 1 0 0 1
pinlabel=DE
T 350 1400 5 8 0 1 0 2 1
pintype=in
}
P 300 1000 0 1000 1 0 1
{
T 200 1050 5 8 1 1 0 6 1
pinnumber=5
T 200 950 5 8 0 1 0 8 1
pinseq=5
T 350 1000 9 8 1 1 0 0 1
pinlabel=DI
T 350 1000 5 8 0 1 0 2 1
pintype=in
}
P 300 600 0 600 1 0 1
{
T 200 650 5 8 1 1 0 6 1
pinnumber=12
T 200 550 5 8 0 1 0 8 1
pinseq=12
T 350 600 9 8 1 1 0 0 1
pinlabel=A
T 350 600 5 8 0 1 0 2 1
pintype=in
}
P 300 200 0 200 1 0 1
{
T 200 250 5 8 1 1 0 6 1
pinnumber=11
T 200 150 5 8 0 1 0 8 1
pinseq=11
T 350 200 9 8 1 1 0 0 1
pinlabel=B
T 350 200 5 8 0 1 0 2 1
pintype=in
}
P 2600 1800 2300 1800 1 0 0
{
T 2400 1850 5 8 1 1 0 0 1
pinnumber=2
T 2400 1750 5 8 0 1 0 2 1
pinseq=2
T 2250 1800 9 8 1 1 0 6 1
pinlabel=RO
T 2250 1800 5 8 0 1 0 8 1
pintype=out
}
P 2600 1400 2300 1400 1 0 0
{
T 2400 1450 5 8 1 1 0 0 1
pinnumber=9
T 2400 1350 5 8 0 1 0 2 1
pinseq=9
T 2250 1400 9 8 1 1 0 6 1
pinlabel=Y
T 2250 1400 5 8 0 1 0 8 1
pintype=tri
}
P 2600 1000 2300 1000 1 0 0
{
T 2400 1050 5 8 1 1 0 0 1
pinnumber=10
T 2400 950 5 8 0 1 0 2 1
pinseq=10
T 2250 1000 9 8 1 1 0 6 1
pinlabel=Z
T 2250 1000 5 8 0 1 0 8 1
pintype=tri
}
B 300 0 2000 2000 3 0 0 0 -1 -1 0 -1 -1 -1 -1 -1
T 300 2250 5 10 0 0 0 0 1
device=MAX1482
V 250 1800 50 6 0 0 0 -1 -1 0 -1 -1 -1 -1 -1
P 200 1800 0 1800 1 0 1
{
T 200 1850 5 8 1 1 0 6 1
pinnumber=3
T 200 1750 5 8 0 1 0 8 1
pinseq=3
T 350 1800 9 8 1 1 0 0 1
pinlabel=RE
T 350 1800 5 8 0 1 0 2 1
pintype=in
}
T 2300 2100 8 10 1 1 0 6 1
refdes=U?
T 300 2650 5 10 0 0 0 0 1
footprint=DIP14
T 300 2850 5 10 0 0 0 0 1
description=1/8-unit-load, slew-rate-limited RS-485 transceiver
T 300 2450 5 10 0 0 0 0 1
numslots=0
T 300 3050 5 10 0 0 0 0 1
net=GND:6,7
T 300 3250 5 10 0 0 0 0 1
net=Vcc:14
T 300 3450 5 10 0 0 0 0 1
documentation=http://pdfserv.maxim-ic.com/en/ds/MAX1482-MAX1483.pdf
T 300 2050 9 10 1 0 0 0 1
MAX1482
L 350 1925 525 1925 3 0 0 0 -1 -1
