v 20041228 1
P 300 3400 0 3400 1 0 1
{
T 200 3450 5 8 1 1 0 6 1
pinnumber=1
T 200 3350 5 8 0 1 0 8 1
pinseq=1
T 350 3400 9 8 1 1 0 0 1
pinlabel=CSH
T 350 3400 5 8 0 1 0 2 1
pintype=in
}
P 300 3000 0 3000 1 0 1
{
T 200 3050 5 8 1 1 0 6 1
pinnumber=2
T 200 2950 5 8 0 1 0 8 1
pinseq=2
T 350 3000 9 8 1 1 0 0 1
pinlabel=CSL
T 350 3000 5 8 0 1 0 2 1
pintype=in
}
P 300 2600 0 2600 1 0 1
{
T 200 2650 5 8 1 1 0 6 1
pinnumber=3
T 200 2550 5 8 0 1 0 8 1
pinseq=3
T 350 2600 9 8 1 1 0 0 1
pinlabel=FB
T 350 2600 5 8 0 1 0 2 1
pintype=in
}
P 300 2200 0 2200 1 0 1
{
T 200 2250 5 8 1 1 0 6 1
pinnumber=4
T 200 2150 5 8 0 1 0 8 1
pinseq=4
T 350 2200 9 8 1 1 0 0 1
pinlabel=CC
T 350 2200 5 8 0 1 0 2 1
pintype=pas
}
P 300 1400 0 1400 1 0 1
{
T 200 1450 5 8 1 1 0 6 1
pinnumber=7
T 200 1350 5 8 0 1 0 8 1
pinseq=7
T 350 1400 9 8 1 1 0 0 1
pinlabel=SYNC
T 350 1400 5 8 0 1 0 2 1
pintype=in
}
P 300 1000 0 1000 1 0 1
{
T 200 1050 5 8 1 1 0 6 1
pinnumber=13
T 200 950 5 8 0 1 0 8 1
pinseq=13
T 350 1000 9 8 1 1 0 0 1
pinlabel=BST
T 350 1000 5 8 0 1 0 2 1
pintype=pas
}
P 300 600 0 600 1 0 1
{
T 200 650 5 8 1 1 0 6 1
pinnumber=15
T 200 550 5 8 0 1 0 8 1
pinseq=15
T 350 600 9 8 1 1 0 0 1
pinlabel=LX
T 350 600 5 8 0 1 0 2 1
pintype=pas
}
P 2600 2200 2300 2200 1 0 0
{
T 2400 2250 5 8 1 1 0 0 1
pinnumber=5
T 2400 2150 5 8 0 1 0 2 1
pinseq=5
T 2250 2200 9 8 1 1 0 6 1
pinlabel=REF
T 2250 2200 5 8 0 1 0 8 1
pintype=out
}
P 2600 1400 2300 1400 1 0 0
{
T 2400 1450 5 8 1 1 0 0 1
pinnumber=14
T 2400 1350 5 8 0 1 0 2 1
pinseq=14
T 2250 1400 9 8 1 1 0 6 1
pinlabel=DH
T 2250 1400 5 8 0 1 0 8 1
pintype=out
}
P 200 200 0 200 1 0 1
{
T 200 250 5 8 1 1 0 6 1
pinnumber=16
T 200 150 5 8 0 1 0 8 1
pinseq=16
T 350 200 9 8 1 1 0 0 1
pinlabel=SKIP
T 350 200 5 8 0 1 0 2 1
pintype=in
}
B 300 0 2000 3650 3 0 0 0 -1 -1 0 -1 -1 -1 -1 -1
T 300 3900 5 10 0 0 0 0 1
device=MAX1637
P 2600 1800 2300 1800 1 0 0
{
T 2400 1850 5 8 1 1 0 0 1
pinnumber=11
T 2400 1750 5 8 0 1 0 2 1
pinseq=11
T 2250 1800 9 8 1 1 0 6 1
pinlabel=DL
T 2250 1800 5 8 0 1 0 8 1
pintype=out
}
P 0 1800 200 1800 1 0 0
{
T 200 1850 5 8 1 1 0 6 1
pinnumber=6
T 200 1750 5 8 0 1 0 8 1
pinseq=6
T 350 1800 9 8 1 1 0 0 1
pinlabel=SHDN
T 350 1800 5 8 0 1 0 2 1
pintype=in
}
V 250 1800 50 6 0 0 0 -1 -1 0 -1 -1 -1 -1 -1
T 2300 3700 8 10 1 1 0 6 1
refdes=U?
T 300 4300 5 10 0 0 0 0 1
footprint=QSOP16
T 300 5300 5 10 0 0 0 0 1
description=low voltage step-down controller
T 300 4100 5 10 0 0 0 0 1
numslots=0
T 300 4500 5 10 0 0 0 0 1
net=Vcc:9
T 300 4700 5 10 0 0 0 0 1
net=GND:8
T 300 5100 5 10 0 0 0 0 1
net=Vgg:10
T 300 4900 5 10 0 0 0 0 1
net=PGND:12
T 300 5500 5 10 0 0 0 0 1
documentation=http://pdfserv.maxim-ic.com/en/ds/MAX1637.pdf
T 300 3700 9 10 1 0 0 0 1
MAX1637
V 250 200 50 6 0 0 0 -1 -1 0 -1 -1 -1 -1 -1
L 350 325 650 325 3 0 0 0 -1 -1
L 350 1925 750 1925 3 0 0 0 -1 -1
