v 20041228 1
P 0 2300 300 2300 1 0 0
{
T 200 2350 5 8 1 1 0 6 1
pinnumber=2
T 200 2250 5 8 0 1 0 8 1
pinseq=1
T 350 2300 5 8 0 1 0 2 1
pintype=pas
T 350 2300 9 8 1 1 0 0 1
pinlabel=C1+
}
P 0 2000 300 2000 1 0 0
{
T 200 2050 5 8 1 1 0 6 1
pinnumber=4
T 200 1950 5 8 0 1 0 8 1
pinseq=2
T 350 2000 5 8 0 1 0 2 1
pintype=pas
T 350 2000 9 8 1 1 0 0 1
pinlabel=C1-
}
P 0 1700 300 1700 1 0 0
{
T 200 1750 5 8 1 1 0 6 1
pinnumber=5
T 200 1650 5 8 0 1 0 8 1
pinseq=3
T 350 1700 5 8 0 1 0 2 1
pintype=pas
T 350 1700 9 8 1 1 0 0 1
pinlabel=C2+
}
P 0 1400 300 1400 1 0 0
{
T 200 1450 5 8 1 1 0 6 1
pinnumber=6
T 200 1350 5 8 0 1 0 8 1
pinseq=4
T 350 1400 5 8 0 1 0 2 1
pintype=pas
T 350 1400 9 8 1 1 0 0 1
pinlabel=C2-
}
P 0 1100 300 1100 1 0 0
{
T 200 1150 5 8 1 1 0 6 1
pinnumber=11
T 200 1050 5 8 0 1 0 8 1
pinseq=5
T 350 1100 5 8 0 1 0 2 1
pintype=in
T 350 1100 9 8 1 1 0 0 1
pinlabel=T1in
}
P 0 500 300 500 1 0 0
{
T 200 550 5 8 1 1 0 6 1
pinnumber=1
T 200 450 5 8 0 1 0 8 1
pinseq=7
T 350 500 5 8 0 1 0 2 1
pintype=out
T 350 500 9 8 1 1 0 0 1
pinlabel=Ready
}
P 0 200 300 200 1 0 0
{
T 200 250 5 8 1 1 0 6 1
pinnumber=12
T 200 150 5 8 0 1 0 8 1
pinseq=8
T 350 200 5 8 0 1 0 2 1
pintype=in
T 350 200 9 8 1 1 0 0 1
pinlabel=FrcOn
}
P 1700 2300 2000 2300 1 0 1
{
T 1800 2350 5 8 1 1 0 0 1
pinnumber=3
T 1800 2250 5 8 0 1 0 2 1
pinseq=14
T 1650 2300 5 8 0 1 0 8 1
pintype=pas
T 1650 2300 9 8 1 1 0 6 1
pinlabel=V+
}
P 1700 1700 2000 1700 1 0 1
{
T 1800 1750 5 8 1 1 0 0 1
pinnumber=7
T 1800 1650 5 8 0 1 0 2 1
pinseq=13
T 1650 1700 5 8 0 1 0 8 1
pintype=pas
T 1650 1700 9 8 1 1 0 6 1
pinlabel=V-
}
P 1700 1100 2000 1100 1 0 1
{
T 1800 1150 5 8 1 1 0 0 1
pinnumber=13
T 1800 1050 5 8 0 1 0 2 1
pinseq=12
T 1650 1100 5 8 0 1 0 8 1
pintype=out
T 1650 1100 9 8 1 1 0 6 1
pinlabel=T1out
}
P 1700 800 2000 800 1 0 1
{
T 1800 850 5 8 1 1 0 0 1
pinnumber=8
T 1800 750 5 8 0 1 0 2 1
pinseq=11
T 1650 800 5 8 0 1 0 8 1
pintype=in
T 1650 800 9 8 1 1 0 6 1
pinlabel=R1in
}
P 1800 500 2000 500 1 0 1
{
T 1800 550 5 8 1 1 0 0 1
pinnumber=10
T 1800 450 5 8 0 1 0 2 1
pinseq=10
T 1650 500 5 8 0 1 0 8 1
pintype=out
T 1650 500 9 8 1 1 0 6 1
pinlabel=Invalid
}
P 1800 200 2000 200 1 0 1
{
T 1800 250 5 8 1 1 0 0 1
pinnumber=16
T 1800 150 5 8 0 1 0 2 1
pinseq=9
T 1650 200 5 8 0 1 0 8 1
pintype=pas
T 1650 200 9 8 1 1 0 6 1
pinlabel=FrcOff
}
B 300 0 1400 2500 3 0 0 0 -1 -1 0 -1 -1 -1 -1 -1
P 0 800 300 800 1 0 0
{
T 200 850 5 8 1 1 0 6 1
pinnumber=9
T 200 750 5 8 0 1 0 8 1
pinseq=6
T 350 800 5 8 0 1 0 2 1
pintype=out
T 350 800 9 8 1 1 0 0 1
pinlabel=R1out
}
V 1750 500 50 6 0 0 0 -1 -1 0 -1 -1 -1 -1 -1
V 1750 200 50 6 0 0 0 -1 -1 0 -1 -1 -1 -1 -1
T 1700 2600 8 10 1 1 0 6 1
refdes=U?
T 300 3150 5 10 0 0 0 0 1
device=max3226
T 300 2950 5 10 0 0 0 0 1
footprint=DIP16
T 0 -300 5 10 0 0 0 0 1
net=+5V:15
T 1200 -300 5 10 0 0 0 0 1
net=GND:14
T 300 3550 5 10 0 0 0 0 1
description=1uA supply current, 1Mbps, 3V to 5.5V, RS-232 transceiver with autoshutdown
T 300 2750 5 10 0 0 0 0 1
numslots=0
T 300 3350 5 10 0 0 0 0 1
documentation=http://pdfserv.maxim-ic.com/en/ds/MAX3224-MAX3245.pdf
T 300 2550 9 8 1 0 0 0 1
MAX3226
L 1650 325 1200 325 3 0 0 0 -1 -1
L 1650 625 1200 625 3 0 0 0 -1 -1
