PROTEL NETLIST 2.0
[
DESIGNATOR
V1
FOOTPRINT
none
PARTTYPE
DC 1V
DESCRIPTION
VOLTAGE_SOURCE
Part Field 1
*
Part Field 2
*
Part Field 3
*
Part Field 4
*
Part Field 5
*
Part Field 6
*
Part Field 7
*
Part Field 8
*
Part Field 9
*
Part Field 10
*
Part Field 11
*
Part Field 12
*
Part Field 13
*
Part Field 14
*
Part Field 15
*
Part Field 16
*
LIBRARYFIELD1

LIBRARYFIELD2

LIBRARYFIELD3

LIBRARYFIELD4

LIBRARYFIELD5

LIBRARYFIELD6

LIBRARYFIELD7

LIBRARYFIELD8

]
[
DESIGNATOR
A1
FOOTPRINT
unknown
PARTTYPE
abotol=1e-11
DESCRIPTION
options
Part Field 1
*
Part Field 2
*
Part Field 3
*
Part Field 4
*
Part Field 5
*
Part Field 6
*
Part Field 7
*
Part Field 8
*
Part Field 9
*
Part Field 10
*
Part Field 11
*
Part Field 12
*
Part Field 13
*
Part Field 14
*
Part Field 15
*
Part Field 16
*
LIBRARYFIELD1

LIBRARYFIELD2

LIBRARYFIELD3

LIBRARYFIELD4

LIBRARYFIELD5

LIBRARYFIELD6

LIBRARYFIELD7

LIBRARYFIELD8

]
[
DESIGNATOR
R1
FOOTPRINT
unknown
PARTTYPE
20
DESCRIPTION
RESISTOR
Part Field 1
*
Part Field 2
*
Part Field 3
*
Part Field 4
*
Part Field 5
*
Part Field 6
*
Part Field 7
*
Part Field 8
*
Part Field 9
*
Part Field 10
*
Part Field 11
*
Part Field 12
*
Part Field 13
*
Part Field 14
*
Part Field 15
*
Part Field 16
*
LIBRARYFIELD1

LIBRARYFIELD2

LIBRARYFIELD3

LIBRARYFIELD4

LIBRARYFIELD5

LIBRARYFIELD6

LIBRARYFIELD7

LIBRARYFIELD8

]
(
GND
V1-2 VOLTAGE_SOURCE-2 PASSIVE
R1-1 RESISTOR-1 PASSIVE 
)
(
unnamed_net1
V1-1 VOLTAGE_SOURCE-1 PASSIVE
R1-2 RESISTOR-2 PASSIVE 
)
