v 20040710 1
P 100 1500 300 1500 1 0 0
{
T 300 1550 5 8 1 1 0 6 1
pinnumber=1
T 300 1450 5 8 0 1 0 8 1
pinseq=1
T 450 1500 9 8 1 1 0 0 1
pinlabel=A
T 450 1500 5 8 0 1 0 2 1
pintype=in
}
P 2100 1500 1800 1500 1 0 0
{
T 1900 1550 5 8 1 1 0 0 1
pinnumber=13
T 1900 1450 5 8 0 1 0 2 1
pinseq=4
T 1750 1500 9 8 1 1 0 6 1
pinlabel=Q
T 1750 1500 5 8 0 1 0 8 1
pintype=out
}
P 100 1100 400 1100 1 0 0
{
T 300 1150 5 8 1 1 0 6 1
pinnumber=2
T 300 1050 5 8 0 1 0 8 1
pinseq=2
T 450 1100 9 8 1 1 0 0 1
pinlabel=B
T 450 1100 5 8 0 1 0 2 1
pintype=in
}
P 2100 700 1800 700 1 0 0
{
T 1900 750 5 8 1 1 0 0 1
pinnumber=14
T 1900 650 5 8 0 1 0 2 1
pinseq=6
T 1750 700 9 8 1 1 0 6 1
pinlabel=Ce
T 1750 700 5 8 0 1 0 8 1
pintype=pas
}
P 100 300 300 300 1 0 0
{
T 300 350 5 8 1 1 0 6 1
pinnumber=3
T 300 250 5 8 0 1 0 8 1
pinseq=3
T 450 300 9 8 1 1 0 0 1
pinlabel=CLR
T 450 300 5 8 0 1 0 2 1
pintype=in
}
P 2100 300 1800 300 1 0 0
{
T 1900 350 5 8 1 1 0 0 1
pinnumber=15
T 1900 250 5 8 0 1 0 2 1
pinseq=7
T 1750 300 9 8 1 1 0 6 1
pinlabel=Re/Ce
T 1750 300 5 8 0 1 0 8 1
pintype=pas
}
B 400 0 1400 1800 3 0 0 0 -1 -1 0 -1 -1 -1 -1 -1
T 400 3040 5 10 0 0 0 0 1
device=74123
T 400 2840 5 10 0 0 0 0 1
footprint=DIP16
T 400 2640 5 10 0 0 0 0 1
numslots=2
T 400 2440 5 10 0 0 0 0 1
slotdef=1:1,2,3,13,4,14,15
T 400 2240 5 10 0 0 0 0 1
slotdef=2:9,10,11,5,12,6,7
T 1800 1900 8 10 1 1 0 6 1
refdes=U?
T 400 3250 5 10 0 0 0 0 1
description=2 retriggerable monoflops with clear
T 400 3450 5 10 0 0 0 0 1
net=Vcc:16
T 400 3650 5 10 0 0 0 0 1
net=GND:8
T 400 1840 9 10 1 0 0 0 1
74123
L 450 425 725 425 3 0 0 0 -1 -1
V 350 300 50 6 0 0 0 -1 -1 0 -1 -1 -1 -1 -1
T 400 2040 5 10 0 0 0 0 1
symversion=1.0
T 400 3840 5 10 0 0 0 0 1
slot=1
V 350 1500 50 6 0 0 0 -1 -1 0 -1 -1 -1 -1 -1
T 400 4040 5 10 0 0 0 0 1
documentation=http://www.semiconductors.philips.com/acrobat/datasheets/74HC_HCT123_CNV_2.pdf
P 2100 1100 1800 1100 1 0 0
{
T 1900 1150 5 8 1 1 0 0 1
pinnumber=4
T 1900 1050 5 8 0 1 0 2 1
pinseq=5
T 1750 1100 9 8 1 1 0 6 1
pinlabel=Q
T 1750 1100 5 8 0 1 0 8 1
pintype=out
}
L 1750 1225 1625 1225 3 0 0 0 -1 -1
L 450 1625 550 1625 3 0 0 0 -1 -1
