v 20031231 1
P 0 4600 300 4600 1 0 0
{
T 200 4650 5 8 1 1 0 6 1
pinnumber=4
T 200 4550 5 8 0 1 0 8 1
pinseq=1
T 350 4600 9 8 1 1 0 0 1
pinlabel=D0
T 350 4600 5 8 0 1 0 2 1
pintype=in
}
P 2000 4600 1700 4600 1 0 0
{
T 1800 4650 5 8 1 1 0 0 1
pinnumber=5
T 1800 4550 5 8 0 1 0 2 1
pinseq=2
T 1650 4600 9 8 1 1 0 6 1
pinlabel=Y
T 1650 4600 5 8 0 1 0 8 1
pintype=out
}
P 0 4200 300 4200 1 0 0
{
T 200 4250 5 8 1 1 0 6 1
pinnumber=3
T 200 4150 5 8 0 1 0 8 1
pinseq=3
T 350 4200 9 8 1 1 0 0 1
pinlabel=D1
T 350 4200 5 8 0 1 0 2 1
pintype=in
}
P 2000 4200 1800 4200 1 0 0
{
T 1800 4250 5 8 1 1 0 0 1
pinnumber=6
T 1800 4150 5 8 0 1 0 2 1
pinseq=4
T 1650 4200 9 8 1 1 0 6 1
pinlabel=Y
T 1650 4200 5 8 0 1 0 8 1
pintype=out
}
V 1750 4200 50 6 0 0 0 -1 -1 0 -1 -1 -1 -1 -1
P 0 3800 300 3800 1 0 0
{
T 200 3850 5 8 1 1 0 6 1
pinnumber=2
T 200 3750 5 8 0 1 0 8 1
pinseq=5
T 350 3800 9 8 1 1 0 0 1
pinlabel=D2
T 350 3800 5 8 0 1 0 2 1
pintype=in
}
P 0 3400 300 3400 1 0 0
{
T 200 3450 5 8 1 1 0 6 1
pinnumber=1
T 200 3350 5 8 0 1 0 8 1
pinseq=6
T 350 3400 9 8 1 1 0 0 1
pinlabel=D3
T 350 3400 5 8 0 1 0 2 1
pintype=in
}
P 0 3000 300 3000 1 0 0
{
T 200 3050 5 8 1 1 0 6 1
pinnumber=15
T 200 2950 5 8 0 1 0 8 1
pinseq=7
T 350 3000 9 8 1 1 0 0 1
pinlabel=D4
T 350 3000 5 8 0 1 0 2 1
pintype=in
}
P 0 2600 300 2600 1 0 0
{
T 200 2650 5 8 1 1 0 6 1
pinnumber=14
T 200 2550 5 8 0 1 0 8 1
pinseq=8
T 350 2600 9 8 1 1 0 0 1
pinlabel=D5
T 350 2600 5 8 0 1 0 2 1
pintype=in
}
P 0 2200 300 2200 1 0 0
{
T 200 2250 5 8 1 1 0 6 1
pinnumber=13
T 200 2150 5 8 0 1 0 8 1
pinseq=9
T 350 2200 9 8 1 1 0 0 1
pinlabel=D6
T 350 2200 5 8 0 1 0 2 1
pintype=in
}
P 0 1800 300 1800 1 0 0
{
T 200 1850 5 8 1 1 0 6 1
pinnumber=12
T 200 1750 5 8 0 1 0 8 1
pinseq=10
T 350 1800 9 8 1 1 0 0 1
pinlabel=D7
T 350 1800 5 8 0 1 0 2 1
pintype=in
}
P 0 1400 300 1400 1 0 0
{
T 200 1450 5 8 1 1 0 6 1
pinnumber=11
T 200 1350 5 8 0 1 0 8 1
pinseq=11
T 350 1400 9 8 1 1 0 0 1
pinlabel=A0
T 350 1400 5 8 0 1 0 2 1
pintype=in
}
P 0 1000 300 1000 1 0 0
{
T 200 1050 5 8 1 1 0 6 1
pinnumber=10
T 200 950 5 8 0 1 0 8 1
pinseq=12
T 350 1000 9 8 1 1 0 0 1
pinlabel=A1
T 350 1000 5 8 0 1 0 2 1
pintype=in
}
P 0 600 300 600 1 0 0
{
T 200 650 5 8 1 1 0 6 1
pinnumber=9
T 200 550 5 8 0 1 0 8 1
pinseq=13
T 350 600 9 8 1 1 0 0 1
pinlabel=A2
T 350 600 5 8 0 1 0 2 1
pintype=in
}
P 0 200 200 200 1 0 0
{
T 200 250 5 8 1 1 0 6 1
pinnumber=7
T 200 150 5 8 0 1 0 8 1
pinseq=14
T 350 200 9 8 1 1 0 0 1
pinlabel=EN
T 350 200 5 8 0 1 0 2 1
pintype=in
}
V 250 200 50 6 0 0 0 -1 -1 0 -1 -1 -1 -1 -1
B 300 0 1400 4900 3 0 0 0 -1 -1 0 -1 -1 -1 -1 -1
T 300 5340 5 10 0 0 0 0 1
device=74151
T 300 5140 5 10 0 0 0 0 1
footprint=DIP16
T 1700 5000 8 10 1 1 0 6 1
refdes=U?
T 300 5550 5 10 0 0 0 0 1
description=8 to 1 multiplexer
T 300 6150 5 10 0 0 0 0 1
numslots=0
T 300 5750 5 10 0 0 0 0 1
net=Vcc:16
T 300 5950 5 10 0 0 0 0 1
net=GND:8
T 300 4940 9 10 1 0 0 0 1
74151
L 1575 4325 1675 4325 3 0 0 0 -1 -1
L 350 325 550 325 3 0 0 0 -1 -1
T 300 6350 5 10 0 0 0 0 1
documentation=http://www-s.ti.com/sc/ds/sn74hc151.pdf
