v 20031231 1
P 0 2300 300 2300 1 0 0
{
T 200 2350 5 8 1 1 0 6 1
pinnumber=1
T 200 2250 5 8 0 1 0 8 1
pinseq=1
T 350 2300 9 8 1 1 0 0 1
pinlabel=A
T 350 2300 5 8 0 1 0 2 1
pintype=in
}
P 0 2000 300 2000 1 0 0
{
T 200 2050 5 8 1 1 0 6 1
pinnumber=2
T 200 1950 5 8 0 1 0 8 1
pinseq=2
T 350 2000 9 8 1 1 0 0 1
pinlabel=B
T 350 2000 5 8 0 1 0 2 1
pintype=in
}
P 1700 2300 2000 2300 1 0 1
{
T 1800 2350 5 8 1 1 0 0 1
pinnumber=3
T 1800 2250 5 8 0 1 0 2 1
pinseq=3
T 1650 2300 9 8 1 1 0 6 1
pinlabel=QA
T 1650 2300 5 8 0 1 0 8 1
pintype=out
}
P 1700 2000 2000 2000 1 0 1
{
T 1800 2050 5 8 1 1 0 0 1
pinnumber=4
T 1800 1950 5 8 0 1 0 2 1
pinseq=4
T 1650 2000 9 8 1 1 0 6 1
pinlabel=QB
T 1650 2000 5 8 0 1 0 8 1
pintype=out
}
P 1700 1700 2000 1700 1 0 1
{
T 1800 1750 5 8 1 1 0 0 1
pinnumber=5
T 1800 1650 5 8 0 1 0 2 1
pinseq=5
T 1650 1700 9 8 1 1 0 6 1
pinlabel=QC
T 1650 1700 5 8 0 1 0 8 1
pintype=out
}
P 1700 1400 2000 1400 1 0 1
{
T 1800 1450 5 8 1 1 0 0 1
pinnumber=6
T 1800 1350 5 8 0 1 0 2 1
pinseq=6
T 1650 1400 9 8 1 1 0 6 1
pinlabel=QD
T 1650 1400 5 8 0 1 0 8 1
pintype=out
}
P 1700 200 2000 200 1 0 1
{
T 1800 250 5 8 1 1 0 0 1
pinnumber=13
T 1800 150 5 8 0 1 0 2 1
pinseq=13
T 1650 200 9 8 1 1 0 6 1
pinlabel=QH
T 1650 200 5 8 0 1 0 8 1
pintype=out
}
P 1700 500 2000 500 1 0 1
{
T 1800 550 5 8 1 1 0 0 1
pinnumber=12
T 1800 450 5 8 0 1 0 2 1
pinseq=12
T 1650 500 9 8 1 1 0 6 1
pinlabel=QG
T 1650 500 5 8 0 1 0 8 1
pintype=out
}
P 1700 800 2000 800 1 0 1
{
T 1800 850 5 8 1 1 0 0 1
pinnumber=11
T 1800 750 5 8 0 1 0 2 1
pinseq=11
T 1650 800 9 8 1 1 0 6 1
pinlabel=QF
T 1650 800 5 8 0 1 0 8 1
pintype=out
}
P 1700 1100 2000 1100 1 0 1
{
T 1800 1150 5 8 1 1 0 0 1
pinnumber=10
T 1800 1050 5 8 0 1 0 2 1
pinseq=10
T 1650 1100 9 8 1 1 0 6 1
pinlabel=QE
T 1650 1100 5 8 0 1 0 8 1
pintype=out
}
V 250 500 50 6 0 0 0 -1 -1 0 -1 -1 -1 -1 -1
P 0 500 200 500 1 0 0
{
T 200 550 5 8 1 1 0 6 1
pinnumber=9
T 200 450 5 8 0 1 0 8 1
pinseq=9
T 350 500 9 8 1 1 0 0 1
pinlabel=CLR
T 350 500 5 8 0 1 0 2 1
pintype=in
}
P 0 200 300 200 1 0 0
{
T 200 250 5 8 1 1 0 6 1
pinnumber=8
T 200 150 5 8 0 1 0 8 1
pinseq=8
T 375 200 9 8 1 1 0 0 1
pinlabel=CLK
T 375 200 5 8 0 1 0 2 1
pintype=clk
}
B 300 0 1400 2600 3 0 0 0 -1 -1 0 -1 -1 -1 -1 -1
T 300 2850 5 10 0 0 0 0 1
device=74164
T 1700 2700 8 10 1 1 0 6 1
refdes=U?
T 300 3050 5 10 0 0 0 0 1
footprint=DIP14
T 300 3250 5 10 0 0 0 0 1
description=8-bit serial-in/parallel-out shift register
T 300 3850 5 10 0 0 0 0 1
numslots=0
T 300 3450 5 10 0 0 0 0 1
net=Vcc:14
T 300 3650 5 10 0 0 0 0 1
net=GND:7
T 300 2640 9 10 1 0 0 0 1
74164
L 350 625 625 625 3 0 0 0 -1 -1
L 375 200 300 250 3 0 0 0 -1 -1
L 375 200 300 150 3 0 0 0 -1 -1
T 300 4050 5 10 0 0 0 0 1
documentation=http://www-s.ti.com/sc/ds/sn74hc164.pdf
