v 20040710 1
P 0 2600 300 2600 1 0 0
{
T 200 2650 5 8 1 1 0 6 1
pinnumber=7
T 200 2550 5 8 0 1 0 8 1
pinseq=1
T 350 2600 9 8 1 1 0 0 1
pinlabel=A
T 350 2600 5 8 0 1 0 2 1
pintype=in
}
P 2000 2600 1700 2600 1 0 0
{
T 1800 2650 5 8 1 1 0 0 1
pinnumber=13
T 1800 2550 5 8 0 1 0 2 1
pinseq=2
T 1650 2600 9 8 1 1 0 6 1
pinlabel=a
T 1650 2600 5 8 0 1 0 8 1
pintype=out
}
P 0 2200 300 2200 1 0 0
{
T 200 2250 5 8 1 1 0 6 1
pinnumber=1
T 200 2150 5 8 0 1 0 8 1
pinseq=3
T 350 2200 9 8 1 1 0 0 1
pinlabel=B
T 350 2200 5 8 0 1 0 2 1
pintype=in
}
P 2000 2200 1700 2200 1 0 0
{
T 1800 2250 5 8 1 1 0 0 1
pinnumber=12
T 1800 2150 5 8 0 1 0 2 1
pinseq=4
T 1650 2200 9 8 1 1 0 6 1
pinlabel=b
T 1650 2200 5 8 0 1 0 8 1
pintype=out
}
P 0 1800 300 1800 1 0 0
{
T 200 1850 5 8 1 1 0 6 1
pinnumber=2
T 200 1750 5 8 0 1 0 8 1
pinseq=5
T 350 1800 9 8 1 1 0 0 1
pinlabel=C
T 350 1800 5 8 0 1 0 2 1
pintype=in
}
P 2000 1800 1700 1800 1 0 0
{
T 1800 1850 5 8 1 1 0 0 1
pinnumber=11
T 1800 1750 5 8 0 1 0 2 1
pinseq=6
T 1650 1800 9 8 1 1 0 6 1
pinlabel=c
T 1650 1800 5 8 0 1 0 8 1
pintype=out
}
P 0 1400 300 1400 1 0 0
{
T 200 1450 5 8 1 1 0 6 1
pinnumber=6
T 200 1350 5 8 0 1 0 8 1
pinseq=7
T 350 1400 9 8 1 1 0 0 1
pinlabel=D
T 350 1400 5 8 0 1 0 2 1
pintype=in
}
P 2000 1400 1700 1400 1 0 0
{
T 1800 1450 5 8 1 1 0 0 1
pinnumber=10
T 1800 1350 5 8 0 1 0 2 1
pinseq=8
T 1650 1400 9 8 1 1 0 6 1
pinlabel=d
T 1650 1400 5 8 0 1 0 8 1
pintype=out
}
P 2000 1000 1700 1000 1 0 0
{
T 1800 1050 5 8 1 1 0 0 1
pinnumber=9
T 1800 950 5 8 0 1 0 2 1
pinseq=9
T 1650 1000 9 8 1 1 0 6 1
pinlabel=e
T 1650 1000 5 8 0 1 0 8 1
pintype=out
}
P 0 600 200 600 1 0 0
{
T 200 650 5 8 1 1 0 6 1
pinnumber=5
T 200 550 5 8 0 1 0 8 1
pinseq=10
T 350 600 9 8 1 1 0 0 1
pinlabel=RBI
T 350 600 5 8 0 1 0 2 1
pintype=in
}
V 250 600 50 6 0 0 0 -1 -1 0 -1 -1 -1 -1 -1
P 2000 600 1700 600 1 0 0
{
T 1800 650 5 8 1 1 0 0 1
pinnumber=15
T 1800 550 5 8 0 1 0 2 1
pinseq=11
T 1650 600 9 8 1 1 0 6 1
pinlabel=f
T 1650 600 5 8 0 1 0 8 1
pintype=out
}
P 2000 200 1700 200 1 0 0
{
T 1800 250 5 8 1 1 0 0 1
pinnumber=14
T 1800 150 5 8 0 1 0 2 1
pinseq=12
T 1650 200 9 8 1 1 0 6 1
pinlabel=g
T 1650 200 5 8 0 1 0 8 1
pintype=out
}
B 300 0 1400 2900 3 0 0 0 -1 -1 0 -1 -1 -1 -1 -1
T 300 3340 5 10 0 0 0 0 1
device=7448
T 300 3140 5 10 0 0 0 0 1
footprint=DIP16
T 300 2940 9 10 1 0 0 0 1
7448
T 1700 3000 8 10 1 1 0 6 1
refdes=U?
T 300 3550 5 10 0 0 0 0 1
description=BCD to 7-segment decoder
T 300 3750 5 10 0 0 0 0 1
net=Vcc:16
T 300 3950 5 10 0 0 0 0 1
net=GND:8
T 300 4150 5 10 0 0 0 0 1
numslots=0
P 0 200 200 200 1 0 0
{
T 200 250 5 8 1 1 0 6 1
pinnumber=4
T 200 150 5 8 0 1 0 8 1
pinseq=13
T 350 200 9 8 1 1 0 0 1
pinlabel=BI/RBO
T 350 200 5 8 0 1 0 2 1
pintype=io
}
V 250 200 50 6 0 0 0 -1 -1 0 -1 -1 -1 -1 -1
P 0 1000 200 1000 1 0 0
{
T 200 1050 5 8 1 1 0 6 1
pinnumber=3
T 200 950 5 8 0 1 0 8 1
pinseq=14
T 350 1000 9 8 1 1 0 0 1
pinlabel=LT
T 350 1000 5 8 0 1 0 2 1
pintype=in
}
V 250 1000 50 6 0 0 0 -1 -1 0 -1 -1 -1 -1 -1
L 350 325 875 325 3 0 0 0 -1 -1
L 350 725 600 725 3 0 0 0 -1 -1
L 350 1125 525 1125 3 0 0 0 -1 -1
