v 20031231 1
P 1700 300 2000 300 1 0 1
{
T 1800 350 5 8 1 1 0 0 1
pinnumber=23
T 1800 250 5 8 0 1 0 2 1
pinseq=23
T 1650 300 9 8 1 1 0 6 1
pinlabel=Q15
T 1650 300 5 8 0 1 0 8 1
pintype=out
}
P 1700 700 2000 700 1 0 1
{
T 1800 750 5 8 1 1 0 0 1
pinnumber=22
T 1800 650 5 8 0 1 0 2 1
pinseq=22
T 1650 700 9 8 1 1 0 6 1
pinlabel=Q14
T 1650 700 5 8 0 1 0 8 1
pintype=out
}
P 1700 1100 2000 1100 1 0 1
{
T 1800 1150 5 8 1 1 0 0 1
pinnumber=21
T 1800 1050 5 8 0 1 0 2 1
pinseq=21
T 1650 1100 9 8 1 1 0 6 1
pinlabel=Q13
T 1650 1100 5 8 0 1 0 8 1
pintype=out
}
P 1700 1500 2000 1500 1 0 1
{
T 1800 1550 5 8 1 1 0 0 1
pinnumber=20
T 1800 1450 5 8 0 1 0 2 1
pinseq=20
T 1650 1500 9 8 1 1 0 6 1
pinlabel=Q12
T 1650 1500 5 8 0 1 0 8 1
pintype=out
}
P 1700 1900 2000 1900 1 0 1
{
T 1800 1950 5 8 1 1 0 0 1
pinnumber=19
T 1800 1850 5 8 0 1 0 2 1
pinseq=19
T 1650 1900 9 8 1 1 0 6 1
pinlabel=Q11
T 1650 1900 5 8 0 1 0 8 1
pintype=out
}
P 1700 2300 2000 2300 1 0 1
{
T 1800 2350 5 8 1 1 0 0 1
pinnumber=18
T 1800 2250 5 8 0 1 0 2 1
pinseq=18
T 1650 2300 9 8 1 1 0 6 1
pinlabel=Q10
T 1650 2300 5 8 0 1 0 8 1
pintype=out
}
P 1700 2700 2000 2700 1 0 1
{
T 1800 2750 5 8 1 1 0 0 1
pinnumber=17
T 1800 2650 5 8 0 1 0 2 1
pinseq=17
T 1650 2700 9 8 1 1 0 6 1
pinlabel=Q9
T 1650 2700 5 8 0 1 0 8 1
pintype=out
}
P 1700 3100 2000 3100 1 0 1
{
T 1800 3150 5 8 1 1 0 0 1
pinnumber=16
T 1800 3050 5 8 0 1 0 2 1
pinseq=16
T 1650 3100 9 8 1 1 0 6 1
pinlabel=Q8
T 1650 3100 5 8 0 1 0 8 1
pintype=out
}
P 1700 3500 2000 3500 1 0 1
{
T 1800 3550 5 8 1 1 0 0 1
pinnumber=15
T 1800 3450 5 8 0 1 0 2 1
pinseq=15
T 1650 3500 9 8 1 1 0 6 1
pinlabel=Q7
T 1650 3500 5 8 0 1 0 8 1
pintype=out
}
P 1700 3900 2000 3900 1 0 1
{
T 1800 3950 5 8 1 1 0 0 1
pinnumber=14
T 1800 3850 5 8 0 1 0 2 1
pinseq=14
T 1650 3900 9 8 1 1 0 6 1
pinlabel=Q6
T 1650 3900 5 8 0 1 0 8 1
pintype=out
}
P 1700 4300 2000 4300 1 0 1
{
T 1800 4350 5 8 1 1 0 0 1
pinnumber=13
T 1800 4250 5 8 0 1 0 2 1
pinseq=13
T 1650 4300 9 8 1 1 0 6 1
pinlabel=Q5
T 1650 4300 5 8 0 1 0 8 1
pintype=out
}
P 1700 4700 2000 4700 1 0 1
{
T 1800 4750 5 8 1 1 0 0 1
pinnumber=11
T 1800 4650 5 8 0 1 0 2 1
pinseq=11
T 1650 4700 9 8 1 1 0 6 1
pinlabel=Q4
T 1650 4700 5 8 0 1 0 8 1
pintype=out
}
P 1700 5100 2000 5100 1 0 1
{
T 1800 5150 5 8 1 1 0 0 1
pinnumber=10
T 1800 5050 5 8 0 1 0 2 1
pinseq=10
T 1650 5100 9 8 1 1 0 6 1
pinlabel=Q3
T 1650 5100 5 8 0 1 0 8 1
pintype=out
}
P 1700 5500 2000 5500 1 0 1
{
T 1800 5550 5 8 1 1 0 0 1
pinnumber=9
T 1800 5450 5 8 0 1 0 2 1
pinseq=9
T 1650 5500 9 8 1 1 0 6 1
pinlabel=Q2
T 1650 5500 5 8 0 1 0 8 1
pintype=out
}
P 1700 5900 2000 5900 1 0 1
{
T 1800 5950 5 8 1 1 0 0 1
pinnumber=8
T 1800 5850 5 8 0 1 0 2 1
pinseq=8
T 1650 5900 9 8 1 1 0 6 1
pinlabel=Q1
T 1650 5900 5 8 0 1 0 8 1
pintype=out
}
P 1700 6300 2000 6300 1 0 1
{
T 1800 6350 5 8 1 1 0 0 1
pinnumber=7
T 1800 6250 5 8 0 1 0 2 1
pinseq=7
T 1650 6300 9 8 1 1 0 6 1
pinlabel=Q0
T 1650 6300 5 8 0 1 0 8 1
pintype=out
}
P 300 1100 0 1100 1 0 1
{
T 200 1150 5 8 1 1 0 6 1
pinnumber=5
T 200 1050 5 8 0 1 0 8 1
pinseq=5
T 375 1100 9 8 1 1 0 0 1
pinlabel=STCP
T 375 1100 5 8 0 1 0 2 1
pintype=in
}
V 250 300 50 6 0 0 0 -1 -1 0 -1 -1 -1 -1 -1
P 200 300 0 300 1 0 1
{
T 200 350 5 8 1 1 0 6 1
pinnumber=4
T 200 250 5 8 0 1 0 8 1
pinseq=4
T 350 300 9 8 1 1 0 0 1
pinlabel=STMR
T 350 300 5 8 0 1 0 2 1
pintype=in
}
P 300 1500 0 1500 1 0 1
{
T 200 1550 5 8 1 1 0 6 1
pinnumber=3
T 200 1450 5 8 0 1 0 8 1
pinseq=3
T 350 1500 9 8 1 1 0 0 1
pinlabel=R/W
T 350 1500 5 8 0 1 0 2 1
pintype=in
}
V 250 1900 50 6 0 0 0 -1 -1 0 -1 -1 -1 -1 -1
P 200 1900 0 1900 1 0 1
{
T 200 1950 5 8 1 1 0 6 1
pinnumber=2
T 200 1850 5 8 0 1 0 8 1
pinseq=2
T 375 1900 9 8 1 1 0 0 1
pinlabel=SHCP
T 375 1900 5 8 0 1 0 2 1
pintype=in
}
V 250 700 50 6 0 0 0 -1 -1 0 -1 -1 -1 -1 -1
P 200 700 0 700 1 0 1
{
T 200 750 5 8 1 1 0 6 1
pinnumber=1
T 200 650 5 8 0 1 0 8 1
pinseq=1
T 350 700 9 8 1 1 0 0 1
pinlabel=CS
T 350 700 5 8 0 1 0 2 1
pintype=in
}
P 300 6300 0 6300 1 0 1
{
T 200 6350 5 8 1 1 0 6 1
pinnumber=6
T 200 6250 5 8 0 1 0 8 1
pinseq=6
T 350 6300 9 8 1 1 0 0 1
pinlabel=SI/O
T 350 6300 5 8 0 1 0 2 1
pintype=io
}
B 300 0 1400 6600 3 0 0 0 -1 -1 0 -1 -1 -1 -1 -1
T 300 6850 5 10 0 0 0 0 1
device=74673A
T 2100 6700 8 10 1 1 0 6 1
refdes=U?
T 300 7050 5 10 0 0 0 0 1
footprint=DIP24
T 300 7250 5 10 0 0 0 0 1
description=16-bit serial-in/parallel-out shift register
T 300 7850 5 10 0 0 0 0 1
numslots=0
T 300 7450 5 10 0 0 0 0 1
net=Vcc:24
T 300 7650 5 10 0 0 0 0 1
net=GND:12
T 300 6650 3 10 1 0 0 0 1
74673A
L 375 1900 300 1950 3 0 0 0 -1 -1
L 375 1900 300 1850 3 0 0 0 -1 -1
L 500 1625 675 1625 3 0 0 0 -1 -1
L 375 2025 775 2025 3 0 0 0 -1 -1
L 350 825 525 825 3 0 0 0 -1 -1
L 350 425 750 425 3 0 0 0 -1 -1
L 300 1150 375 1100 3 0 0 0 -1 -1
L 375 1100 300 1050 3 0 0 0 -1 -1
