v 20031231 1
P 0 1600 300 1600 1 0 0
{
T 200 1650 5 8 1 1 0 6 1
pinnumber=1
T 200 1550 5 8 0 1 0 8 1
pinseq=1
T 350 1600 9 8 1 1 0 0 1
pinlabel=C_EXT
T 350 1600 5 8 0 1 0 2 1
pintype=pas
}
P 0 1200 300 1200 1 0 0
{
T 200 1250 5 8 1 1 0 6 1
pinnumber=2
T 200 1150 5 8 0 1 0 8 1
pinseq=2
T 350 1200 9 8 1 1 0 0 1
pinlabel=RC_EXT
T 350 1200 5 8 0 1 0 2 1
pintype=pas
}
V 250 800 50 6 0 0 0 -1 -1 0 -1 -1 -1 -1 -1
P 0 800 200 800 1 0 0
{
T 200 850 5 8 1 1 0 6 1
pinnumber=3
T 200 750 5 8 0 1 0 8 1
pinseq=3
T 350 800 9 8 1 1 0 0 1
pinlabel=CLR
T 350 800 5 8 0 1 0 2 1
pintype=in
}
V 250 200 50 6 0 0 0 -1 -1 0 -1 -1 -1 -1 -1
P 0 500 300 500 1 0 0
{
T 200 550 5 8 1 1 0 6 1
pinnumber=4
T 200 450 5 8 0 1 0 8 1
pinseq=4
T 350 500 9 8 1 1 0 0 1
pinlabel=TRIG
T 350 500 5 8 0 1 0 2 1
pintype=in
}
P 0 200 200 200 1 0 0
{
T 200 250 5 8 1 1 0 6 1
pinnumber=5
T 200 150 5 8 0 1 0 8 1
pinseq=5
T 350 200 9 8 1 1 0 0 1
pinlabel=TRIG
T 350 200 5 8 0 1 0 2 1
pintype=in
}
P 1400 1000 1700 1000 1 0 1
{
T 1500 1050 5 8 1 1 0 0 1
pinnumber=6
T 1500 950 5 8 0 1 0 2 1
pinseq=6
T 1350 1000 9 8 1 1 0 6 1
pinlabel=Q
T 1350 1000 5 8 0 1 0 8 1
pintype=out
}
P 1500 700 1700 700 1 0 1
{
T 1500 750 5 8 1 1 0 0 1
pinnumber=7
T 1500 650 5 8 0 1 0 2 1
pinseq=7
T 1350 700 9 8 1 1 0 6 1
pinlabel=Q
T 1350 700 5 8 0 1 0 8 1
pintype=out
}
B 300 0 1100 1800 3 0 0 0 -1 -1 0 -1 -1 -1 -1 -1
T 1400 1900 8 10 1 1 0 6 1
refdes=U?
V 1450 700 50 6 0 0 0 -1 -1 0 -1 -1 -1 -1 -1
T 300 2250 5 10 0 0 0 0 1
device=9602
T 1900 600 5 10 0 0 0 0 1
numslots=2
T 1900 800 5 10 0 0 0 0 1
slot=1
T 1900 1200 5 10 0 0 0 0 1
slotdef=1:1,2,3,4,5,6,7
T 1900 1000 5 10 0 0 0 0 1
slotdef=2:15,14,13,12,11,10,9
T 1900 1600 5 10 0 0 0 0 1
net=Vcc:16
T 1900 1400 5 10 0 0 0 0 1
net=GND:8
T 300 2050 5 10 0 0 0 0 1
footprint=DIP16
T 1900 400 5 10 0 0 0 0 1
description=2 retriggerable, resetable monoflops
T 300 1840 9 10 1 0 0 0 1
9602
L 350 925 625 925 3 0 0 0 -1 -1
L 350 325 675 325 3 0 0 0 -1 -1
L 1250 825 1350 825 3 0 0 0 -1 -1
