* Spice netlister for gnetlist
U100 SING_N_2 unconnected_pin-1 SING_N_2 SING_N SING_N SING_N SING_N SING_N SING_N ERROR_INVALID_PIN ERROR_INVALID_PIN ERROR_INVALID_PIN ERROR_INVALID_PIN ERROR_INVALID_PIN ERROR_INVALID_PIN <No valid value attribute found>
.END
