# Pin name action command file

# Start of element Cout
ChangePinName(Cout, 2, 2)
ChangePinName(Cout, 1, 1)

# Start of element R5
ChangePinName(R5, 1, 1)
ChangePinName(R5, 2, 2)

# Start of element R4
ChangePinName(R4, 1, 1)
ChangePinName(R4, 2, 2)

# Start of element RE2
ChangePinName(RE2, 1, 1)
ChangePinName(RE2, 2, 2)

# Start of element Q2
ChangePinName(Q2, 2, 2)
ChangePinName(Q2, 1, 1)
ChangePinName(Q2, 3, 3)

# Start of element A3

# Start of element R3
ChangePinName(R3, 1, 1)
ChangePinName(R3, 2, 2)

# Start of element A2

# Start of element RE1
ChangePinName(RE1, 1, 1)
ChangePinName(RE1, 2, 2)

# Start of element Q1
ChangePinName(Q1, 2, 2)
ChangePinName(Q1, 1, 1)
ChangePinName(Q1, 3, 3)

# Start of element A1

# Start of element R2
ChangePinName(R2, 1, 1)
ChangePinName(R2, 2, 2)

# Start of element Vinput
ChangePinName(Vinput, 2, -)
ChangePinName(Vinput, 1, +)

# Start of element R1
ChangePinName(R1, 1, 1)
ChangePinName(R1, 2, 2)

# Start of element C2
ChangePinName(C2, 2, 2)
ChangePinName(C2, 1, 1)

# Start of element CE2
ChangePinName(CE2, 2, 2)
ChangePinName(CE2, 1, 1)

# Start of element C1
ChangePinName(C1, 2, 2)
ChangePinName(C1, 1, 1)

# Start of element CE1
ChangePinName(CE1, 2, 2)
ChangePinName(CE1, 1, 1)

# Start of element R8
ChangePinName(R8, 1, 1)
ChangePinName(R8, 2, 2)

# Start of element VCC
ChangePinName(VCC, 2, -)
ChangePinName(VCC, 1, +)

# Start of element RC2
ChangePinName(RC2, 1, 1)
ChangePinName(RC2, 2, 2)

# Start of element RC1
ChangePinName(RC1, 1, 1)
ChangePinName(RC1, 2, 2)

# Start of element RL
ChangePinName(RL, 1, 1)
ChangePinName(RL, 2, 2)
