v 20030921
T 28600 57000 9 10 1 0 0 0
This is some text. ABC abc 1 2 3 4 5 6 7 8 9 0
T 28600 56700 9 10 1 0 0 1
This is some text. ABC abc 1 2 3 4 5 6 7 8 9 0
L 28600 56700 28400 56700 2 0 0 0 -1 -1
L 28600 57000 28400 57000 2 0 0 0 -1 -1
T 28600 56400 9 10 1 0 0 2
This is some text. ABC abc 1 2 3 4 5 6 7 8 9 0
L 28600 56400 28400 56400 2 0 0 0 -1 -1
T 30700 55800 9 10 1 0 0 3
This is some text. ABC abc 1 2 3 4 5 6 7 8 9 0
L 30700 55800 30700 55600 2 0 0 0 -1 -1
T 30700 55500 9 10 1 0 0 4
This is some text. ABC abc 1 2 3 4 5 6 7 8 9 0
L 30700 55500 30700 55300 2 0 0 0 -1 -1
T 30700 55200 9 10 1 0 0 5
This is some text. ABC abc 1 2 3 4 5 6 7 8 9 0
L 30700 55200 30700 54900 2 0 0 0 -1 -1
L 30800 55300 30600 55300 2 0 0 0 -1 -1
L 30600 55600 30800 55600 2 0 0 0 -1 -1
L 30800 54900 30600 54900 2 0 0 0 -1 -1
L 28400 56500 28400 56300 2 0 0 0 -1 -1
L 28400 56800 28400 56600 2 0 0 0 -1 -1
L 28400 57100 28400 56900 2 0 0 0 -1 -1
T 32700 54500 9 10 1 0 0 6
This is some text. ABC abc 1 2 3 4 5 6 7 8 9 0
L 32700 54500 32900 54500 2 0 0 0 -1 -1
L 32900 54400 32900 54600 2 0 0 0 -1 -1
T 32700 54200 9 10 1 0 0 7
This is some text. ABC abc 1 2 3 4 5 6 7 8 9 0
L 32700 54200 32900 54200 2 0 0 0 -1 -1
L 32900 54300 32900 54100 2 0 0 0 -1 -1
B 28300 56100 4400 1200 15 0 0 0 -1 -1 0 -1 -1 -1 -1 -1
B 28600 54800 4200 1200 15 0 0 0 -1 -1 0 -1 -1 -1 -1 -1
T 32700 53900 9 10 1 0 0 8
This is some text. ABC abc 1 2 3 4 5 6 7 8 9 0
L 32700 53900 32900 53900 2 0 0 0 -1 -1
L 32900 53800 32900 54000 2 0 0 0 -1 -1
B 28600 53600 4400 1100 15 0 0 0 -1 -1 0 -1 -1 -1 -1 -1
L 34100 54000 34100 53800 2 0 0 0 -1 -1
L 33800 54000 33800 53800 2 0 0 0 -1 -1
L 34400 54000 34400 53800 2 0 0 0 -1 -1
L 35000 56100 35200 56100 2 0 0 0 -1 -1
L 35300 56100 35500 56100 2 0 0 0 -1 -1
L 35600 56100 35900 56100 2 0 0 0 -1 -1
L 35500 56200 35500 56000 2 0 0 0 -1 -1
L 35200 56000 35200 56200 2 0 0 0 -1 -1
L 35900 56200 35900 56000 2 0 0 0 -1 -1
L 34300 53800 34500 53800 2 0 0 0 -1 -1
L 34000 53800 34200 53800 2 0 0 0 -1 -1
L 33700 53800 33900 53800 2 0 0 0 -1 -1
L 36300 58100 36300 58300 2 0 0 0 -1 -1
L 36400 58300 36200 58300 2 0 0 0 -1 -1
L 36600 58100 36600 58300 2 0 0 0 -1 -1
L 36500 58300 36700 58300 2 0 0 0 -1 -1
B 33500 53700 1200 4400 15 0 0 0 -1 -1 0 -1 -1 -1 -1 -1
B 34800 54000 1200 4200 15 0 0 0 -1 -1 0 -1 -1 -1 -1 -1
L 36900 58100 36900 58300 2 0 0 0 -1 -1
L 37000 58300 36800 58300 2 0 0 0 -1 -1
B 36100 54000 1100 4400 15 0 0 0 -1 -1 0 -1 -1 -1 -1 -1
T 33800 54000 9 10 1 0 90 0
This is some text. ABC abc 1 2 3 4 5 6 7 8 9 0
T 34100 54000 9 10 1 0 90 1
This is some text. ABC abc 1 2 3 4 5 6 7 8 9 0
T 34400 54000 9 10 1 0 90 2
This is some text. ABC abc 1 2 3 4 5 6 7 8 9 0
T 35000 56100 9 10 1 0 90 3
This is some text. ABC abc 1 2 3 4 5 6 7 8 9 0
T 35300 56100 9 10 1 0 90 4
This is some text. ABC abc 1 2 3 4 5 6 7 8 9 0
T 35600 56100 9 10 1 0 90 5
This is some text. ABC abc 1 2 3 4 5 6 7 8 9 0
T 36300 58100 9 10 1 0 90 6
This is some text. ABC abc 1 2 3 4 5 6 7 8 9 0
T 36600 58100 9 10 1 0 90 7
This is some text. ABC abc 1 2 3 4 5 6 7 8 9 0
T 36900 58100 9 10 1 0 90 8
This is some text. ABC abc 1 2 3 4 5 6 7 8 9 0
L 32400 58300 32600 58300 2 0 0 0 -1 -1
L 32400 58000 32600 58000 2 0 0 0 -1 -1
L 32400 58600 32600 58600 2 0 0 0 -1 -1
L 30300 59200 30300 59400 2 0 0 0 -1 -1
L 30300 59500 30300 59700 2 0 0 0 -1 -1
L 30300 59800 30300 60100 2 0 0 0 -1 -1
L 30200 59700 30400 59700 2 0 0 0 -1 -1
L 30400 59400 30200 59400 2 0 0 0 -1 -1
L 30200 60100 30400 60100 2 0 0 0 -1 -1
L 32600 58500 32600 58700 2 0 0 0 -1 -1
L 32600 58200 32600 58400 2 0 0 0 -1 -1
L 32600 57900 32600 58100 2 0 0 0 -1 -1
L 28300 60500 28100 60500 2 0 0 0 -1 -1
L 28100 60600 28100 60400 2 0 0 0 -1 -1
L 28300 60800 28100 60800 2 0 0 0 -1 -1
L 28100 60700 28100 60900 2 0 0 0 -1 -1
B 28300 57700 4400 1200 15 0 0 0 -1 -1 0 -1 -1 -1 -1 -1
B 28200 59000 4200 1200 15 0 0 0 -1 -1 0 -1 -1 -1 -1 -1
L 28300 61100 28100 61100 2 0 0 0 -1 -1
L 28100 61200 28100 61000 2 0 0 0 -1 -1
B 28000 60300 4400 1100 15 0 0 0 -1 -1 0 -1 -1 -1 -1 -1
T 32400 58000 9 10 1 0 180 0
This is some text. ABC abc 1 2 3 4 5 6 7 8 9 0
T 32400 58300 9 10 1 0 180 1
This is some text. ABC abc 1 2 3 4 5 6 7 8 9 0
T 32400 58600 9 10 1 0 180 2
This is some text. ABC abc 1 2 3 4 5 6 7 8 9 0
T 30300 59200 9 10 1 0 180 3
This is some text. ABC abc 1 2 3 4 5 6 7 8 9 0
T 30300 59500 9 10 1 0 180 4
This is some text. ABC abc 1 2 3 4 5 6 7 8 9 0
T 30300 59800 9 10 1 0 180 5
This is some text. ABC abc 1 2 3 4 5 6 7 8 9 0
T 28300 60500 9 10 1 0 180 6
This is some text. ABC abc 1 2 3 4 5 6 7 8 9 0
T 28300 60800 9 10 1 0 180 7
This is some text. ABC abc 1 2 3 4 5 6 7 8 9 0
T 28300 61100 9 10 1 0 180 8
This is some text. ABC abc 1 2 3 4 5 6 7 8 9 0
L 27200 57800 27200 58000 2 0 0 0 -1 -1
L 27500 57800 27500 58000 2 0 0 0 -1 -1
L 26900 57800 26900 58000 2 0 0 0 -1 -1
L 26300 55700 26100 55700 2 0 0 0 -1 -1
L 26000 55700 25800 55700 2 0 0 0 -1 -1
L 25700 55700 25400 55700 2 0 0 0 -1 -1
L 25800 55600 25800 55800 2 0 0 0 -1 -1
L 26100 55800 26100 55600 2 0 0 0 -1 -1
L 25400 55600 25400 55800 2 0 0 0 -1 -1
L 27000 58000 26800 58000 2 0 0 0 -1 -1
L 27300 58000 27100 58000 2 0 0 0 -1 -1
L 27600 58000 27400 58000 2 0 0 0 -1 -1
L 25000 53700 25000 53500 2 0 0 0 -1 -1
L 24900 53500 25100 53500 2 0 0 0 -1 -1
L 24700 53700 24700 53500 2 0 0 0 -1 -1
L 24800 53500 24600 53500 2 0 0 0 -1 -1
B 26600 53700 1200 4400 15 0 0 0 -1 -1 0 -1 -1 -1 -1 -1
B 25300 53600 1200 4200 15 0 0 0 -1 -1 0 -1 -1 -1 -1 -1
L 24400 53700 24400 53500 2 0 0 0 -1 -1
L 24300 53500 24500 53500 2 0 0 0 -1 -1
B 24100 53400 1100 4400 15 0 0 0 -1 -1 0 -1 -1 -1 -1 -1
T 27500 57800 9 10 1 0 270 0
This is some text. ABC abc 1 2 3 4 5 6 7 8 9 0
T 27200 57800 9 10 1 0 270 1
This is some text. ABC abc 1 2 3 4 5 6 7 8 9 0
T 26900 57800 9 10 1 0 270 2
This is some text. ABC abc 1 2 3 4 5 6 7 8 9 0
T 26300 55700 9 10 1 0 270 3
This is some text. ABC abc 1 2 3 4 5 6 7 8 9 0
T 26000 55700 9 10 1 0 270 4
This is some text. ABC abc 1 2 3 4 5 6 7 8 9 0
T 25700 55700 9 10 1 0 270 5
This is some text. ABC abc 1 2 3 4 5 6 7 8 9 0
T 25000 53700 9 10 1 0 270 6
This is some text. ABC abc 1 2 3 4 5 6 7 8 9 0
T 24700 53700 9 10 1 0 270 7
This is some text. ABC abc 1 2 3 4 5 6 7 8 9 0
T 24400 53700 9 10 1 0 270 8
This is some text. ABC abc 1 2 3 4 5 6 7 8 9 0
L 33000 66200 33200 66200 2 0 0 0 -1 -1
L 33000 66500 33200 66500 2 0 0 0 -1 -1
L 33000 65900 33200 65900 2 0 0 0 -1 -1
L 30900 65300 30900 65100 2 0 0 0 -1 -1
L 30900 65000 30900 64800 2 0 0 0 -1 -1
L 30900 64700 30900 64400 2 0 0 0 -1 -1
L 30800 64800 31000 64800 2 0 0 0 -1 -1
L 31000 65100 30800 65100 2 0 0 0 -1 -1
L 30800 64400 31000 64400 2 0 0 0 -1 -1
L 33200 66000 33200 65800 2 0 0 0 -1 -1
L 33200 66300 33200 66100 2 0 0 0 -1 -1
L 33200 66600 33200 66400 2 0 0 0 -1 -1
L 28900 64000 28700 64000 2 0 0 0 -1 -1
L 28700 63900 28700 64100 2 0 0 0 -1 -1
L 28900 63700 28700 63700 2 0 0 0 -1 -1
L 28700 63800 28700 63600 2 0 0 0 -1 -1
B 28900 65600 4400 1200 15 0 0 0 -1 -1 0 -1 -1 -1 -1 -1
B 28800 64300 4200 1200 15 0 0 0 -1 -1 0 -1 -1 -1 -1 -1
L 28900 63400 28700 63400 2 0 0 0 -1 -1
L 28700 63300 28700 63500 2 0 0 0 -1 -1
B 28600 63100 4400 1100 15 0 0 0 -1 -1 0 -1 -1 -1 -1 -1
L 27500 63500 27500 63300 2 0 0 0 -1 -1
L 27800 63500 27800 63300 2 0 0 0 -1 -1
L 27200 63500 27200 63300 2 0 0 0 -1 -1
L 26600 65600 26400 65600 2 0 0 0 -1 -1
L 26300 65600 26100 65600 2 0 0 0 -1 -1
L 26000 65600 25700 65600 2 0 0 0 -1 -1
L 26100 65700 26100 65500 2 0 0 0 -1 -1
L 26400 65500 26400 65700 2 0 0 0 -1 -1
L 25700 65700 25700 65500 2 0 0 0 -1 -1
L 27300 63300 27100 63300 2 0 0 0 -1 -1
L 27600 63300 27400 63300 2 0 0 0 -1 -1
L 27900 63300 27700 63300 2 0 0 0 -1 -1
L 25300 67600 25300 67800 2 0 0 0 -1 -1
L 25200 67800 25400 67800 2 0 0 0 -1 -1
L 25000 67600 25000 67800 2 0 0 0 -1 -1
L 25100 67800 24900 67800 2 0 0 0 -1 -1
B 26900 63200 1200 4400 15 0 0 0 -1 -1 0 -1 -1 -1 -1 -1
B 25600 63500 1200 4200 15 0 0 0 -1 -1 0 -1 -1 -1 -1 -1
L 24700 67600 24700 67800 2 0 0 0 -1 -1
L 24600 67800 24800 67800 2 0 0 0 -1 -1
B 24400 63500 1100 4400 15 0 0 0 -1 -1 0 -1 -1 -1 -1 -1
L 29200 67800 29000 67800 2 0 0 0 -1 -1
L 29200 67500 29000 67500 2 0 0 0 -1 -1
L 29200 68100 29000 68100 2 0 0 0 -1 -1
L 31300 68700 31300 68900 2 0 0 0 -1 -1
L 31300 69000 31300 69200 2 0 0 0 -1 -1
L 31300 69300 31300 69600 2 0 0 0 -1 -1
L 31400 69200 31200 69200 2 0 0 0 -1 -1
L 31200 68900 31400 68900 2 0 0 0 -1 -1
L 31400 69600 31200 69600 2 0 0 0 -1 -1
L 29000 68000 29000 68200 2 0 0 0 -1 -1
L 29000 67700 29000 67900 2 0 0 0 -1 -1
L 29000 67400 29000 67600 2 0 0 0 -1 -1
L 33300 70000 33500 70000 2 0 0 0 -1 -1
L 33500 70100 33500 69900 2 0 0 0 -1 -1
L 33300 70300 33500 70300 2 0 0 0 -1 -1
L 33500 70200 33500 70400 2 0 0 0 -1 -1
B 28900 67200 4400 1200 15 0 0 0 -1 -1 0 -1 -1 -1 -1 -1
B 29200 68500 4200 1200 15 0 0 0 -1 -1 0 -1 -1 -1 -1 -1
L 33300 70600 33500 70600 2 0 0 0 -1 -1
L 33500 70700 33500 70500 2 0 0 0 -1 -1
B 29200 69800 4400 1100 15 0 0 0 -1 -1 0 -1 -1 -1 -1 -1
L 34400 67300 34400 67500 2 0 0 0 -1 -1
L 34100 67300 34100 67500 2 0 0 0 -1 -1
L 34700 67300 34700 67500 2 0 0 0 -1 -1
L 35300 65200 35500 65200 2 0 0 0 -1 -1
L 35600 65200 35800 65200 2 0 0 0 -1 -1
L 35900 65200 36200 65200 2 0 0 0 -1 -1
L 35800 65100 35800 65300 2 0 0 0 -1 -1
L 35500 65300 35500 65100 2 0 0 0 -1 -1
L 36200 65100 36200 65300 2 0 0 0 -1 -1
L 34600 67500 34800 67500 2 0 0 0 -1 -1
L 34300 67500 34500 67500 2 0 0 0 -1 -1
L 34000 67500 34200 67500 2 0 0 0 -1 -1
L 36600 63200 36600 63000 2 0 0 0 -1 -1
L 36700 63000 36500 63000 2 0 0 0 -1 -1
L 36900 63200 36900 63000 2 0 0 0 -1 -1
L 36800 63000 37000 63000 2 0 0 0 -1 -1
B 33800 63200 1200 4400 15 0 0 0 -1 -1 0 -1 -1 -1 -1 -1
B 35100 63100 1200 4200 15 0 0 0 -1 -1 0 -1 -1 -1 -1 -1
L 37200 63200 37200 63000 2 0 0 0 -1 -1
L 37300 63000 37100 63000 2 0 0 0 -1 -1
B 36400 62900 1100 4400 15 0 0 0 -1 -1 0 -1 -1 -1 -1 -1
T 33000 66500 9 10 1 0 0 6
This is some text. ABC abc 1 2 3 4 5 6 7 8 9 0
T 33000 66200 9 10 1 0 0 7
This is some text. ABC abc 1 2 3 4 5 6 7 8 9 0
T 33000 65900 9 10 1 0 0 8
This is some text. ABC abc 1 2 3 4 5 6 7 8 9 0
T 30900 65300 9 10 1 0 0 3
This is some text. ABC abc 1 2 3 4 5 6 7 8 9 0
T 30900 65000 9 10 1 0 0 4
This is some text. ABC abc 1 2 3 4 5 6 7 8 9 0
T 30900 64700 9 10 1 0 0 5
This is some text. ABC abc 1 2 3 4 5 6 7 8 9 0
T 28900 64000 9 10 1 0 0 0
This is some text. ABC abc 1 2 3 4 5 6 7 8 9 0
T 28900 63700 9 10 1 0 0 1
This is some text. ABC abc 1 2 3 4 5 6 7 8 9 0
T 28900 63400 9 10 1 0 0 2
This is some text. ABC abc 1 2 3 4 5 6 7 8 9 0
T 27800 63500 9 10 1 0 90 2
This is some text. ABC abc 1 2 3 4 5 6 7 8 9 0
T 27500 63500 9 10 1 0 90 1
This is some text. ABC abc 1 2 3 4 5 6 7 8 9 0
T 27200 63500 9 10 1 0 90 0
This is some text. ABC abc 1 2 3 4 5 6 7 8 9 0
T 26600 65600 9 10 1 0 90 5
This is some text. ABC abc 1 2 3 4 5 6 7 8 9 0
T 26300 65600 9 10 1 0 90 4
This is some text. ABC abc 1 2 3 4 5 6 7 8 9 0
T 26000 65600 9 10 1 0 90 3
This is some text. ABC abc 1 2 3 4 5 6 7 8 9 0
T 25300 67600 9 10 1 0 90 8
This is some text. ABC abc 1 2 3 4 5 6 7 8 9 0
T 25000 67600 9 10 1 0 90 7
This is some text. ABC abc 1 2 3 4 5 6 7 8 9 0
T 24700 67600 9 10 1 0 90 6
This is some text. ABC abc 1 2 3 4 5 6 7 8 9 0
T 29200 67500 9 10 1 0 180 6
This is some text. ABC abc 1 2 3 4 5 6 7 8 9 0
T 29200 67800 9 10 1 0 180 7
This is some text. ABC abc 1 2 3 4 5 6 7 8 9 0
T 29200 68100 9 10 1 0 180 8
This is some text. ABC abc 1 2 3 4 5 6 7 8 9 0
T 31300 68700 9 10 1 0 180 3
This is some text. ABC abc 1 2 3 4 5 6 7 8 9 0
T 31300 69000 9 10 1 0 180 4
This is some text. ABC abc 1 2 3 4 5 6 7 8 9 0
T 31300 69300 9 10 1 0 180 5
This is some text. ABC abc 1 2 3 4 5 6 7 8 9 0
T 33300 70000 9 10 1 0 180 0
This is some text. ABC abc 1 2 3 4 5 6 7 8 9 0
T 33300 70300 9 10 1 0 180 1
This is some text. ABC abc 1 2 3 4 5 6 7 8 9 0
T 33300 70600 9 10 1 0 180 2
This is some text. ABC abc 1 2 3 4 5 6 7 8 9 0
T 34100 67300 9 10 1 0 270 2
This is some text. ABC abc 1 2 3 4 5 6 7 8 9 0
T 34400 67300 9 10 1 0 270 1
This is some text. ABC abc 1 2 3 4 5 6 7 8 9 0
T 34700 67300 9 10 1 0 270 0
This is some text. ABC abc 1 2 3 4 5 6 7 8 9 0
T 35300 65200 9 10 1 0 270 5
This is some text. ABC abc 1 2 3 4 5 6 7 8 9 0
T 35600 65200 9 10 1 0 270 4
This is some text. ABC abc 1 2 3 4 5 6 7 8 9 0
T 35900 65200 9 10 1 0 270 3
This is some text. ABC abc 1 2 3 4 5 6 7 8 9 0
T 36600 63200 9 10 1 0 270 8
This is some text. ABC abc 1 2 3 4 5 6 7 8 9 0
T 36900 63200 9 10 1 0 270 7
This is some text. ABC abc 1 2 3 4 5 6 7 8 9 0
T 37200 63200 9 10 1 0 270 6
This is some text. ABC abc 1 2 3 4 5 6 7 8 9 0
T 27000 68800 9 10 1 0 0 0
Mirrored
