v 20070216 1
B 54300 41700 5000 6600 3 0 0 0 -1 -1 0 -1 -1 -1 -1 -1
T 54400 41800 9 5 1 0 0 0 1
original test schematic created by Werner Hoch
T 54400 47100 9 10 1 0 0 0 1
_Ä_
T 54400 47300 9 10 1 0 0 0 1
_ä_
T 54400 47500 9 10 1 0 0 0 1
_Ö_
T 54400 47700 9 10 1 0 0 0 1
_ö_
T 54400 47900 9 10 1 0 0 0 1
_Å_
T 54400 48100 9 10 1 0 0 0 1
_å_
T 54800 47100 9 10 1 0 0 0 1
_Ä_
T 54800 47300 9 10 1 0 0 0 1
_ä_
T 54800 47500 9 10 1 0 0 0 1
_Ö_
T 54800 47700 9 10 1 0 0 0 1
_ö_
T 54800 47900 9 10 1 0 0 0 1
_Å_
T 54800 48100 9 10 1 0 0 0 1
_å_
T 55200 47100 9 10 1 0 0 0 1
_Ä_
T 55200 47300 9 10 1 0 0 0 1
_ä_
T 55200 47500 9 10 1 0 0 0 1
_Ö_
T 55200 47700 9 10 1 0 0 0 1
_ö_
T 55200 47900 9 10 1 0 0 0 1
_Å_
T 55200 48100 9 10 1 0 0 0 1
_å_
T 55600 47100 9 10 1 0 0 0 1
_Ä_
T 55600 47300 9 10 1 0 0 0 1
_ä_
T 55600 47500 9 10 1 0 0 0 1
_Ö_
T 55600 47700 9 10 1 0 0 0 1
_ö_
T 55600 47900 9 10 1 0 0 0 1
_Å_
T 55600 48100 9 10 1 0 0 0 1
_å_
T 56000 47100 9 10 1 0 0 0 1
_Ä_
T 56000 47300 9 10 1 0 0 0 1
_ä_
T 56000 47500 9 10 1 0 0 0 1
_Ö_
T 56000 47700 9 10 1 0 0 0 1
_ö_
T 56000 47900 9 10 1 0 0 0 1
_Å_
T 56000 48100 9 10 1 0 0 0 1
_å_
T 56400 47100 9 10 1 0 0 0 1
_Ä_
T 56400 47300 9 10 1 0 0 0 1
_ä_
T 56400 47500 9 10 1 0 0 0 1
_Ö_
T 56400 47700 9 10 1 0 0 0 1
_ö_
T 56400 47900 9 10 1 0 0 0 1
_Å_
T 56400 48100 9 10 1 0 0 0 1
_å_
T 56800 47100 9 10 1 0 0 0 1
_Ä_
T 56800 47300 9 10 1 0 0 0 1
_ä_
T 56800 47500 9 10 1 0 0 0 1
_Ö_
T 56800 47700 9 10 1 0 0 0 1
_ö_
T 56800 47900 9 10 1 0 0 0 1
_Å_
T 56800 48100 9 10 1 0 0 0 1
_å_
T 57200 47100 9 10 1 0 0 0 1
_Ä_
T 57200 47300 9 10 1 0 0 0 1
_ä_
T 57200 47500 9 10 1 0 0 0 1
_Ö_
T 57200 47700 9 10 1 0 0 0 1
_ö_
T 57200 47900 9 10 1 0 0 0 1
_Å_
T 57200 48100 9 10 1 0 0 0 1
_å_
T 57600 47100 9 10 1 0 0 0 1
_Ä_
T 57600 47300 9 10 1 0 0 0 1
_ä_
T 57600 47500 9 10 1 0 0 0 1
_Ö_
T 57600 47700 9 10 1 0 0 0 1
_ö_
T 57600 47900 9 10 1 0 0 0 1
_Å_
T 57600 48100 9 10 1 0 0 0 1
_å_
T 58000 47100 9 10 1 0 0 0 1
_Ä_
T 58000 47300 9 10 1 0 0 0 1
_ä_
T 58000 47500 9 10 1 0 0 0 1
_Ö_
T 58000 47700 9 10 1 0 0 0 1
_ö_
T 58000 47900 9 10 1 0 0 0 1
_Å_
T 58000 48100 9 10 1 0 0 0 1
_å_
T 58400 47100 9 10 1 0 0 0 1
_Ä_
T 58400 47300 9 10 1 0 0 0 1
_ä_
T 58400 47500 9 10 1 0 0 0 1
_Ö_
T 58400 47700 9 10 1 0 0 0 1
_ö_
T 58400 47900 9 10 1 0 0 0 1
_Å_
T 58400 48100 9 10 1 0 0 0 1
_å_
T 58800 47100 9 10 1 0 0 0 1
_Ä_
T 58800 47300 9 10 1 0 0 0 1
_ä_
T 58800 47500 9 10 1 0 0 0 1
_Ö_
T 58800 47700 9 10 1 0 0 0 1
_ö_
T 58800 47900 9 10 1 0 0 0 1
_Å_
T 58800 48100 9 10 1 0 0 0 1
_å_
T 54400 45900 9 10 1 0 0 0 1
_Æ_
T 54400 46100 9 10 1 0 0 0 1
_æ_
T 54400 46300 9 10 1 0 0 0 1
_Ø_
T 54400 46500 9 10 1 0 0 0 1
_ø_
T 54400 46700 9 10 1 0 0 0 1
_Ü_
T 54400 46900 9 10 1 0 0 0 1
_ü_
T 54800 45900 9 10 1 0 0 0 1
_Æ_
T 54800 46100 9 10 1 0 0 0 1
_æ_
T 54800 46300 9 10 1 0 0 0 1
_Ø_
T 54800 46500 9 10 1 0 0 0 1
_ø_
T 54800 46700 9 10 1 0 0 0 1
_Ü_
T 54800 46900 9 10 1 0 0 0 1
_ü_
T 55200 45900 9 10 1 0 0 0 1
_Æ_
T 55200 46100 9 10 1 0 0 0 1
_æ_
T 55200 46300 9 10 1 0 0 0 1
_Ø_
T 55200 46500 9 10 1 0 0 0 1
_ø_
T 55200 46700 9 10 1 0 0 0 1
_Ü_
T 55200 46900 9 10 1 0 0 0 1
_ü_
T 55600 45900 9 10 1 0 0 0 1
_Æ_
T 55600 46100 9 10 1 0 0 0 1
_æ_
T 55600 46300 9 10 1 0 0 0 1
_Ø_
T 55600 46500 9 10 1 0 0 0 1
_ø_
T 55600 46700 9 10 1 0 0 0 1
_Ü_
T 55600 46900 9 10 1 0 0 0 1
_ü_
T 56000 45900 9 10 1 0 0 0 1
_Æ_
T 56000 46100 9 10 1 0 0 0 1
_æ_
T 56000 46300 9 10 1 0 0 0 1
_Ø_
T 56000 46500 9 10 1 0 0 0 1
_ø_
T 56000 46700 9 10 1 0 0 0 1
_Ü_
T 56000 46900 9 10 1 0 0 0 1
_ü_
T 56400 45900 9 10 1 0 0 0 1
_Æ_
T 56400 46100 9 10 1 0 0 0 1
_æ_
T 56400 46300 9 10 1 0 0 0 1
_Ø_
T 56400 46500 9 10 1 0 0 0 1
_ø_
T 56400 46700 9 10 1 0 0 0 1
_Ü_
T 56400 46900 9 10 1 0 0 0 1
_ü_
T 56800 45900 9 10 1 0 0 0 1
_Æ_
T 56800 46100 9 10 1 0 0 0 1
_æ_
T 56800 46300 9 10 1 0 0 0 1
_Ø_
T 56800 46500 9 10 1 0 0 0 1
_ø_
T 56800 46700 9 10 1 0 0 0 1
_Ü_
T 56800 46900 9 10 1 0 0 0 1
_ü_
T 57200 45900 9 10 1 0 0 0 1
_Æ_
T 57200 46100 9 10 1 0 0 0 1
_æ_
T 57200 46300 9 10 1 0 0 0 1
_Ø_
T 57200 46500 9 10 1 0 0 0 1
_ø_
T 57200 46700 9 10 1 0 0 0 1
_Ü_
T 57200 46900 9 10 1 0 0 0 1
_ü_
T 57600 45900 9 10 1 0 0 0 1
_Æ_
T 57600 46100 9 10 1 0 0 0 1
_æ_
T 57600 46300 9 10 1 0 0 0 1
_Ø_
T 57600 46500 9 10 1 0 0 0 1
_ø_
T 57600 46700 9 10 1 0 0 0 1
_Ü_
T 57600 46900 9 10 1 0 0 0 1
_ü_
T 58000 45900 9 10 1 0 0 0 1
_Æ_
T 58000 46100 9 10 1 0 0 0 1
_æ_
T 58000 46300 9 10 1 0 0 0 1
_Ø_
T 58000 46500 9 10 1 0 0 0 1
_ø_
T 58000 46700 9 10 1 0 0 0 1
_Ü_
T 58000 46900 9 10 1 0 0 0 1
_ü_
T 58400 45900 9 10 1 0 0 0 1
_Æ_
T 58400 46100 9 10 1 0 0 0 1
_æ_
T 58400 46300 9 10 1 0 0 0 1
_Ø_
T 58400 46500 9 10 1 0 0 0 1
_ø_
T 58400 46700 9 10 1 0 0 0 1
_Ü_
T 58400 46900 9 10 1 0 0 0 1
_ü_
T 58800 45900 9 10 1 0 0 0 1
_Æ_
T 58800 46100 9 10 1 0 0 0 1
_æ_
T 58800 46300 9 10 1 0 0 0 1
_Ø_
T 58800 46500 9 10 1 0 0 0 1
_ø_
T 58800 46700 9 10 1 0 0 0 1
_Ü_
T 58800 46900 9 10 1 0 0 0 1
_ü_
T 54400 45700 9 10 1 0 0 0 1
_Á_
T 54800 45700 9 10 1 0 0 0 1
_Á_
T 55200 45700 9 10 1 0 0 0 1
_Á_
T 55600 45700 9 10 1 0 0 0 1
_Á_
T 56000 45700 9 10 1 0 0 0 1
_Á_
T 56400 45700 9 10 1 0 0 0 1
_Á_
T 56800 45700 9 10 1 0 0 0 1
_Á_
T 57200 45700 9 10 1 0 0 0 1
_Á_
T 57600 45700 9 10 1 0 0 0 1
_Á_
T 58000 45700 9 10 1 0 0 0 1
_Á_
T 58400 45700 9 10 1 0 0 0 1
_Á_
T 58800 45700 9 10 1 0 0 0 1
_Á_
T 54400 45500 9 10 1 0 0 0 1
_É_
T 54800 45500 9 10 1 0 0 0 1
_É_
T 55200 45500 9 10 1 0 0 0 1
_É_
T 55600 45500 9 10 1 0 0 0 1
_É_
T 56000 45500 9 10 1 0 0 0 1
_É_
T 56400 45500 9 10 1 0 0 0 1
_É_
T 56800 45500 9 10 1 0 0 0 1
_É_
T 57200 45500 9 10 1 0 0 0 1
_É_
T 57600 45500 9 10 1 0 0 0 1
_É_
T 58000 45500 9 10 1 0 0 0 1
_É_
T 58400 45500 9 10 1 0 0 0 1
_É_
T 58800 45500 9 10 1 0 0 0 1
_É_
T 54400 45300 9 10 1 0 0 0 1
_Í_
T 54700 45300 9 10 1 0 0 0 1
_Í_
T 55000 45300 9 10 1 0 0 0 1
_Í_
T 55300 45300 9 10 1 0 0 0 1
_Í_
T 55600 45300 9 10 1 0 0 0 1
_Í_
T 55900 45300 9 10 1 0 0 0 1
_Í_
T 56200 45300 9 10 1 0 0 0 1
_Í_
T 56500 45300 9 10 1 0 0 0 1
_Í_
T 56800 45300 9 10 1 0 0 0 1
_Í_
T 57100 45300 9 10 1 0 0 0 1
_Í_
T 57400 45300 9 10 1 0 0 0 1
_Í_
T 57700 45300 9 10 1 0 0 0 1
_Í_
T 58000 45300 9 10 1 0 0 0 1
_Í_
T 58300 45300 9 10 1 0 0 0 1
_Í_
T 58600 45300 9 10 1 0 0 0 1
_Í_
T 58900 45300 9 10 1 0 0 0 1
_Í_
T 54400 45100 9 10 1 0 0 0 1
_Ñ_
T 54800 45100 9 10 1 0 0 0 1
_Ñ_
T 55200 45100 9 10 1 0 0 0 1
_Ñ_
T 55600 45100 9 10 1 0 0 0 1
_Ñ_
T 56000 45100 9 10 1 0 0 0 1
_Ñ_
T 56400 45100 9 10 1 0 0 0 1
_Ñ_
T 56800 45100 9 10 1 0 0 0 1
_Ñ_
T 57200 45100 9 10 1 0 0 0 1
_Ñ_
T 57600 45100 9 10 1 0 0 0 1
_Ñ_
T 58000 45100 9 10 1 0 0 0 1
_Ñ_
T 58400 45100 9 10 1 0 0 0 1
_Ñ_
T 58800 45100 9 10 1 0 0 0 1
_Ñ_
T 54400 44900 9 10 1 0 0 0 1
_Ó_
T 54800 44900 9 10 1 0 0 0 1
_Ó_
T 55200 44900 9 10 1 0 0 0 1
_Ó_
T 55600 44900 9 10 1 0 0 0 1
_Ó_
T 56000 44900 9 10 1 0 0 0 1
_Ó_
T 56400 44900 9 10 1 0 0 0 1
_Ó_
T 56800 44900 9 10 1 0 0 0 1
_Ó_
T 57200 44900 9 10 1 0 0 0 1
_Ó_
T 57600 44900 9 10 1 0 0 0 1
_Ó_
T 58000 44900 9 10 1 0 0 0 1
_Ó_
T 58400 44900 9 10 1 0 0 0 1
_Ó_
T 58800 44900 9 10 1 0 0 0 1
_Ó_
T 54400 44700 9 10 1 0 0 0 1
_Ú_
T 54800 44700 9 10 1 0 0 0 1
_Ú_
T 55200 44700 9 10 1 0 0 0 1
_Ú_
T 55600 44700 9 10 1 0 0 0 1
_Ú_
T 56000 44700 9 10 1 0 0 0 1
_Ú_
T 56400 44700 9 10 1 0 0 0 1
_Ú_
T 56800 44700 9 10 1 0 0 0 1
_Ú_
T 57200 44700 9 10 1 0 0 0 1
_Ú_
T 57600 44700 9 10 1 0 0 0 1
_Ú_
T 58000 44700 9 10 1 0 0 0 1
_Ú_
T 58400 44700 9 10 1 0 0 0 1
_Ú_
T 58800 44700 9 10 1 0 0 0 1
_Ú_
T 54400 44500 9 10 1 0 0 0 1
_á_
T 54800 44500 9 10 1 0 0 0 1
_á_
T 55200 44500 9 10 1 0 0 0 1
_á_
T 55600 44500 9 10 1 0 0 0 1
_á_
T 56000 44500 9 10 1 0 0 0 1
_á_
T 56400 44500 9 10 1 0 0 0 1
_á_
T 56800 44500 9 10 1 0 0 0 1
_á_
T 57200 44500 9 10 1 0 0 0 1
_á_
T 57600 44500 9 10 1 0 0 0 1
_á_
T 58000 44500 9 10 1 0 0 0 1
_á_
T 58400 44500 9 10 1 0 0 0 1
_á_
T 58800 44500 9 10 1 0 0 0 1
_á_
T 54400 44300 9 10 1 0 0 0 1
_é_
T 54800 44300 9 10 1 0 0 0 1
_é_
T 55200 44300 9 10 1 0 0 0 1
_é_
T 55600 44300 9 10 1 0 0 0 1
_é_
T 56000 44300 9 10 1 0 0 0 1
_é_
T 56400 44300 9 10 1 0 0 0 1
_é_
T 56800 44300 9 10 1 0 0 0 1
_é_
T 57200 44300 9 10 1 0 0 0 1
_é_
T 57600 44300 9 10 1 0 0 0 1
_é_
T 58000 44300 9 10 1 0 0 0 1
_é_
T 58400 44300 9 10 1 0 0 0 1
_é_
T 58800 44300 9 10 1 0 0 0 1
_é_
T 54400 44100 9 10 1 0 0 0 1
_¡_
T 54800 44100 9 10 1 0 0 0 1
_¡_
T 55200 44100 9 10 1 0 0 0 1
_¡_
T 55600 44100 9 10 1 0 0 0 1
_¡_
T 56000 44100 9 10 1 0 0 0 1
_¡_
T 56400 44100 9 10 1 0 0 0 1
_¡_
T 56800 44100 9 10 1 0 0 0 1
_¡_
T 57200 44100 9 10 1 0 0 0 1
_¡_
T 57600 44100 9 10 1 0 0 0 1
_¡_
T 58000 44100 9 10 1 0 0 0 1
_¡_
T 58400 44100 9 10 1 0 0 0 1
_¡_
T 58800 44100 9 10 1 0 0 0 1
_¡_
T 54400 43900 9 10 1 0 0 0 1
_í_
T 54700 43900 9 10 1 0 0 0 1
_í_
T 55000 43900 9 10 1 0 0 0 1
_í_
T 55300 43900 9 10 1 0 0 0 1
_í_
T 55600 43900 9 10 1 0 0 0 1
_í_
T 55900 43900 9 10 1 0 0 0 1
_í_
T 56200 43900 9 10 1 0 0 0 1
_í_
T 56500 43900 9 10 1 0 0 0 1
_í_
T 56800 43900 9 10 1 0 0 0 1
_í_
T 57100 43900 9 10 1 0 0 0 1
_í_
T 57400 43900 9 10 1 0 0 0 1
_í_
T 57700 43900 9 10 1 0 0 0 1
_í_
T 58000 43900 9 10 1 0 0 0 1
_í_
T 58300 43900 9 10 1 0 0 0 1
_í_
T 58600 43900 9 10 1 0 0 0 1
_í_
T 58900 43900 9 10 1 0 0 0 1
_í_
T 54400 43700 9 10 1 0 0 0 1
_ñ_
T 54800 43700 9 10 1 0 0 0 1
_ñ_
T 55200 43700 9 10 1 0 0 0 1
_ñ_
T 55600 43700 9 10 1 0 0 0 1
_ñ_
T 56000 43700 9 10 1 0 0 0 1
_ñ_
T 56400 43700 9 10 1 0 0 0 1
_ñ_
T 56800 43700 9 10 1 0 0 0 1
_ñ_
T 57200 43700 9 10 1 0 0 0 1
_ñ_
T 57600 43700 9 10 1 0 0 0 1
_ñ_
T 58000 43700 9 10 1 0 0 0 1
_ñ_
T 58400 43700 9 10 1 0 0 0 1
_ñ_
T 58800 43700 9 10 1 0 0 0 1
_ñ_
T 54400 43500 9 10 1 0 0 0 1
_ó_
T 54800 43500 9 10 1 0 0 0 1
_ó_
T 55200 43500 9 10 1 0 0 0 1
_ó_
T 55600 43500 9 10 1 0 0 0 1
_ó_
T 56000 43500 9 10 1 0 0 0 1
_ó_
T 56400 43500 9 10 1 0 0 0 1
_ó_
T 56800 43500 9 10 1 0 0 0 1
_ó_
T 57200 43500 9 10 1 0 0 0 1
_ó_
T 57600 43500 9 10 1 0 0 0 1
_ó_
T 58000 43500 9 10 1 0 0 0 1
_ó_
T 58400 43500 9 10 1 0 0 0 1
_ó_
T 58800 43500 9 10 1 0 0 0 1
_ó_
T 54400 43300 9 10 1 0 0 0 1
_¿_
T 54800 43300 9 10 1 0 0 0 1
_¿_
T 55200 43300 9 10 1 0 0 0 1
_¿_
T 55600 43300 9 10 1 0 0 0 1
_¿_
T 56000 43300 9 10 1 0 0 0 1
_¿_
T 56400 43300 9 10 1 0 0 0 1
_¿_
T 56800 43300 9 10 1 0 0 0 1
_¿_
T 57200 43300 9 10 1 0 0 0 1
_¿_
T 57600 43300 9 10 1 0 0 0 1
_¿_
T 58000 43300 9 10 1 0 0 0 1
_¿_
T 58400 43300 9 10 1 0 0 0 1
_¿_
T 58800 43300 9 10 1 0 0 0 1
_¿_
T 54400 43100 9 10 1 0 0 0 1
_ú_
T 54800 43100 9 10 1 0 0 0 1
_ú_
T 55200 43100 9 10 1 0 0 0 1
_ú_
T 55600 43100 9 10 1 0 0 0 1
_ú_
T 56000 43100 9 10 1 0 0 0 1
_ú_
T 56400 43100 9 10 1 0 0 0 1
_ú_
T 56800 43100 9 10 1 0 0 0 1
_ú_
T 57200 43100 9 10 1 0 0 0 1
_ú_
T 57600 43100 9 10 1 0 0 0 1
_ú_
T 58000 43100 9 10 1 0 0 0 1
_ú_
T 58400 43100 9 10 1 0 0 0 1
_ú_
T 58800 43100 9 10 1 0 0 0 1
_ú_
T 54400 42500 9 10 1 0 0 0 1
_Ő_
T 54800 42500 9 10 1 0 0 0 1
_Ő_
T 55200 42500 9 10 1 0 0 0 1
_Ő_
T 55600 42500 9 10 1 0 0 0 1
_Ő_
T 56000 42500 9 10 1 0 0 0 1
_Ő_
T 56400 42500 9 10 1 0 0 0 1
_Ő_
T 56800 42500 9 10 1 0 0 0 1
_Ő_
T 57200 42500 9 10 1 0 0 0 1
_Ő_
T 57600 42500 9 10 1 0 0 0 1
_Ő_
T 58000 42500 9 10 1 0 0 0 1
_Ő_
T 58400 42500 9 10 1 0 0 0 1
_Ő_
T 58800 42500 9 10 1 0 0 0 1
_Ő_
T 54400 42300 9 10 1 0 0 0 1
_Ű_
T 54400 42900 9 10 1 0 0 0 1
_ő_
T 54400 42700 9 10 1 0 0 0 1
_ű_
T 54800 42900 9 10 1 0 0 0 1
_ő_
T 55200 42900 9 10 1 0 0 0 1
_ő_
T 55600 42900 9 10 1 0 0 0 1
_ő_
T 56000 42900 9 10 1 0 0 0 1
_ő_
T 56400 42900 9 10 1 0 0 0 1
_ő_
T 56800 42900 9 10 1 0 0 0 1
_ő_
T 57200 42900 9 10 1 0 0 0 1
_ő_
T 57600 42900 9 10 1 0 0 0 1
_ő_
T 58000 42900 9 10 1 0 0 0 1
_ő_
T 58400 42900 9 10 1 0 0 0 1
_ő_
T 58800 42900 9 10 1 0 0 0 1
_ő_
T 54800 42700 9 10 1 0 0 0 1
_ű_
T 55200 42700 9 10 1 0 0 0 1
_ű_
T 55600 42700 9 10 1 0 0 0 1
_ű_
T 56000 42700 9 10 1 0 0 0 1
_ű_
T 56400 42700 9 10 1 0 0 0 1
_ű_
T 56800 42700 9 10 1 0 0 0 1
_ű_
T 57200 42700 9 10 1 0 0 0 1
_ű_
T 57600 42700 9 10 1 0 0 0 1
_ű_
T 58000 42700 9 10 1 0 0 0 1
_ű_
T 58400 42700 9 10 1 0 0 0 1
_ű_
T 58800 42700 9 10 1 0 0 0 1
_ű_
T 54800 42300 9 10 1 0 0 0 1
_Ű_
T 55200 42300 9 10 1 0 0 0 1
_Ű_
T 55600 42300 9 10 1 0 0 0 1
_Ű_
T 56000 42300 9 10 1 0 0 0 1
_Ű_
T 56400 42300 9 10 1 0 0 0 1
_Ű_
T 56800 42300 9 10 1 0 0 0 1
_Ű_
T 57200 42300 9 10 1 0 0 0 1
_Ű_
T 57600 42300 9 10 1 0 0 0 1
_Ű_
T 58000 42300 9 10 1 0 0 0 1
_Ű_
T 58400 42300 9 10 1 0 0 0 1
_Ű_
T 58800 42300 9 10 1 0 0 0 1
_Ű_
T 54400 42100 9 10 1 0 0 0 1
_µ_
T 54800 42100 9 10 1 0 0 0 1
_µ_
T 55200 42100 9 10 1 0 0 0 1
_µ_
T 55600 42100 9 10 1 0 0 0 1
_µ_
T 56000 42100 9 10 1 0 0 0 1
_µ_
T 56400 42100 9 10 1 0 0 0 1
_µ_
T 56800 42100 9 10 1 0 0 0 1
_µ_
T 57200 42100 9 10 1 0 0 0 1
_µ_
T 57600 42100 9 10 1 0 0 0 1
_µ_
T 58000 42100 9 10 1 0 0 0 1
_µ_
T 58400 42100 9 10 1 0 0 0 1
_µ_
T 58800 42100 9 10 1 0 0 0 1
_µ_
