refdes:refdes:value:device
RL:RL:100K:RESISTOR
RC1:RC1:3.3K:RESISTOR
RC2:RC2:1K:RESISTOR
VCC:VCC:DC 15V:VOLTAGE_SOURCE
R8:R8:1:RESISTOR
CE1:CE1:1pF:CAPACITOR
C1:C1:2.2uF:CAPACITOR
CE2:CE2:1pF:CAPACITOR
C2:C2:2.2uF:CAPACITOR
R1:R1:28K:RESISTOR
Vinput:Vinput:DC 1.6V AC 10MV SIN(0 1MV 1KHZ):vsin
R2:R2:2K:RESISTOR
A1:A1:unknown:model
Q1:Q1:unknown:NPN_TRANSISTOR
RE1:RE1:100:RESISTOR
A2:A2:unknown:include
R3:R3:28K:RESISTOR
A3:A3:.options TEMP=25:directive
Q2:Q2:unknown:NPN_TRANSISTOR
RE2:RE2:100:RESISTOR
R4:R4:2.8K:RESISTOR
R5:R5:10:RESISTOR
Cout:Cout:2.2uF:CAPACITOR
